0.000000000000000000e+00 -1.493600138397748015e-22
8.274839999999915508e-06 -1.514738120706290971e-22
1.654968000000010884e-05 -1.534483442832866796e-22
2.482452000000002435e-05 -1.552816032522745034e-22
3.309935999999993986e-05 -1.569715817521231197e-22
4.137420000000013658e-05 -1.585163213317676256e-22
4.964904000000004870e-05 -1.599140562426605520e-22
5.792387999999996760e-05 -1.611631065030569828e-22
6.619871999999987972e-05 -1.622619416577615332e-22
7.447356000000006967e-05 -1.632091131034566104e-22
8.274839999999998856e-05 -1.640033475820641058e-22
9.102323999999990746e-05 -1.646434637128673706e-22
9.929808000000009741e-05 -1.651284692152402199e-22
1.075729200000000163e-04 -1.654574710311962591e-22
1.158477599999999352e-04 -1.656297798120767183e-22
1.241226000000001251e-04 -1.656448087760858355e-22
1.323974400000000305e-04 -1.655021736147562655e-22
1.406722799999999629e-04 -1.652015893774740655e-22
1.489471200000001393e-04 -1.647429621445978943e-22
1.572219600000000718e-04 -1.641262936489677732e-22
1.654967999999999771e-04 -1.633517719981702669e-22
1.737716400000001806e-04 -1.624196832629600632e-22
1.820464800000000860e-04 -1.613305106501548406e-22
1.903213199999999913e-04 -1.600848422654280691e-22
1.985961599999999238e-04 -1.586834775467432421e-22
2.068710000000001273e-04 -1.571273248476423339e-22
2.151458400000000326e-04 -1.554175052639183586e-22
2.234206799999999380e-04 -1.535552462425196005e-22
2.316955200000001415e-04 -1.515419767551966909e-22
2.399703600000000468e-04 -1.493792272009516121e-22
2.482451999999999792e-04 -1.470687192491358182e-22
2.565200400000001556e-04 -1.446122742068862022e-22
2.647948800000000610e-04 -1.420119032732339942e-22
2.730697200000000205e-04 -1.392697188195546023e-22
2.813445600000001969e-04 -1.363880259210555183e-22
2.896194000000001023e-04 -1.333692325497458187e-22
2.978942400000000076e-04 -1.302159398865892345e-22
3.061690799999999130e-04 -1.269308524736681764e-22
3.144439200000001436e-04 -1.235168658432417487e-22
3.227187600000000489e-04 -1.199769783126935292e-22
3.309935999999999543e-04 -1.163143751511373060e-22
3.392684400000001307e-04 -1.125323421407173528e-22
3.475432800000000902e-04 -1.086343441282264213e-22
3.558181199999999956e-04 -1.046239419708073960e-22
3.640929599999999009e-04 -1.005048636811384263e-22
3.723678000000000773e-04 -9.628092848545267744e-23
3.806426399999999826e-04 -9.195611181289762068e-23
3.889174800000002132e-04 -8.753447752302660541e-23
3.971923200000001186e-04 -8.302023903027441813e-23
4.054671600000000239e-04 -7.841769584618424711e-23
4.137419999999999293e-04 -7.373128982320819775e-23
4.220168400000001599e-04 -6.896554275153618459e-23
4.302916800000000652e-04 -6.412510372011887772e-23
4.385665199999999706e-04 -5.921469088111278022e-23
4.468413600000001470e-04 -5.423912795139416906e-23
4.551162000000001065e-04 -4.920329663243702614e-23
4.633910400000000119e-04 -4.411216479685733328e-23
4.716658799999999172e-04 -3.897075140193155964e-23
4.799407200000000936e-04 -3.378415018725333724e-23
4.882155599999999989e-04 -2.855750224802530543e-23
4.964904000000001753e-04 -2.329601639272874475e-23
5.047652400000001349e-04 -1.800494383574128754e-23
5.130400800000000944e-04 -1.268959392065607617e-23
5.213149199999999456e-04 -7.355309875573868923e-24
5.295897600000001220e-04 -2.007478898223443257e-24
5.378646000000000815e-04 3.348488945973938553e-24
5.461394400000000411e-04 8.707155783645433838e-24
5.544142800000002175e-04 1.406307252570028444e-23
5.626891200000000686e-04 1.941077779880519027e-23
5.709639600000000282e-04 2.474481015569031149e-23
5.792387999999998793e-04 3.005970945917535250e-23
5.875136400000001641e-04 3.535002503939596522e-23
5.957884800000000152e-04 4.061031809097002122e-23
6.040633200000001916e-04 4.583516689684964699e-23
6.123381600000001512e-04 5.101916922851820268e-23
6.206130000000001107e-04 5.615694815573169740e-23
6.288878399999999619e-04 6.124315411167385546e-23
6.371626800000001383e-04 6.627247553685562481e-23
6.454375200000000978e-04 7.123964001255548866e-23
6.537123600000002742e-04 7.613943054684169506e-23
6.619872000000002338e-04 8.096668402711742759e-23
6.702620400000000849e-04 8.571630995083002691e-23
6.785368800000000445e-04 9.038328417380589493e-23
6.868117199999998956e-04 9.496266755034119770e-23
6.950865600000001804e-04 9.944959418982716117e-23
7.033614000000000316e-04 1.038392919339486961e-22
7.116362400000002079e-04 1.081270653120303349e-22
7.199110800000001675e-04 1.123083224658419181e-22
7.281859200000001271e-04 1.163785523716212400e-22
7.364607599999999782e-04 1.203333613785994749e-22
7.447356000000001546e-04 1.241684431207991565e-22
7.530104400000001141e-04 1.278796252708983879e-22
7.612852800000002905e-04 1.314628303561395568e-22
7.695601200000002501e-04 1.349141323525030687e-22
7.778349600000001012e-04 1.382297071725241321e-22
7.861098000000000608e-04 1.414058983946896302e-22
7.943846399999999119e-04 1.444391569527073311e-22
8.026594800000004136e-04 1.473261144706875892e-22
8.109343200000003731e-04 1.500635128986831454e-22
8.192091600000002242e-04 1.526482841226559350e-22
8.274840000000001838e-04 1.550774715118685629e-22
8.357588400000001434e-04 1.573483168154525259e-22
8.440336799999999945e-04 1.594581750847027590e-22
8.523085199999999540e-04 1.614046117404469348e-22
8.605833599999998052e-04 1.631853099422373342e-22
8.688582000000003068e-04 1.647981786977568462e-22
8.771330400000002664e-04 1.662412506000734875e-22
8.854078800000001175e-04 1.675127972426758250e-22
8.936827200000000771e-04 1.686112179689501630e-22
9.019575599999999282e-04 1.695351567907821389e-22
9.102324000000004299e-04 1.702833869726076116e-22
9.185072400000003894e-04 1.708549260780624962e-22
9.267820800000002406e-04 1.712489219581648523e-22
9.350569200000002001e-04 1.714647656178597460e-22
9.433317600000000512e-04 1.715019811315337246e-22
9.516066000000000108e-04 1.713603359712820484e-22
9.598814399999999704e-04 1.710397350956908803e-22
9.681562799999998215e-04 1.705403266197668487e-22
9.764311200000003231e-04 1.698624010893781000e-22
9.847059600000002827e-04 1.690064898746023851e-22
9.929808000000001338e-04 1.679732717142272640e-22
1.001255639999999985e-03 1.667636615897336794e-22
1.009530480000000053e-03 1.653787259054932816e-22
1.017805320000000555e-03 1.638197592952172273e-22
1.026080160000000406e-03 1.620882095324901713e-22
1.034355000000000257e-03 1.601857398529254345e-22
1.042629840000000108e-03 1.581141667462357254e-22
1.050904680000000176e-03 1.558755073588501667e-22
1.059179520000000027e-03 1.534719345922435498e-22
1.067454359999999878e-03 1.509058109463563632e-22
1.075729199999999946e-03 1.481796619533949103e-22
1.084004040000000231e-03 1.452961968563622357e-22
1.092278880000000299e-03 1.422582957185496698e-22
1.100553720000000150e-03 1.390690154426907288e-22
1.108828560000000001e-03 1.357315846566395244e-22
1.117103400000000069e-03 1.322493945172245741e-22
1.125378240000000571e-03 1.286260004346211487e-22
1.133653080000000422e-03 1.248651001270344010e-22
1.141927920000000273e-03 1.209705460998955766e-22
1.150202760000000124e-03 1.169463143055942693e-22
1.158477600000000192e-03 1.127965301117822863e-22
1.166752440000000043e-03 1.085254289878635621e-22
1.175027279999999895e-03 1.041373937606654722e-22
1.183302119999999963e-03 9.963690765444477767e-23
1.191576960000000247e-03 9.502859862227358675e-23
1.199851800000000315e-03 9.031718636800409799e-23
1.208126640000000166e-03 8.550753268093461017e-23
1.216401480000000018e-03 8.060458472461998103e-23
1.224676320000000086e-03 7.561343414681336775e-23
1.232951160000000587e-03 7.053925623701883437e-23
1.241226000000000438e-03 6.538737841936527557e-23
1.249500840000000289e-03 6.016321148751993941e-23
1.257775680000000141e-03 5.487231743699392373e-23
1.266050520000000209e-03 4.952033195248605266e-23
1.274325360000000060e-03 4.411301072090235110e-23
1.282600199999999911e-03 3.865615488205210175e-23
1.290875039999999979e-03 3.315561993937448501e-23
1.299149879999999830e-03 2.761726792510501620e-23
1.307424720000000332e-03 2.204694745848771982e-23
1.315699560000000183e-03 1.645049076439676663e-23
1.323974400000000034e-03 1.083369597347090468e-23
1.332249240000000536e-03 5.202361246955135862e-24
1.340524080000000604e-03 -4.377040748002427362e-25
1.348798920000000455e-03 -6.080642770198133600e-24
1.357073760000000306e-03 -1.172051283624632908e-23
1.365348600000000157e-03 -1.735128838788051724e-23
1.373623440000000225e-03 -2.296682620061822530e-23
1.381898280000000076e-03 -2.856092307308617747e-23
1.390173119999999927e-03 -3.412731040127658333e-23
1.398447959999999995e-03 -3.965974923574856499e-23
1.406722799999999846e-03 -4.515204547844143829e-23
1.414997640000000348e-03 -5.059813284821558247e-23
1.423272480000000199e-03 -5.599207754680214648e-23
1.431547320000000050e-03 -6.132810160623435991e-23
1.439822160000000552e-03 -6.660056090321962137e-23
1.448097000000000620e-03 -7.180390406350404570e-23
1.456371840000000471e-03 -7.693264453132135726e-23
1.464646680000000322e-03 -8.198130345012403131e-23
1.472921520000000173e-03 -8.694440519106280423e-23
1.481196360000000241e-03 -9.181646847859059085e-23
1.489471200000000092e-03 -9.659201902616775156e-23
1.497746039999999943e-03 -1.012656551949405310e-22
1.506020880000000011e-03 -1.058320368206664892e-22
1.514295719999999863e-03 -1.102859997047183482e-22
1.522570560000000364e-03 -1.146224920851218786e-22
1.530845400000000215e-03 -1.188366961250286701e-22
1.539120240000000066e-03 -1.229239234160120741e-22
1.547395080000000568e-03 -1.268797197015279537e-22
1.555669920000000636e-03 -1.306997499134893318e-22
1.563944760000000487e-03 -1.343798795655793230e-22
1.572219600000000338e-03 -1.379160732593692128e-22
1.580494440000000190e-03 -1.413044546133091971e-22
1.588769280000000257e-03 -1.445412346498049019e-22
1.597044120000000109e-03 -1.476227641126533793e-22
1.605318959999999960e-03 -1.505454991321299657e-22
1.613593800000000028e-03 -1.533060636385256746e-22
1.621868639999999879e-03 -1.559012369569023227e-22
1.630143480000000381e-03 -1.583280230503685452e-22
1.638418320000000232e-03 -1.605836279833649458e-22
1.646693160000000083e-03 -1.626655102605414085e-22
1.654968000000000584e-03 -1.645713348440787783e-22
1.663242840000000652e-03 -1.662989884179221239e-22
1.671517680000000504e-03 -1.678465369773945328e-22
1.679792520000000355e-03 -1.692122158519820623e-22
1.688067360000000206e-03 -1.703944329276412424e-22
1.696342200000000274e-03 -1.713917447127425874e-22
1.704617040000000125e-03 -1.722029188513480493e-22
1.712891879999999976e-03 -1.728268869020970905e-22
1.721166720000000044e-03 -1.732628412550084632e-22
1.729441559999999895e-03 -1.735101518468620832e-22
1.737716400000000397e-03 -1.735684649927844587e-22
1.745991240000000248e-03 -1.734375935447339904e-22
1.754266080000000099e-03 -1.731176094244872353e-22
1.762540920000000601e-03 -1.726087306242800629e-22
1.770815760000000452e-03 -1.719114208957061272e-22
1.779090600000000520e-03 -1.710262834371147558e-22
1.787365440000000371e-03 -1.699541755423252192e-22
1.795640280000000222e-03 -1.686961019085339236e-22
1.803915120000000290e-03 -1.672533323152450783e-22
1.812189960000000141e-03 -1.656272920384133927e-22
1.820464799999999992e-03 -1.638196645724339469e-22
1.828739640000000060e-03 -1.618322915959531386e-22
1.837014480000000345e-03 -1.596672529783898040e-22
1.845289320000000413e-03 -1.573267909953758663e-22
1.853564160000000264e-03 -1.548133679400257573e-22
1.861839000000000115e-03 -1.521296184784445248e-22
1.870113840000000617e-03 -1.492783838694287747e-22
1.878388680000000468e-03 -1.462626888549580852e-22
1.886663520000000536e-03 -1.430857497897029829e-22
1.894938360000000387e-03 -1.397509739936589742e-22
1.903213200000000238e-03 -1.362619417802259689e-22
1.911488040000000306e-03 -1.326224281748143034e-22
1.919762880000000158e-03 -1.288363617303321530e-22
1.928037720000000009e-03 -1.249078659262285895e-22
1.936312560000000077e-03 -1.208411992384958663e-22
1.944587400000000361e-03 -1.166408111987047091e-22
1.952862240000000429e-03 -1.123112698852259176e-22
1.961137080000000497e-03 -1.078573284848536572e-22
1.969411920000000132e-03 -1.032838464960812254e-22
1.977686760000000633e-03 -9.859586230539279272e-23
1.985961600000000701e-03 -9.379851258051537689e-23
1.994236440000000336e-03 -8.889710270129155865e-23
2.002511280000000404e-03 -8.389702898745091903e-23
2.010786120000000472e-03 -7.880383751537067590e-23
2.019060960000000106e-03 -7.362315614490663235e-23
2.027335800000000174e-03 -6.836073702962606025e-23
2.035610640000000242e-03 -6.302240485306304503e-23
2.043885479999999876e-03 -5.761408401785172139e-23
2.052160320000000378e-03 -5.214176443566436110e-23
2.060435160000000446e-03 -4.661151585640059352e-23
2.068710000000000514e-03 -4.102946733376473995e-23
2.076984840000000148e-03 -3.540181042606721825e-23
2.085259680000000650e-03 -2.973478702050134132e-23
2.093534520000000718e-03 -2.403468393426319690e-23
2.101809360000000352e-03 -1.830782494058910132e-23
2.110084200000000420e-03 -1.256056115554884678e-23
2.118359040000000488e-03 -6.799263996469343235e-24
2.126633880000000122e-03 -1.030316329587982529e-24
2.134908720000000190e-03 4.739896760310379294e-24
2.143183560000000258e-03 1.050499213692905610e-23
2.151458399999999892e-03 1.625860255176782963e-23
2.159733240000000394e-03 2.199437401587414021e-23
2.168008080000000462e-03 2.770598543491004275e-23
2.176282920000000096e-03 3.338713928475731019e-23
2.184557760000000164e-03 3.903158610916771709e-23
2.192832600000000666e-03 4.463311088214194868e-23
2.201107440000000734e-03 5.018556021627656511e-23
2.209382280000000368e-03 5.568282823100407656e-23
2.217657120000000436e-03 6.111888321449254765e-23
2.225931960000000504e-03 6.648775706649610861e-23
2.234206800000000138e-03 7.178356676351270087e-23
2.242481640000000206e-03 7.700051124969595246e-23
2.250756480000000274e-03 8.213288226096359519e-23
2.259031319999999909e-03 8.717507263424947079e-23
2.267306160000000410e-03 9.212157193662447113e-23
2.275581000000000478e-03 9.696699016809588384e-23
2.283855840000000113e-03 1.017060356056239007e-22
2.292130680000000181e-03 1.063335566760776128e-22
2.300405520000000682e-03 1.108445012790541233e-22
2.308680360000000750e-03 1.152339768937472075e-22
2.316955200000000385e-03 1.194971926668996506e-22
2.325230040000000453e-03 1.236295344839480471e-22
2.333504880000000520e-03 1.276264941825127563e-22
2.341779720000000155e-03 1.314837531949039356e-22
2.350054560000000223e-03 1.351971067476045005e-22
2.358329400000000291e-03 1.387625472083914950e-22
2.366604239999999925e-03 1.421761929609883673e-22
2.374879080000000427e-03 1.454343618297956418e-22
2.383153920000000495e-03 1.485335138246992617e-22
2.391428760000000129e-03 1.514703058079775116e-22
2.399703600000000197e-03 1.542415561719314079e-22
2.407978440000000699e-03 1.568442737881250640e-22
2.416253280000000767e-03 1.592756509454966666e-22
2.424528120000000401e-03 1.615330619566110520e-22
2.432802960000000469e-03 1.636140877086436077e-22
2.441077800000000537e-03 1.655164817888443199e-22
2.449352640000000171e-03 1.672382260389218202e-22
2.457627480000000239e-03 1.687774654782194981e-22
2.465902320000000307e-03 1.701325903913520856e-22
2.474177159999999941e-03 1.713021459979864865e-22
2.482452000000000443e-03 1.722849333405952932e-22
2.490726840000000511e-03 1.730799042685533076e-22
2.499001680000000145e-03 1.736862700441429555e-22
2.507276520000000647e-03 1.741033951874058580e-22
2.515551360000000715e-03 1.743309000260541529e-22
2.523826200000000783e-03 1.743685671557990040e-22
2.532101040000000851e-03 1.742164249023006774e-22
2.540375880000000919e-03 1.738746777301586573e-22
2.548650720000000553e-03 1.733437608175492211e-22
2.556925560000000621e-03 1.726243021779033722e-22
2.565200400000000689e-03 1.717171422076776523e-22
2.573475240000000323e-03 1.706233307888901064e-22
2.581750080000000391e-03 1.693441097046035933e-22
2.590024920000000459e-03 1.678809438662164630e-22
2.598299760000000094e-03 1.662354694174096410e-22
2.606574600000001029e-03 1.644095551089840163e-22
2.614849440000001097e-03 1.624052234528940094e-22
2.623124280000001165e-03 1.602247347944376963e-22
2.631399120000000799e-03 1.578704917654567145e-22
2.639673960000000867e-03 1.553451339346905183e-22
2.647948800000000935e-03 1.526514382080830925e-22
2.656223640000000569e-03 1.497924085010701773e-22
2.664498480000000637e-03 1.467711862369141552e-22
2.672773320000000705e-03 1.435911216107687846e-22
2.681048160000000340e-03 1.402557059789793446e-22
2.689323000000000408e-03 1.367686168132932289e-22
2.697597840000000476e-03 1.331336785637251465e-22
2.705872680000000110e-03 1.293548781433257499e-22
2.714147520000001045e-03 1.254363552702223885e-22
2.722422360000001113e-03 1.213823890433248755e-22
2.730697200000001181e-03 1.171974146212261409e-22
2.738972040000000815e-03 1.128859851911559891e-22
2.747246880000000883e-03 1.084528090997797889e-22
2.755521720000000951e-03 1.039026947557654161e-22
2.763796560000000586e-03 9.924060012855779369e-23
2.772071400000000654e-03 9.447157005099686369e-23
2.780346240000000722e-03 8.960078829109525971e-23
2.788621080000000356e-03 8.463351724165908343e-23
2.796895920000000424e-03 7.957514282409958980e-23
2.805170760000000492e-03 7.443112490333350450e-23
2.813445600000000126e-03 6.920702842416592808e-23
2.821720440000001062e-03 6.390848907993235907e-23
2.829995280000001130e-03 5.854122831942967959e-23
2.838270120000001197e-03 5.311103498055036167e-23
2.846544960000000832e-03 4.762376522140168390e-23
2.854819800000000900e-03 4.208533758934454413e-23
2.863094640000000968e-03 3.650172123524216630e-23
2.871369480000000602e-03 3.087893954459771466e-23
2.879644320000000670e-03 2.522305159163150883e-23
2.887919160000000738e-03 1.954015874147437670e-23
2.896194000000000372e-03 1.383638512069183376e-23
2.904468840000000440e-03 8.117882820638391437e-24
2.912743680000000508e-03 2.390816111840069560e-24
2.921018520000000143e-03 -3.338636893590951960e-24
2.929293360000001078e-03 -9.064294861023618892e-24
2.937568200000001146e-03 -1.477997523646827857e-23
2.945843040000001214e-03 -2.047950191778113466e-23
2.954117880000000848e-03 -2.615670943521717844e-23
2.962392720000000916e-03 -3.180545161909671880e-23
2.970667560000000984e-03 -3.741960452292885758e-23
2.978942400000000618e-03 -4.299307997152031378e-23
2.987217240000000686e-03 -4.851982234567553630e-23
2.995492080000000754e-03 -5.399382998805513529e-23
3.003766920000000389e-03 -5.940914197339978550e-23
3.012041760000000457e-03 -6.475986877541451547e-23
3.020316600000000525e-03 -7.004016874850359602e-23
3.028591440000000159e-03 -7.524428679648776785e-23
3.036866280000001094e-03 -8.036652484282909946e-23
3.045141120000001162e-03 -8.540128348359541267e-23
3.053415960000001230e-03 -9.034303414932174577e-23
3.061690800000000864e-03 -9.518635580459113107e-23
3.069965640000000932e-03 -9.992591734284688505e-23
3.078240480000001000e-03 -1.045565003362373272e-22
3.086515320000000635e-03 -1.090729992791743773e-22
3.094790160000000703e-03 -1.134704225036266130e-22
3.103065000000000771e-03 -1.177439157095766143e-22
3.111339840000000405e-03 -1.218887368598372034e-22
3.119614680000000473e-03 -1.259003048002988164e-22
3.127889520000000541e-03 -1.297741495687422900e-22
3.136164360000000175e-03 -1.335059824001677410e-22
3.144439200000001110e-03 -1.370916293383811653e-22
3.152714040000001178e-03 -1.405271114698180096e-22
3.160988880000001246e-03 -1.438085759164830042e-22
3.169263720000000881e-03 -1.469323691996493573e-22
3.177538560000000949e-03 -1.498949824401521447e-22
3.185813400000001017e-03 -1.526931012922198440e-22
3.194088240000000651e-03 -1.553235797217303384e-22
3.202363080000000719e-03 -1.577834550800778766e-22
3.210637920000000787e-03 -1.600699594197695731e-22
3.218912760000000421e-03 -1.621804947795199718e-22
3.227187600000000489e-03 -1.641126833809907315e-22
3.235462440000000557e-03 -1.658643056112879068e-22
3.243737280000000191e-03 -1.674333817048908339e-22
3.252012120000001127e-03 -1.688180838434022798e-22
3.260286960000001195e-03 -1.700168331525476196e-22
3.268561800000001263e-03 -1.710282061862110909e-22
3.276836640000000897e-03 -1.718510247786754054e-22
3.285111480000000965e-03 -1.724842800533371164e-22
3.293386320000001033e-03 -1.729271943289388771e-22
3.301661160000000667e-03 -1.731791800098714961e-22
3.309936000000000735e-03 -1.732398600662708142e-22
3.318210840000000803e-03 -1.731090708108114375e-22
3.326485680000000437e-03 -1.727868365863237127e-22
3.334760520000000505e-03 -1.722734163888436835e-22
3.343035360000000573e-03 -1.715692378823837427e-22
3.351310200000000208e-03 -1.706749781076205163e-22
3.359585040000001143e-03 -1.695914714306110675e-22
3.367859880000001211e-03 -1.683198048991953744e-22
3.376134720000001279e-03 -1.668612230004657064e-22
3.384409560000000913e-03 -1.652172125230654890e-22
3.392684400000000981e-03 -1.633894285616175089e-22
3.400959240000001049e-03 -1.613797480176882949e-22
3.409234080000000684e-03 -1.591902335508906592e-22
3.417508920000000752e-03 -1.568231444101169743e-22
3.425783760000000819e-03 -1.542809446634022049e-22
3.434058600000000454e-03 -1.515662699399164288e-22
3.442333440000000522e-03 -1.486819759672570324e-22
3.450608280000000590e-03 -1.456310696748194423e-22
3.458883120000000224e-03 -1.424167845044453738e-22
3.467157960000001159e-03 -1.390424938422781372e-22
3.475432800000001227e-03 -1.355117914973348544e-22
3.483707640000001295e-03 -1.318284111465324465e-22
3.491982480000000930e-03 -1.279962890095003462e-22
3.500257320000000998e-03 -1.240195094771345028e-22
3.508532160000001066e-03 -1.199023345406305076e-22
3.516807000000000700e-03 -1.156491855727059355e-22
3.525081840000000768e-03 -1.112646345106387983e-22
3.533356680000000836e-03 -1.067534216244920900e-22
3.541631520000000470e-03 -1.021204132524858827e-22
3.549906360000000538e-03 -9.737064661099686348e-23
3.558181200000000606e-03 -9.250926710797262322e-23
3.566456040000001541e-03 -8.754158412978935271e-23
3.574730880000001176e-03 -8.247300623679076088e-23
3.583005720000001244e-03 -7.730908890111780419e-23
3.591280560000001312e-03 -7.205548479377022008e-23
3.599555400000000946e-03 -6.671797004447202880e-23
3.607830240000001014e-03 -6.130241848713173962e-23
3.616105080000001082e-03 -5.581480241376490731e-23
3.624379920000000716e-03 -5.026119061625894050e-23
3.632654760000000784e-03 -4.464772746870509437e-23
3.640929600000000852e-03 -3.898064764036929336e-23
3.649204440000000486e-03 -3.326624263497498904e-23
3.657479280000000554e-03 -2.751088119528503379e-23
3.665754120000000189e-03 -2.172097472532957500e-23
3.674028960000001558e-03 -1.590299296921915457e-23
3.682303800000001192e-03 -1.006343724312496719e-23
3.690578640000001260e-03 -4.208846718370066582e-24
3.698853480000001328e-03 1.654218592945885002e-24
3.707128320000000962e-03 7.519179268902178721e-24
3.715403160000001030e-03 1.337944776242186154e-23
3.723678000000001098e-03 1.922843249919852420e-23
3.731952840000000732e-03 2.505954947118716700e-23
3.740227680000000800e-03 3.086622377827432674e-23
3.748502520000000868e-03 3.664190544148785513e-23
3.756777360000000503e-03 4.238006646428188027e-23
3.765052200000000571e-03 4.807421948045666339e-23
3.773327040000000205e-03 5.371791408169698322e-23
3.781601880000001574e-03 5.930475197129841528e-23
3.789876720000001208e-03 6.482839024903855845e-23
3.798151560000001276e-03 7.028254529514538737e-23
3.806426400000001344e-03 7.566101044793062622e-23
3.814701240000000979e-03 8.095764317742250707e-23
3.822976080000001046e-03 8.616640013484543556e-23
3.831250920000001114e-03 9.128130817685867479e-23
3.839525760000000749e-03 9.629651156976089263e-23
3.847800600000000817e-03 1.012062365927124063e-22
3.856075440000000885e-03 1.060048366277781807e-22
3.864350280000000519e-03 1.106867670153494902e-22
3.872625120000000587e-03 1.152466114285789900e-22
3.880899960000000221e-03 1.196790820396167402e-22
3.889174800000001590e-03 1.239790153127382808e-22
3.897449640000001225e-03 1.281414048079282355e-22
3.905724480000001293e-03 1.321613638521309113e-22
3.913999320000000927e-03 1.360341865566840841e-22
3.922274160000000995e-03 1.397552884084048817e-22
3.930549000000001063e-03 1.433202772227567858e-22
3.938823840000001131e-03 1.467248959609899261e-22
3.947098680000001199e-03 1.499650775467562604e-22
3.955373520000000399e-03 1.530369161400547027e-22
3.963648360000000467e-03 1.559366844913899693e-22
3.971923200000000535e-03 1.586608488711577656e-22
3.980198040000000603e-03 1.612060398858750539e-22
3.988472880000000671e-03 1.635691107938868464e-22
3.996747720000001607e-03 1.657470699021305974e-22
4.005022560000001675e-03 1.677371650242100673e-22
4.013297400000001743e-03 1.695368049119902128e-22
4.021572240000000943e-03 1.711436380752373190e-22
4.029847080000001011e-03 1.725554990167088349e-22
4.038121920000001079e-03 1.737704492797449441e-22
4.046396760000001147e-03 1.747867721642519278e-22
4.054671600000001215e-03 1.756029569056617723e-22
4.062946440000000416e-03 1.762177458170713552e-22
4.071221280000000484e-03 1.766300653947675060e-22
4.079496120000000552e-03 1.768391103461102343e-22
4.087770960000000620e-03 1.768442520298369333e-22
4.096045800000000688e-03 1.766451267972807158e-22
4.104320640000001623e-03 1.762415649323963734e-22
4.112595480000001691e-03 1.756336460936908962e-22
4.120870320000001759e-03 1.748216791001226066e-22
4.129145160000000959e-03 1.738061984315859220e-22
4.137420000000001027e-03 1.725880021026378033e-22
4.145694840000001095e-03 1.711680876969644801e-22
4.153969680000001163e-03 1.695477342003887036e-22
4.162244520000001231e-03 1.677284066344753313e-22
4.170519360000000432e-03 1.657118475476856939e-22
4.178794200000000500e-03 1.634999958017235988e-22
4.187069040000000568e-03 1.610950456582145434e-22
4.195343880000000636e-03 1.584994134265980322e-22
4.203618720000000704e-03 1.557157367720899079e-22
4.211893560000001639e-03 1.527468986211041741e-22
4.220168400000001707e-03 1.495959688557213990e-22
4.228443240000001775e-03 1.462662740179496294e-22
4.236718080000000976e-03 1.427613118783670876e-22
4.244992920000001044e-03 1.390848343248691129e-22
4.253267760000001112e-03 1.352407753163473425e-22
4.261542600000001180e-03 1.312333032453903278e-22
4.269817440000001248e-03 1.270667894411084534e-22
4.278092280000000448e-03 1.227458025008509470e-22
4.286367120000000516e-03 1.182751236876975556e-22
4.294641960000000584e-03 1.136596911514784127e-22
4.302916800000000652e-03 1.089046518023927379e-22
4.311191640000000720e-03 1.040152898752917181e-22
4.319466480000001656e-03 9.899708740121751252e-23
4.327741320000001723e-03 9.385567129434513892e-23
4.336016160000000924e-03 8.859684661838421626e-23
4.344291000000000992e-03 8.322657791502114810e-23
4.352565840000001060e-03 7.775097557929537852e-23
4.360840680000001128e-03 7.217631081136181833e-23
4.369115520000001196e-03 6.650896694172370418e-23
4.377390360000001264e-03 6.075547579201526263e-23
4.385665200000000465e-03 5.492246435186488056e-23
4.393940040000000533e-03 4.901668929823711016e-23
4.402214880000000601e-03 4.304500212324844916e-23
4.410489720000000669e-03 3.701435983288503504e-23
4.418764560000000736e-03 3.093181371398581673e-23
4.427039400000001672e-03 2.480449198011757174e-23
4.435314240000001740e-03 1.863960725041406859e-23
4.443589080000000940e-03 1.244442597851206595e-23
4.451863920000001008e-03 6.226283833357981687e-24
4.460138760000001076e-03 -7.441238044421239833e-27
4.468413600000001144e-03 -6.249319602483163079e-24
4.476688440000001212e-03 -1.249188797865302658e-23
4.484963280000001280e-03 -1.872765251505478973e-23
4.493238120000000481e-03 -2.494910131742134110e-23
4.501512960000000549e-03 -3.114871325794828837e-23
4.509787800000000617e-03 -3.731896858686927789e-23
4.518062640000000685e-03 -4.345235453858393408e-23
4.526337480000000753e-03 -4.954137518744322489e-23
4.534612320000001688e-03 -5.557855645308267787e-23
4.542887160000001756e-03 -6.155645337482808737e-23
4.551162000000000957e-03 -6.746766478670260703e-23
4.559436840000001025e-03 -7.330483177956838603e-23
4.567711680000001093e-03 -7.906066710236828058e-23
4.575986520000001161e-03 -8.472794017234105209e-23
4.584261360000001229e-03 -9.029951355079727152e-23
4.592536200000001297e-03 -9.576832477068650139e-23
4.600811040000000497e-03 -1.011274123114781807e-22
4.609085880000000565e-03 -1.063699163027445646e-22
4.617360720000000633e-03 -1.114890788154750137e-22
4.625635560000000701e-03 -1.164782771854479300e-22
4.633910400000000769e-03 -1.213309950926668113e-22
4.642185240000001704e-03 -1.260408806979214227e-22
4.650460080000001772e-03 -1.306017059022722607e-22
4.658734920000000973e-03 -1.350074181338569034e-22
4.667009760000001041e-03 -1.392521224953437060e-22
4.675284600000001109e-03 -1.433300945298905174e-22
4.683559440000001177e-03 -1.472358102005777378e-22
4.691834280000001245e-03 -1.509639084580652825e-22
4.700109120000001313e-03 -1.545092639810364427e-22
4.708383960000000514e-03 -1.578669226058289922e-22
4.716658800000000581e-03 -1.610321761965146648e-22
4.724933640000000649e-03 -1.640005207916583617e-22
4.733208480000000717e-03 -1.667676849127276390e-22
4.741483320000000785e-03 -1.693296493961201059e-22
4.749758160000001721e-03 -1.716826083130463084e-22
4.758033000000001789e-03 -1.738230493089095897e-22
4.766307840000000989e-03 -1.757476720175927570e-22
4.774582680000001057e-03 -1.774534807083305402e-22
4.782857520000001125e-03 -1.789377219242488085e-22
4.791132360000001193e-03 -1.801979258541729519e-22
4.799407200000001261e-03 -1.812319150908345764e-22
4.807682040000001329e-03 -1.820377648180950187e-22
4.815956880000000530e-03 -1.826138845193146500e-22
4.824231720000000598e-03 -1.829589239551130713e-22
4.832506560000000666e-03 -1.830718732992328092e-22
4.840781400000000734e-03 -1.829519863334280414e-22
4.849056240000000802e-03 -1.825988262343144679e-22
4.857331080000001737e-03 -1.820122663610976511e-22
4.865605920000001805e-03 -1.811924487739922927e-22
4.873880760000001006e-03 -1.801398646186758378e-22
4.882155600000001074e-03 -1.788552556942815768e-22
4.890430440000001142e-03 -1.773397142235040298e-22
4.898705280000001210e-03 -1.755946033936935767e-22
4.906980120000001278e-03 -1.736215991384197419e-22
4.915254960000001345e-03 -1.714226904208732429e-22
4.923529800000000546e-03 -1.690001322310013264e-22
4.931804640000000614e-03 -1.663565231903979860e-22
4.940079480000000682e-03 -1.634947067188130578e-22
4.948354320000000750e-03 -1.604178612554076027e-22
4.956629160000000818e-03 -1.571294275376606334e-22
4.964904000000001753e-03 -1.536331374621905810e-22
4.973178840000001821e-03 -1.499330204890743780e-22
4.981453680000001022e-03 -1.460333494530819136e-22
4.989728520000001090e-03 -1.419387139943970262e-22
4.998003360000001158e-03 -1.376539276046616986e-22
5.006278200000001226e-03 -1.331841008037119116e-22
5.014553040000001294e-03 -1.285345836073137392e-22
5.022827880000001362e-03 -1.237109757903859762e-22
5.031102720000000562e-03 -1.187191426089046507e-22
5.039377560000000630e-03 -1.135651551588061325e-22
5.047652400000000698e-03 -1.082553554289017707e-22
5.055927240000000766e-03 -1.027962765483502223e-22
5.064202080000000834e-03 -9.719469291575492586e-23
5.072476920000000902e-03 -9.145758301282383239e-23
5.080751760000000103e-03 -8.559212038368093447e-23
5.089026600000000171e-03 -7.960569675688908295e-23
5.097301440000001106e-03 -7.350586298394767682e-23
5.105576280000001174e-03 -6.730037844571582908e-23
5.113851120000001242e-03 -6.099715072205425343e-23
5.122125960000001310e-03 -5.460425915209854124e-23
5.130400800000001378e-03 -4.812993523363031806e-23
5.138675640000000579e-03 -4.158253974894230557e-23
5.146950480000000647e-03 -3.497058220833793590e-23
5.155225320000000715e-03 -2.830267286953550198e-23
5.163500160000000783e-03 -2.158754727078622225e-23
5.171775000000000851e-03 -1.483402968476596432e-23
5.180049840000000919e-03 -8.051033970012958727e-24
5.188324680000000119e-03 -1.247553524439889097e-24
5.196599520000000187e-03 5.567361312855306986e-24
5.204874360000001123e-03 1.238459950196635509e-23
5.213149200000001190e-03 1.919501711260822265e-23
5.221424040000001258e-03 2.598943787524254788e-23
5.229698880000001326e-03 3.275867455490725779e-23
5.237973720000001394e-03 3.949353586125511942e-23
5.246248560000000595e-03 4.618484596193776002e-23
5.254523400000000663e-03 5.282345027550846072e-23
5.262798240000000731e-03 5.940023646505696831e-23
5.271073080000000799e-03 6.590614225096263326e-23
5.279347920000000867e-03 7.233216710715380757e-23
5.287622760000000935e-03 7.866939656929316990e-23
5.295897600000000136e-03 8.490899348130182570e-23
5.304172440000000203e-03 9.104224091082269760e-23
5.312447280000001139e-03 9.706052525469790876e-23
5.320722120000001207e-03 1.029553705288919358e-22
5.328996960000001275e-03 1.087184474364474122e-22
5.337271800000001343e-03 1.143415681237470764e-22
5.345546640000001411e-03 1.198167373485320071e-22
5.353821480000000611e-03 1.251361137327095336e-22
5.362096320000000679e-03 1.302920706693775270e-22
5.370371160000000747e-03 1.352771744694122845e-22
5.378646000000000815e-03 1.400841996367293638e-22
5.386920840000000883e-03 1.447061673345145502e-22
5.395195680000000951e-03 1.491363003188869938e-22
5.403470520000000152e-03 1.533681019472656654e-22
5.411745360000000220e-03 1.573953041328915247e-22
5.420020200000001155e-03 1.612119122217388052e-22
5.428295040000001223e-03 1.648122182045291674e-22
5.436569880000001291e-03 1.681907653288669064e-22
5.444844720000001359e-03 1.713424308898682954e-22
5.453119560000001427e-03 1.742623514581369574e-22
5.461394400000000628e-03 1.769459951363120448e-22
5.469669240000000696e-03 1.793891410938536146e-22
5.477944080000000764e-03 1.815878655065240911e-22
5.486218920000000832e-03 1.835386122267052547e-22
5.494493760000000900e-03 1.852381101302031839e-22
5.502768600000000968e-03 1.866834649243578395e-22
5.511043440000000168e-03 1.878721082747005388e-22
5.519318280000000236e-03 1.888018097601778854e-22
5.527593120000001171e-03 1.894707263946675637e-22
5.535867960000001239e-03 1.898773223919625811e-22
5.544142800000001307e-03 1.900204692579458820e-22
5.552417640000001375e-03 1.898993698498836173e-22
5.560692480000001443e-03 1.895135940616802749e-22
5.568967320000000644e-03 1.888631028239823638e-22
5.577242160000000712e-03 1.879481788958555816e-22
5.585517000000000780e-03 1.867695255583927147e-22
5.593791840000000848e-03 1.853281763686292754e-22
5.602066680000000916e-03 1.836255491315278116e-22
5.610341520000000984e-03 1.816634466109838927e-22
5.618616360000000184e-03 1.794440012752160457e-22
5.626891200000000252e-03 1.769697649008286037e-22
5.635166040000001188e-03 1.742436117408678766e-22
5.643440880000001256e-03 1.712688024492836994e-22
5.651715720000001324e-03 1.680489650307799152e-22
5.659990560000001392e-03 1.645880535312082639e-22
5.668265400000001460e-03 1.608904240881859040e-22
5.676540240000000660e-03 1.569607394474593308e-22
5.684815080000000728e-03 1.528040353563678186e-22
5.693089920000000796e-03 1.484256879075838653e-22
5.701364760000000864e-03 1.438313831579285393e-22
5.709639600000000932e-03 1.390271770605364757e-22
5.717914440000001000e-03 1.340194055345981419e-22
5.726189280000000201e-03 1.288147454283350618e-22
5.734464120000000269e-03 1.234201742405764229e-22
5.742738960000001204e-03 1.178429472738903702e-22
5.751013800000001272e-03 1.120906420718813044e-22
5.759288640000001340e-03 1.061710789142870181e-22
5.767563480000001408e-03 1.000923718321458858e-22
5.775838320000001476e-03 9.386288768471256145e-23
5.784113160000000677e-03 8.749122734975416128e-23
5.792388000000000745e-03 8.098625598910575886e-23
5.800662840000000813e-03 7.435703516592609529e-23
5.808937680000000880e-03 6.761285959497834506e-23
5.817212520000000948e-03 6.076321815056731809e-23
5.825487360000001016e-03 5.381777610632783706e-23
5.833762200000000217e-03 4.678638955640305584e-23
5.842037040000000285e-03 3.967905127929187339e-23
5.850311880000001220e-03 3.250590946199903784e-23
5.858586720000001288e-03 2.527723405674480325e-23
5.866861560000001356e-03 1.800340053313565469e-23
5.875136400000001424e-03 1.069488972529194824e-23
5.883411240000001492e-03 3.362251614060907331e-24
5.891686080000000693e-03 -3.983892370172933181e-24
5.899960920000000761e-03 -1.133287504970202589e-23
5.908235760000000829e-03 -1.867399595668016443e-23
5.916510600000000897e-03 -2.599653543166131801e-23
5.924785440000000965e-03 -3.328977369732409514e-23
5.933060280000001033e-03 -4.054300299370941578e-23
5.941335120000000233e-03 -4.774555023362737031e-23
5.949609960000000301e-03 -5.488678268756495800e-23
5.957884800000001237e-03 -6.195613921985772353e-23
5.966159640000001305e-03 -6.894313228475221572e-23
5.974434480000001373e-03 -7.583737022471014790e-23
5.982709320000001441e-03 -8.262857999953253674e-23
5.990984160000001509e-03 -8.930659998473863037e-23
5.999259000000000709e-03 -9.586142603901048930e-23
6.007533840000000777e-03 -1.022831984966700048e-22
6.015808680000000845e-03 -1.085622261215345561e-22
6.024083520000000913e-03 -1.146890162333046245e-22
6.032358360000000981e-03 -1.206542518600692775e-22
6.040633200000001049e-03 -1.264488523215229679e-22
6.048908040000000250e-03 -1.320639546048592614e-22
6.057182880000000318e-03 -1.374909308129133716e-22
6.065457720000001253e-03 -1.427214349239110822e-22
6.073732560000001321e-03 -1.477473605536640849e-22
6.082007400000001389e-03 -1.525609095875410903e-22
6.090282240000001457e-03 -1.571545738790288657e-22
6.098557080000001525e-03 -1.615211332173951081e-22
6.106831920000000725e-03 -1.656537185520529235e-22
6.115106760000000793e-03 -1.695457520311811269e-22
6.123381600000000861e-03 -1.731910101137935113e-22
6.131656440000000929e-03 -1.765836201980994341e-22
6.139931280000000997e-03 -1.797180326665546434e-22
6.148206120000001065e-03 -1.825891037548027609e-22
6.156480960000000266e-03 -1.851920312746535190e-22
6.164755800000000334e-03 -1.875224022662796196e-22
6.173030640000001269e-03 -1.895762188729589599e-22
6.181305480000001337e-03 -1.913498415799475043e-22
6.189580320000001405e-03 -1.928400814642390716e-22
6.197855160000001473e-03 -1.940441427885541071e-22
6.206130000000001541e-03 -1.949596370417659651e-22
6.214404840000000742e-03 -1.955846377413919364e-22
6.222679680000000810e-03 -1.959175996903275404e-22
6.230954520000000878e-03 -1.959574393597516037e-22
6.239229360000000946e-03 -1.957035059691284794e-22
6.247504200000001014e-03 -1.951555540169845414e-22
6.255779040000001082e-03 -1.943138267151354032e-22
6.264053880000000282e-03 -1.931789713762459467e-22
6.272328720000000350e-03 -1.917520919533091617e-22
6.280603560000001286e-03 -1.900347627285667504e-22
6.288878400000001354e-03 -1.880289618536023250e-22
6.297153240000001422e-03 -1.857371603444300283e-22
6.305428080000001489e-03 -1.831622542247428802e-22
6.313702920000001557e-03 -1.803075683903618591e-22
6.321977760000000758e-03 -1.771769069671834700e-22
6.330252600000000826e-03 -1.737744648653609612e-22
6.338527440000000894e-03 -1.701048926258519713e-22
6.346802280000000962e-03 -1.661732714272454622e-22
6.355077120000001030e-03 -1.619850688502335604e-22
6.363351960000001098e-03 -1.575462112224094807e-22
6.371626800000000299e-03 -1.528630035416154724e-22
6.379901640000000367e-03 -1.479421507212370301e-22
6.388176480000001302e-03 -1.427907757682544219e-22
6.396451320000001370e-03 -1.374163438088020920e-22
6.404726160000001438e-03 -1.318267172295221246e-22
6.413001000000001506e-03 -1.260301089807901274e-22
6.421275840000001574e-03 -1.200350535801815784e-22
6.429550680000000774e-03 -1.138504485058520808e-22
6.437825520000000842e-03 -1.074854810110434411e-22
6.446100360000000910e-03 -1.009496464636897808e-22
6.454375200000000978e-03 -9.425274453449693679e-23
6.462650040000001046e-03 -8.740482327482895295e-23
6.470924880000001114e-03 -8.041621222900047977e-23
6.479199720000000315e-03 -7.329747724153873414e-23
6.487474560000000383e-03 -6.605939929285514113e-23
6.495749400000001318e-03 -5.871298818499044666e-23
6.504024240000001386e-03 -5.126942743936431390e-23
6.512299080000001454e-03 -4.374007826213898352e-23
6.520573920000001522e-03 -3.613646289360694462e-23
6.528848760000001590e-03 -2.847022808715764569e-23
6.537123600000000791e-03 -2.075315069146241122e-23
6.545398440000000859e-03 -1.299710521961853554e-23
6.553673280000000927e-03 -5.214047711228618771e-24
6.561948120000000995e-03 2.583992665624643006e-24
6.570222960000001063e-03 1.038494350368385409e-23
6.578497800000001131e-03 1.817669845227229100e-23
6.586772640000000331e-03 2.594714041148509111e-23
6.595047480000000399e-03 3.368415843807734922e-23
6.603322320000001334e-03 4.137566639613201515e-23
6.611597160000001402e-03 4.900962644335284165e-23
6.619872000000001470e-03 5.657405776244237755e-23
6.628146840000001538e-03 6.405706935213883219e-23
6.636421680000001606e-03 7.144686843965224680e-23
6.644696520000000807e-03 7.873177564921731944e-23
6.652971360000000875e-03 8.590026068721779697e-23
6.661246200000000943e-03 9.294093537571413789e-23
6.669521040000001011e-03 9.984258663591730662e-23
6.677795880000001079e-03 1.065941990036829301e-22
6.686070720000001147e-03 1.131849451634271713e-22
6.694345560000000347e-03 1.196042375711606320e-22
6.702620400000000415e-03 1.258417269575230394e-22
6.710895240000001351e-03 1.318873064280517042e-22
6.719170080000001419e-03 1.377311693635010064e-22
6.727444920000001487e-03 1.433637836352637838e-22
6.735719760000001555e-03 1.487759218986820231e-22
6.743994600000001623e-03 1.539587035223784595e-22
6.752269440000000823e-03 1.589035594796202401e-22
6.760544280000000891e-03 1.636022895479052325e-22
6.768819120000000959e-03 1.680470725206505330e-22
6.777093960000001027e-03 1.722304402169927402e-22
6.785368800000001095e-03 1.761453512531341541e-22
6.793643640000001163e-03 1.797851641019044966e-22
6.801918480000000364e-03 1.831436356246533375e-22
6.810193320000000432e-03 1.862149902492352513e-22
6.818468160000001367e-03 1.889938661382966619e-22
6.826743000000001435e-03 1.914753458975663675e-22
6.835017840000001503e-03 1.936550002807395009e-22
6.843292680000001571e-03 1.955288292845486692e-22
6.851567520000001639e-03 1.970933207031339499e-22
6.859842360000000840e-03 1.983454575163398479e-22
6.868117200000000908e-03 1.992826707473381897e-22
6.876392040000000976e-03 1.999029137418542981e-22
6.884666880000001044e-03 2.002046319300333003e-22
6.892941720000001112e-03 2.001867400664052606e-22
6.901216560000001179e-03 1.998486978357825550e-22
6.909491400000000380e-03 1.991904536156634861e-22
6.917766240000000448e-03 1.982124531004579179e-22
6.926041080000001383e-03 1.969157023002788563e-22
6.934315920000001451e-03 1.953016996303935915e-22
6.942590760000001519e-03 1.933724738641111336e-22
6.950865600000001587e-03 1.911306201782390932e-22
6.959140440000001655e-03 1.885792327530520672e-22
6.967415280000000856e-03 1.857219633898586106e-22
6.975690120000000924e-03 1.825630217712395806e-22
6.983964960000000992e-03 1.791071173961569978e-22
6.992239800000001060e-03 1.753595240910111849e-22
7.000514640000001128e-03 1.713260388898575279e-22
7.008789480000001196e-03 1.670129369920419633e-22
7.017064320000000396e-03 1.624270196259290090e-22
7.025339160000000464e-03 1.575755388644547786e-22
7.033614000000001400e-03 1.524661682866069917e-22
7.041888840000001468e-03 1.471070223846900983e-22
7.050163680000001536e-03 1.415065758814674735e-22
7.058438520000001604e-03 1.356736506880352319e-22
7.066713360000001672e-03 1.296174174969452713e-22
7.074988200000000872e-03 1.233473332491504319e-22
7.083263040000000940e-03 1.168731433679644831e-22
7.091537880000001008e-03 1.102048842327538632e-22
7.099812720000001076e-03 1.033528457533936420e-22
7.108087560000001144e-03 9.632759185282668327e-23
7.116362400000001212e-03 8.913997560010372044e-23
7.124637240000000413e-03 8.180111654983769983e-23
7.132912080000001348e-03 7.432243681999344402e-23
7.141186920000001416e-03 6.671566831046250259e-23
7.149461760000001484e-03 5.899282318183667520e-23
7.157736600000001552e-03 5.116622119168385844e-23
7.166011440000001620e-03 4.324845771373026660e-23
7.174286280000001688e-03 3.525236137176477868e-23
7.182561120000000889e-03 2.719098803626463928e-23
7.190835960000000956e-03 1.907755655643866182e-23
7.199110800000001024e-03 1.092540465984889038e-23
7.207385640000001092e-03 2.747950680489229782e-24
7.215660480000001160e-03 -5.441367296176837630e-24
7.223935320000001228e-03 -1.362912216357532079e-23
7.232210160000000429e-03 -2.180194027768089699e-23
7.240485000000001364e-03 -2.994652220062446568e-23
7.248759840000001432e-03 -3.804964928625782052e-23
7.257034680000001500e-03 -4.609819705042857037e-23
7.265309520000001568e-03 -5.407911797092162040e-23
7.273584360000001636e-03 -6.197943325278395406e-23
7.281859200000001704e-03 -6.978622694792930699e-23
7.290134040000000905e-03 -7.748663537522930318e-23
7.298408880000000973e-03 -8.506784970436620628e-23
7.306683720000001041e-03 -9.251713558215367326e-23
7.314958560000001109e-03 -9.982185704885011981e-23
7.323233400000001177e-03 -1.069695045331978821e-22
7.331508240000000377e-03 -1.139477612497739005e-22
7.339783080000000445e-03 -1.207445413015387922e-22
7.348057920000001381e-03 -1.273480304486498266e-22
7.356332760000001449e-03 -1.337467714422841818e-22
7.364607600000001517e-03 -1.399296727324845690e-22
7.372882440000001585e-03 -1.458860343951773382e-22
7.381157280000001653e-03 -1.516056079281539625e-22
7.389432120000001721e-03 -1.570785601026942202e-22
7.397706960000000921e-03 -1.622954736111238392e-22
7.405981800000000989e-03 -1.672473740836484847e-22
7.414256640000001057e-03 -1.719256788027417840e-22
7.422531480000001125e-03 -1.763221903256807406e-22
7.430806320000001193e-03 -1.804291251894729999e-22
7.439081160000000394e-03 -1.842390868599868218e-22
7.447356000000000462e-03 -1.877450753034853497e-22
7.455630840000001397e-03 -1.909405502795825718e-22
7.463905680000001465e-03 -1.938194329744448209e-22
7.472180520000001533e-03 -1.963761267780739938e-22
7.480455360000001601e-03 -1.986056028579329123e-22
7.488730200000001669e-03 -2.005033946643215000e-22
7.497005040000001737e-03 -2.020656007542450675e-22
7.505279880000000937e-03 -2.032889528380680418e-22
7.513554720000001005e-03 -2.041707819886748106e-22
7.521829560000001073e-03 -2.047089930347361182e-22
7.530104400000001141e-03 -2.049021053498888448e-22
7.538379240000001209e-03 -2.047492126612293706e-22
7.546654080000000410e-03 -2.042499465894779632e-22
7.554928920000000478e-03 -2.034045100154688682e-22
7.563203760000001413e-03 -2.022136594214930526e-22
7.571478600000001481e-03 -2.006786738342483562e-22
7.579753440000001549e-03 -1.988013949336871744e-22
7.588028280000001617e-03 -1.965842400053164908e-22
7.596303120000001685e-03 -1.940301731490663447e-22
7.604577960000001753e-03 -1.911427437512583161e-22
7.612852800000000954e-03 -1.879261128937923699e-22
7.621127640000001022e-03 -1.843850090466465873e-22
7.629402480000001090e-03 -1.805247437696338454e-22
7.637677320000001158e-03 -1.763512309903080441e-22
7.645952160000001226e-03 -1.718709256003040659e-22
7.654227000000000426e-03 -1.670908141978009472e-22
7.662501840000000494e-03 -1.620184302837398391e-22
7.670776680000001430e-03 -1.566617988909024914e-22
7.679051520000001498e-03 -1.510294178759763295e-22
7.687326360000001566e-03 -1.451302787278402787e-22
7.695601200000001633e-03 -1.389738335995508484e-22
7.703876040000001701e-03 -1.325699725332310790e-22
7.712150880000001769e-03 -1.259290446186937443e-22
7.720425720000000970e-03 -1.190618438529472328e-22
7.728700560000001038e-03 -1.119795764846382809e-22
7.736975400000001106e-03 -1.046938689662784970e-22
7.745250240000001174e-03 -9.721676127537276277e-23
7.753525080000001242e-03 -8.956066130252056080e-23
7.761799920000000443e-03 -8.173833329693577165e-23
7.770074760000000511e-03 -7.376289068776299971e-23
7.778349600000001446e-03 -6.564774790190919243e-23
7.786624440000001514e-03 -5.740659728840299794e-23
7.794899280000001582e-03 -4.905340139124519869e-23
7.803174120000001650e-03 -4.060235865719372659e-23
7.811448960000001718e-03 -3.206787803895416571e-23
7.819723800000000918e-03 -2.346457103013851446e-23
7.827998640000001854e-03 -1.480723156328004348e-23
7.836273480000001054e-03 -6.110807786138273080e-24
7.844548320000001990e-03 2.609612520687926509e-24
7.852823160000001190e-03 1.133882131643809400e-23
7.861098000000000391e-03 2.006152394568422321e-23
7.869372840000001326e-03 2.876236286212894071e-23
7.877647680000000527e-03 3.742594456566702054e-23
7.885922520000001462e-03 4.603687425435587738e-23
7.894197360000002398e-03 5.457978216095966395e-23
7.902472200000001598e-03 6.303935170345433740e-23
7.910747040000000799e-03 7.140035222265044828e-23
7.919021880000001734e-03 7.964765993005316780e-23
7.927296720000000935e-03 8.776628032594296894e-23
7.935571560000001870e-03 9.574138175171984963e-23
7.943846400000001071e-03 1.035583154089531990e-22
7.952121240000002006e-03 1.112026343592081195e-22
7.960396080000001207e-03 1.186601277551895600e-22
7.968670920000000407e-03 1.259168541274955336e-22
7.976945760000001343e-03 1.329591575538005215e-22
7.985220600000000543e-03 1.397736964225001621e-22
7.993495440000001478e-03 1.463474897319769772e-22
8.001770280000002414e-03 1.526679317259226461e-22
8.010045120000001614e-03 1.587228089060135789e-22
8.018319960000000815e-03 1.645003382679375141e-22
8.026594800000001750e-03 1.699891959565397963e-22
8.034869640000000951e-03 1.751785192113687481e-22
8.043144480000001886e-03 1.800579276992240754e-22
8.051419320000001087e-03 1.846175664585147913e-22
8.059694160000002022e-03 1.888481107882712883e-22
8.067969000000001223e-03 1.927407742372753560e-22
8.076243840000000423e-03 1.962873407876180747e-22
8.084518680000001359e-03 1.994801986442585754e-22
8.092793520000000559e-03 2.023123339273443457e-22
8.101068360000001495e-03 2.047773444425178208e-22
8.109343200000002430e-03 2.068694783193156606e-22
8.117618040000001631e-03 2.085836422648526341e-22
8.125892880000000831e-03 2.099153941643861952e-22
8.134167720000001767e-03 2.108609587880553546e-22
8.142442560000000967e-03 2.114172625540082176e-22
8.150717400000001903e-03 2.115819213791663786e-22
8.158992240000001103e-03 2.113532384491831156e-22
8.167267080000002039e-03 2.107302237415179826e-22
8.175541920000001239e-03 2.097126174400545467e-22
8.183816760000000440e-03 2.083008699398229437e-22
8.192091600000001375e-03 2.064961421542338992e-22
8.200366440000000576e-03 2.043003260331925506e-22
8.208641280000001511e-03 2.017160510647613925e-22
8.216916120000002446e-03 1.987466613680303230e-22
8.225190960000001647e-03 1.953962140665335060e-22
8.233465800000000848e-03 1.916694962602277798e-22
8.241740640000001783e-03 1.875720174028853041e-22
8.250015480000000984e-03 1.831099869056458424e-22
8.258290320000001919e-03 1.782903104438503036e-22
8.266565160000001120e-03 1.731206026952174012e-22
8.274840000000002055e-03 1.676091717908939979e-22
8.283114840000001255e-03 1.617649973092610974e-22
8.291389680000000456e-03 1.555977231400810700e-22
8.299664520000001391e-03 1.491176634936683616e-22
8.307939360000000592e-03 1.423357811460479160e-22
8.316214200000001527e-03 1.352636623058906164e-22
8.324489040000002463e-03 1.279135034496495263e-22
8.332763880000001663e-03 1.202981084696143815e-22
8.341038720000000864e-03 1.124308633787072629e-22
8.349313560000001799e-03 1.043257078122765461e-22
8.357588400000002735e-03 9.599711698124245025e-23
8.365863240000001935e-03 8.746009139259488345e-23
8.374138080000002871e-03 7.873013128832824050e-23
8.382412920000002071e-03 6.982320439111404743e-23
8.390687760000003007e-03 6.075572255810015798e-23
8.398962600000000472e-03 5.154452240140330028e-23
8.407237440000001408e-03 4.220683795992084850e-23
8.415512280000000608e-03 3.276026341214156643e-23
8.423787120000001544e-03 2.322272385359235564e-23
8.432061960000002479e-03 1.361244754135611152e-23
8.440336800000001680e-03 3.947936618109364701e-24
8.448611640000002615e-03 -5.752071598618577168e-24
8.456886480000001816e-03 -1.546863742879027359e-23
8.465161320000002751e-03 -2.518265073655792473e-23
8.473436160000001952e-03 -3.487486348117543303e-23
8.481711000000002887e-03 -4.452592806822767954e-23
8.489985840000002087e-03 -5.411643434761518645e-23
8.498260680000003023e-03 -6.362694586624259642e-23
8.506535520000000489e-03 -7.303803833755544417e-23
8.514810360000001424e-03 -8.233034202452544755e-23
8.523085200000000625e-03 -9.148458251902652265e-23
8.531360040000001560e-03 -1.004816207183256819e-22
8.539634880000002495e-03 -1.093024933326254166e-22
8.547909720000001696e-03 -1.179284573814557868e-22
8.556184560000002631e-03 -1.263410312640204835e-22
8.564459400000001832e-03 -1.345220311918516027e-22
8.572734240000002767e-03 -1.424536080960648576e-22
8.581009080000001968e-03 -1.501182846477078086e-22
8.589283920000002903e-03 -1.574989960876930912e-22
8.597558760000002104e-03 -1.645791209481696070e-22
8.605833600000003039e-03 -1.713425116924142304e-22
8.614108440000000505e-03 -1.777735270509515652e-22
8.622383280000001440e-03 -1.838570664198462866e-22
8.630658120000000641e-03 -1.895786091463447242e-22
8.638932960000001576e-03 -1.949242425261881234e-22
8.647207800000002512e-03 -1.998806928240450928e-22
8.655482640000001712e-03 -2.044353582294818043e-22
8.663757480000002648e-03 -2.085763435736421517e-22
8.672032320000001848e-03 -2.122925004109404566e-22
8.680307160000002784e-03 -2.155734537921251044e-22
8.688582000000001984e-03 -2.184096300590183944e-22
8.696856840000002919e-03 -2.207922855187662937e-22
8.705131680000000385e-03 -2.227135339009369774e-22
8.713406520000003055e-03 -2.241663781458480636e-22
8.721681360000000521e-03 -2.251447315804620121e-22
8.729956200000001457e-03 -2.256434342800093330e-22
8.738231040000000657e-03 -2.256582722706862849e-22
8.746505880000001593e-03 -2.251859948725732437e-22
8.754780720000002528e-03 -2.242243326538533931e-22
8.763055560000001729e-03 -2.227720161041690000e-22
8.771330400000002664e-03 -2.208287819343688261e-22
8.779605240000001865e-03 -2.183953840883794330e-22
8.787880080000002800e-03 -2.154736061259759909e-22
8.796154920000002000e-03 -2.120662732770724773e-22
8.804429760000002936e-03 -2.081772665528469377e-22
8.812704600000000402e-03 -2.038115346560955276e-22
8.820979440000003072e-03 -1.989750953265451006e-22
8.829254280000000538e-03 -1.936750395290149319e-22
8.837529120000001473e-03 -1.879195345454608030e-22
8.845803960000000674e-03 -1.817178252044783340e-22
8.854078800000001609e-03 -1.750802340500694834e-22
8.862353640000002544e-03 -1.680181602249704990e-22
8.870628480000001745e-03 -1.605440661778859101e-22
8.878903320000002680e-03 -1.526714630392425137e-22
8.887178160000001881e-03 -1.444148937906598240e-22
8.895453000000002816e-03 -1.357899143021156641e-22
8.903727840000002017e-03 -1.268130735903340077e-22
8.912002680000002952e-03 -1.175018954889852885e-22
8.920277520000000418e-03 -1.078748592512546150e-22
8.928552360000003088e-03 -9.795137462404900394e-23
8.936827200000000554e-03 -8.775175661524257797e-23
8.945102040000001489e-03 -7.729719688087509734e-23
8.953376880000000690e-03 -6.660973145766608505e-23
8.961651720000001625e-03 -5.571220549353819609e-23
8.969926560000002561e-03 -4.462823598848995578e-23
8.978201400000001761e-03 -3.338217365843309166e-23
8.986476240000002697e-03 -2.199906059667843304e-23
8.994751080000001897e-03 -1.050458634379320259e-23
9.003025920000002832e-03 1.074957964587571337e-24
9.011300760000002033e-03 1.271272824184317293e-23
9.019575600000002968e-03 2.438137860455159363e-23
9.027850440000000434e-03 3.605311453594916551e-23
9.036125280000003104e-03 4.769974760065941159e-23
9.044400120000000570e-03 5.929275139513773287e-23
9.052674960000001506e-03 7.080331928321284780e-23
9.060949800000000706e-03 8.220242424554336654e-23
9.069224640000001642e-03 9.346088039873249386e-23
9.077499480000002577e-03 1.045494066862118916e-22
9.085774320000001777e-03 1.154386925836883238e-22
9.094049160000002713e-03 1.260994654012088540e-22
9.102324000000001913e-03 1.365025587003321569e-22
9.110598840000002849e-03 1.466189814708144955e-22
9.118873680000002049e-03 1.564199879920467010e-22
9.127148520000002985e-03 1.658771486567787224e-22
9.135423360000000451e-03 1.749624223804462896e-22
9.143698200000003121e-03 1.836482304991270949e-22
9.151973040000000587e-03 1.919075322880618389e-22
9.160247880000001522e-03 1.997139016613688711e-22
9.168522720000000722e-03 2.070416039764521661e-22
9.176797560000001658e-03 2.138656720081087853e-22
9.185072400000002593e-03 2.201619807712227195e-22
9.193347240000001794e-03 2.259073218013276250e-22
9.201622080000002729e-03 2.310794782677627566e-22
9.209896920000001930e-03 2.356573024059944794e-22
9.218171760000002865e-03 2.396207960235838501e-22
9.226446600000002066e-03 2.429511935391349581e-22
9.234721440000003001e-03 2.456310458074642930e-22
9.242996280000000467e-03 2.476443025442041876e-22
9.251271120000003137e-03 2.489763917913848768e-22
9.259545960000000603e-03 2.496142962772738730e-22
9.267820800000001538e-03 2.495466279894550394e-22
9.276095640000000739e-03 2.487637029017859412e-22
9.284370480000001674e-03 2.472576172233281049e-22
9.292645320000002609e-03 2.450223253150480687e-22
9.300920160000001810e-03 2.420537176217562717e-22
9.309195000000002745e-03 2.383496960690461554e-22
9.317469840000001946e-03 2.339102445858440833e-22
9.325744680000002881e-03 2.287374935619870356e-22
9.334019520000002082e-03 2.228357784666276611e-22
9.342294360000003017e-03 2.162116937862514772e-22
9.350569200000000483e-03 2.088741435213072405e-22
9.358844040000003153e-03 2.008343889030815969e-22
9.367118880000000619e-03 1.921060933281364265e-22
9.375393720000001554e-03 1.827053642719573031e-22
9.383668560000000755e-03 1.726507922267584935e-22
9.391943400000001690e-03 1.619634871144436648e-22
9.400218240000002626e-03 1.506671125665050444e-22
9.408493080000001826e-03 1.387879175926505590e-22
9.416767920000002762e-03 1.263547636713690362e-22
9.425042760000001962e-03 1.133991438510196520e-22
9.433317600000002898e-03 9.995518981865043537e-23
9.441592440000002098e-03 8.605966350464683711e-23
9.449867280000003034e-03 7.175193148947501577e-23
9.458142120000000500e-03 5.707392265991883153e-23
9.466416960000003170e-03 4.207007118926928844e-23
9.474691800000000635e-03 2.678724760465392835e-23
9.482966640000001571e-03 1.127468056553506950e-23
9.491241480000000771e-03 -4.416129571090354175e-24
9.499516320000001707e-03 -2.023150611048310346e-23
9.507791160000002642e-03 -3.611570285467921692e-23
9.516066000000001843e-03 -5.201102645721047799e-23
9.524340840000002778e-03 -6.785797921661508868e-23
9.532615680000001979e-03 -8.359542726334384211e-23
9.540890520000002914e-03 -9.916079815739997208e-23
9.549165360000002115e-03 -1.144903100338195421e-22
9.557440200000003050e-03 -1.295192318993847762e-22
9.565715040000000516e-03 -1.441821720411290781e-22
9.573989880000003186e-03 -1.584133894491438928e-22
9.582264720000000652e-03 -1.721471224938426739e-22
9.590539560000001587e-03 -1.853179292082303407e-22
9.598814400000000788e-03 -1.978610342557693487e-22
9.607089240000001723e-03 -2.097126802494788533e-22
9.615364080000002658e-03 -2.208104824794754999e-22
9.623638920000001859e-03 -2.310937869921526374e-22
9.631913760000002794e-03 -2.405040322634453825e-22
9.640188600000001995e-03 -2.489851144983395561e-22
9.648463440000002930e-03 -2.564837575244106844e-22
9.656738280000002131e-03 -2.629498863035091737e-22
9.665013120000003066e-03 -2.683369952939183568e-22
9.673287960000000532e-03 -2.726025142691716778e-22
9.681562800000003202e-03 -2.757081664619617956e-22
9.689837640000000668e-03 -2.776203139736613405e-22
9.698112480000001603e-03 -2.783102865784937451e-22
9.706387320000000804e-03 -2.777546971260941333e-22
9.714662160000001739e-03 -2.759357255385444008e-22
9.722937000000002675e-03 -2.728413708075133790e-22
9.731211840000001875e-03 -2.684656782405845115e-22
9.739486680000002811e-03 -2.628089338265775438e-22
9.747761520000002011e-03 -2.558778271372176689e-22
9.756036360000002947e-03 -2.476855784766329030e-22
9.764311200000002147e-03 -2.382519969778056498e-22
9.772586040000003083e-03 -2.276035018314422698e-22
9.780860880000000548e-03 -2.157731042403475263e-22
9.789135720000003218e-03 -2.028003660831155690e-22
9.797410560000000684e-03 -1.887313308324312820e-22
9.805685400000001620e-03 -1.736184216149275674e-22
9.813960240000000820e-03 -1.575203605349041719e-22
9.822235080000001756e-03 -1.405021175991641592e-22
9.830509920000002691e-03 -1.226349048101634018e-22
9.838784760000001892e-03 -1.039961732520720983e-22
9.847059600000002827e-03 -8.466966573311210648e-23
9.855334440000002028e-03 -6.474552644651619226e-23
9.863609280000002963e-03 -4.432045347727797824e-23
9.871884120000002164e-03 -2.349782324813498788e-23
9.880158960000003099e-03 -2.387834884154588063e-24
9.888433800000000565e-03 1.889233617469177040e-23
9.896708640000003235e-03 4.021847004571821977e-23
9.904983480000000701e-03 6.145935626735737130e-23
9.913258320000001636e-03 8.247694664584876986e-23
9.921533160000002571e-03 1.031267001732776808e-22
9.929808000000001772e-03 1.232582412526872835e-22
9.938082840000002707e-03 1.427162842211724262e-22
9.946357680000001908e-03 1.613419093998083400e-22
9.954632520000002843e-03 1.789742667333171940e-22
9.962907360000002044e-03 1.954526404010262279e-22
9.971182200000002979e-03 2.106189146932073122e-22
9.979457040000002180e-03 2.243203161252432362e-22
9.987731880000003115e-03 2.364124006852116662e-22
9.996006720000000581e-03 2.467622053253570530e-22
1.000428156000000325e-02 2.552512174874581187e-22
1.001255640000000072e-02 2.617783501001491229e-22
1.002083124000000165e-02 2.662624931976348743e-22
1.002910608000000259e-02 2.686445152620105295e-22
1.003738092000000179e-02 2.688889821554192495e-22
1.004565576000000272e-02 2.669848769323032557e-22
1.005393060000000192e-02 2.629459858269528543e-22
1.006220544000000286e-02 2.568105579809158354e-22
1.007048028000000206e-02 2.486403770004626606e-22
1.007875512000000300e-02 2.385197093764292251e-22
1.008702996000000220e-02 2.265536691893760607e-22
1.009530480000000140e-02 2.128668354172481558e-22
1.010357964000000233e-02 1.976015487922787197e-22
1.011185448000000153e-02 1.809164532666860307e-22
1.012012932000000247e-02 1.629848902331972431e-22
1.012840416000000167e-02 1.439932652723784797e-22
1.013667900000000260e-02 1.241392021905075677e-22
1.014495384000000180e-02 1.036293566809777251e-22
1.015322868000000274e-02 8.267688770148000580e-23
1.016150352000000021e-02 6.149848549535193740e-23
1.016977836000000114e-02 4.031110372960493072e-23
1.017805320000000034e-02 1.932846665846832514e-23