0.000000000000000000e+00 6.238903740651477589e-23
8.274839999999915508e-06 5.783499541216919889e-23
1.654968000000010884e-05 5.322082316317409434e-23
2.482452000000002435e-05 4.855070409531074311e-23
3.309935999999993986e-05 4.382882164435997350e-23
4.137420000000013658e-05 3.905938543369120572e-23
4.964904000000004870e-05 3.424672641671697556e-23
5.792387999999996760e-05 2.939522791070988961e-23
6.619871999999987972e-05 2.450935905366585330e-23
7.447356000000006967e-05 1.959363083990099775e-23
8.274839999999998856e-05 1.465263546449091167e-23
9.102323999999990746e-05 9.691002439151568037e-24
9.929808000000009741e-05 4.713420435377619088e-24
1.075729200000000163e-04 -2.753964387626054614e-25
1.158477599999999352e-04 -5.270706730405601424e-24
1.241226000000001251e-04 -1.026775829362274816e-23
1.323974400000000305e-04 -1.526179648285904594e-23
1.406722799999999629e-04 -2.024806392277718594e-23
1.489471200000001393e-04 -2.522179115876543366e-23
1.572219600000000718e-04 -3.017819832031196823e-23
1.654967999999999771e-04 -3.511246633876809003e-23
1.737716400000001806e-04 -4.001975435094912006e-23
1.820464800000000860e-04 -4.489518842190068162e-23
1.903213199999999913e-04 -4.973388158798004099e-23
1.985961599999999238e-04 -5.453096882790497982e-23
2.068710000000001273e-04 -5.928160488503577022e-23
2.151458400000000326e-04 -6.398102261961593196e-23
2.234206799999999380e-04 -6.862450487176081857e-23
2.316955200000001415e-04 -7.320741995131560580e-23
2.399703600000000468e-04 -7.772518866330438110e-23
2.482451999999999792e-04 -8.217328862287676064e-23
2.565200400000001556e-04 -8.654723418164272179e-23
2.647948800000000610e-04 -9.084258533609455696e-23
2.730697200000000205e-04 -9.505493599106156827e-23
2.813445600000001969e-04 -9.917995501469932950e-23
2.896194000000001023e-04 -1.032133680391398226e-22
2.978942400000000076e-04 -1.071510188639328355e-22
3.061690799999999130e-04 -1.109888394896583642e-22
3.144439200000001436e-04 -1.147229060571045846e-22
3.227187600000000489e-04 -1.183494029416152899e-22
3.309935999999999543e-04 -1.218646644726174237e-22
3.392684400000001307e-04 -1.252651396160246364e-22
3.475432800000000902e-04 -1.285474227433826589e-22
3.558181199999999956e-04 -1.317082216839945938e-22
3.640929599999999009e-04 -1.347443783985763141e-22
3.723678000000000773e-04 -1.376528420407838447e-22
3.806426399999999826e-04 -1.404306855416230773e-22
3.889174800000002132e-04 -1.430750842262851428e-22
3.971923200000001186e-04 -1.455833455303524058e-22
4.054671600000000239e-04 -1.479528901280725805e-22
4.137419999999999293e-04 -1.501813005743084548e-22
4.220168400000001599e-04 -1.522663004945109239e-22
4.302916800000000652e-04 -1.542057975254870473e-22
4.385665199999999706e-04 -1.559978603604885308e-22
4.468413600000001470e-04 -1.576407274037290276e-22
4.551162000000001065e-04 -1.591327863610805864e-22
4.633910400000000119e-04 -1.604725573984354910e-22
4.716658799999999172e-04 -1.616586792521961726e-22
4.799407200000000936e-04 -1.626899053701445127e-22
4.882155599999999989e-04 -1.635650956480737651e-22
4.964904000000001753e-04 -1.642832439469227675e-22
5.047652400000001349e-04 -1.648434716441771141e-22
5.130400800000000944e-04 -1.652450636495949396e-22
5.213149199999999456e-04 -1.654874613204396952e-22
5.295897600000001220e-04 -1.655702764375656775e-22
5.378646000000000815e-04 -1.654932838541623325e-22
5.461394400000000411e-04 -1.652564113279282608e-22
5.544142800000002175e-04 -1.648597334626377271e-22
5.626891200000000686e-04 -1.643034567877318537e-22
5.709639600000000282e-04 -1.635879158872058040e-22
5.792387999999998793e-04 -1.627135674637774477e-22
5.875136400000001641e-04 -1.616809885889385135e-22
5.957884800000000152e-04 -1.604908817148781374e-22
6.040633200000001916e-04 -1.591440747059840426e-22
6.123381600000001512e-04 -1.576415362841296977e-22
6.206130000000001107e-04 -1.559843774201296436e-22
6.288878399999999619e-04 -1.541738714448982047e-22
6.371626800000001383e-04 -1.522114557368602046e-22
6.454375200000000978e-04 -1.500987390038132095e-22
6.537123600000002742e-04 -1.478375017230638814e-22
6.619872000000002338e-04 -1.454296773139649571e-22
6.702620400000000849e-04 -1.428773509495317896e-22
6.785368800000000445e-04 -1.401827290576094469e-22
6.868117199999998956e-04 -1.373481382675684834e-22
6.950865600000001804e-04 -1.343760153354055347e-22
7.033614000000000316e-04 -1.312689081869988567e-22
7.116362400000002079e-04 -1.280294967787789743e-22
7.199110800000001675e-04 -1.246605955171351745e-22
7.281859200000001271e-04 -1.211651790907097611e-22
7.364607599999999782e-04 -1.175463832941216777e-22
7.447356000000001546e-04 -1.138075056282517638e-22
7.530104400000001141e-04 -1.099520028627466033e-22
7.612852800000002905e-04 -1.059834671044759947e-22
7.695601200000002501e-04 -1.019056214994014986e-22
7.778349600000001012e-04 -9.772229645274221015e-23
7.861098000000000608e-04 -9.343742569790885005e-23
7.943846399999999119e-04 -8.905503983417999524e-23
8.026594799999998715e-04 -8.457926320909681020e-23
8.109343199999998310e-04 -8.001432305882175589e-23
8.192091600000002242e-04 -7.536454605466469208e-23
8.274840000000001838e-04 -7.063437476114547599e-23
8.357588400000001434e-04 -6.582836237565524950e-23
8.440336799999999945e-04 -6.095118798982093179e-23
8.523085200000004961e-04 -5.600764820595355364e-23
8.605833600000003473e-04 -5.100265830103481246e-23
8.688582000000003068e-04 -4.594124076864981689e-23
8.771330400000002664e-04 -4.082850352210763899e-23
8.854078800000001175e-04 -3.566962859839956281e-23
8.936827200000000771e-04 -3.046984123210334453e-23
9.019575599999999282e-04 -2.523440318285010839e-23
9.102323999999998878e-04 -1.996860356094470943e-23
9.185072400000003894e-04 -1.467775640401175114e-23
9.267820800000002406e-04 -9.367225001950765794e-24
9.350569200000002001e-04 -4.042416949625528041e-24
9.433317600000000512e-04 1.291185738017633980e-24
9.516066000000000108e-04 6.628039029424499830e-24
9.598814400000005125e-04 1.196253876447181642e-23
9.681562800000003636e-04 1.728903529165248135e-23
9.764311200000003231e-04 2.260187148330860379e-23
9.847059600000002827e-04 2.789538858821777940e-23
9.929808000000001338e-04 3.316396966004001141e-23
1.001255639999999985e-03 3.840203226764216577e-23
1.009530480000000053e-03 4.360405013573371318e-23
1.017805319999999904e-03 4.876453906512871232e-23
1.026080160000000406e-03 5.387805818205104370e-23
1.034355000000000257e-03 5.893919773206963596e-23
1.042629840000000108e-03 6.394257876616323915e-23
1.050904680000000176e-03 6.888284530068361606e-23
1.059179520000000027e-03 7.375467961903718125e-23
1.067454360000000529e-03 7.855279440452417161e-23
1.075729200000000380e-03 8.327197469048708677e-23
1.084004040000000231e-03 8.790706093191221780e-23
1.092278880000000299e-03 9.245301932230630618e-23
1.100553720000000150e-03 9.690490532970787379e-23
1.108828560000000001e-03 1.012579452868034409e-22
1.117103400000000069e-03 1.055074774723102220e-22
1.125378239999999920e-03 1.096490161214427067e-22
1.133653080000000422e-03 1.136781829687081136e-22
1.141927920000000273e-03 1.175907439588195673e-22
1.150202760000000124e-03 1.213825507349947021e-22
1.158477600000000192e-03 1.250495758132391139e-22
1.166752440000000043e-03 1.285878674193815114e-22
1.175027280000000545e-03 1.319936181578542336e-22
1.183302120000000396e-03 1.352631136859645437e-22
1.191576960000000247e-03 1.383928423309774343e-22
1.199851800000000315e-03 1.413794156200217152e-22
1.208126640000000166e-03 1.442196956029929307e-22
1.216401480000000018e-03 1.469106851855606156e-22
1.224676320000000086e-03 1.494496449767358018e-22
1.232951159999999937e-03 1.518339711522852639e-22
1.241226000000000438e-03 1.540612895163632451e-22
1.249500840000000289e-03 1.561293417876096344e-22
1.257775680000000141e-03 1.580360624014371862e-22
1.266050520000000209e-03 1.597794837538178389e-22
1.274325360000000710e-03 1.613578123715239485e-22
1.282600200000000561e-03 1.627693497655063946e-22
1.290875040000000413e-03 1.640125886551979676e-22
1.299149880000000264e-03 1.650861328963383264e-22
1.307424720000000332e-03 1.659888251544198867e-22
1.315699560000000183e-03 1.667196427440516985e-22
1.323974400000000034e-03 1.672778413054573914e-22
1.332249240000000102e-03 1.676628182973531744e-22
1.340524079999999953e-03 1.678742366427109375e-22
1.348798919999999804e-03 1.679118815159278452e-22
1.357073760000000306e-03 1.677757452851166285e-22
1.365348600000000157e-03 1.674659170954277767e-22
1.373623440000000225e-03 1.669826497052771261e-22
1.381898280000000727e-03 1.663262900908708798e-22
1.390173120000000578e-03 1.654973600230432028e-22
1.398447960000000429e-03 1.644964964061955575e-22
1.406722800000000280e-03 1.633245510869642504e-22
1.414997640000000348e-03 1.619825110286999332e-22
1.423272480000000199e-03 1.604715986109785441e-22
1.431547320000000050e-03 1.587931747486535392e-22
1.439822160000000118e-03 1.569488242782146605e-22
1.448096999999999969e-03 1.549402636590304408e-22
1.456371839999999820e-03 1.527694105938432488e-22
1.464646680000000322e-03 1.504383075025578735e-22
1.472921520000000173e-03 1.479491790564117518e-22
1.481196360000000241e-03 1.453043703349253439e-22
1.489471200000000743e-03 1.425063940379423494e-22
1.497746040000000594e-03 1.395578855442958784e-22
1.506020880000000445e-03 1.364616431342728117e-22
1.514295720000000296e-03 1.332206030786515176e-22
1.522570560000000364e-03 1.298378759168229424e-22
1.530845400000000215e-03 1.263167306394002214e-22
1.539120240000000066e-03 1.226606233033673748e-22
1.547395080000000134e-03 1.188731727943345818e-22
1.555669919999999986e-03 1.149581753791137170e-22
1.563944759999999837e-03 1.109195723611857908e-22
1.572219600000000338e-03 1.067614510993808515e-22
1.580494440000000190e-03 1.024880239611981912e-22
1.588769280000000257e-03 9.810362145717157026e-23
1.597044120000000759e-03 9.361269621256446592e-23
1.605318960000000610e-03 8.901980998826070515e-23
1.613593800000000461e-03 8.432965725937667607e-23
1.621868640000000313e-03 7.954704329699983388e-23
1.630143480000000381e-03 7.467691438665192897e-23
1.638418320000000232e-03 6.972432558600616621e-23
1.646693160000000083e-03 6.469446912063029153e-23
1.654968000000000151e-03 5.959263434682267047e-23
1.663242840000000002e-03 5.442422870265060530e-23
1.671517679999999853e-03 4.919473583972135531e-23
1.679792520000000355e-03 4.390972610559195509e-23
1.688067360000000206e-03 3.857482135020253532e-23
1.696342200000000274e-03 3.319570255039887286e-23
1.704617040000000775e-03 2.777808573266220445e-23
1.712891880000000627e-03 2.232774211530663768e-23
1.721166720000000478e-03 1.685047722229744752e-23
1.729441560000000329e-03 1.135216630747338933e-23
1.737716400000000397e-03 5.838723316696122508e-24
1.745991240000000248e-03 3.161319430000882977e-25
1.754266080000000099e-03 -5.209594351242538918e-24
1.762540920000000167e-03 -1.073240764622738045e-23
1.770815760000000018e-03 -1.624625464504545090e-23
1.779090599999999869e-03 -2.174509838969981330e-23
1.787365440000000371e-03 -2.722292002696642781e-23
1.795640280000000222e-03 -3.267374891094795633e-23
1.803915120000000290e-03 -3.809164228927013949e-23
1.812189960000000792e-03 -4.347071007954947349e-23
1.820464800000000643e-03 -4.880509024342605865e-23
1.828739640000000494e-03 -5.408896860013480795e-23
1.837014480000000345e-03 -5.931656147503716668e-23
1.845289320000000413e-03 -6.448213771483387174e-23
1.853564160000000264e-03 -6.958000986053457919e-23
1.861839000000000115e-03 -7.460456436184896848e-23
1.870113840000000183e-03 -7.955025716911126801e-23
1.878388680000000035e-03 -8.441165296272345192e-23
1.886663519999999886e-03 -8.918341692924906090e-23
1.894938360000000387e-03 -9.386035569168401823e-23
1.903213200000000238e-03 -9.843739679297363017e-23
1.911488040000000306e-03 -1.029096196893287763e-22
1.919762880000000808e-03 -1.072722262392458644e-22
1.928037720000000659e-03 -1.115205564439677315e-22
1.936312560000000510e-03 -1.156500690491186579e-22
1.944587400000000361e-03 -1.196563456118579736e-22
1.952862240000000429e-03 -1.235351002565563406e-22
1.961137080000000497e-03 -1.272821741697430131e-22
1.969411920000000132e-03 -1.308935755693837853e-22
1.977686760000000200e-03 -1.343654587474702609e-22
1.985961599999999834e-03 -1.376941800321841815e-22
1.994236439999999902e-03 -1.408762549371726839e-22
2.002511280000000404e-03 -1.439084175443323298e-22
2.010786120000000472e-03 -1.467875574316014613e-22
2.019060960000000106e-03 -1.495107806414821372e-22
2.027335800000000608e-03 -1.520753341828487445e-22
2.035610640000000676e-03 -1.544786737088298475e-22
2.043885480000000743e-03 -1.567183821849417549e-22
2.052160320000000378e-03 -1.587922506087947582e-22
2.060435160000000446e-03 -1.606981921860462608e-22
2.068710000000000514e-03 -1.624343404597640069e-22
2.076984840000000148e-03 -1.639989554308700615e-22
2.085259680000000216e-03 -1.653905374570732959e-22
2.093534519999999850e-03 -1.666077211847160991e-22
2.101809359999999918e-03 -1.676493949855194312e-22
2.110084200000000420e-03 -1.685145849109770358e-22
2.118359040000000488e-03 -1.692025659422079160e-22
2.126633880000000122e-03 -1.697127469406129250e-22
2.134908720000000624e-03 -1.700447658262008283e-22
2.143183560000000692e-03 -1.701983888470957360e-22
2.151458400000000760e-03 -1.701735905308276686e-22
2.159733240000000394e-03 -1.699704745877581570e-22
2.168008080000000462e-03 -1.695893427705435293e-22
2.176282920000000096e-03 -1.690306367477870220e-22
2.184557760000000164e-03 -1.682949969086611798e-22
2.192832600000000232e-03 -1.673832202055898553e-22
2.201107439999999867e-03 -1.662963049949672455e-22
2.209382279999999935e-03 -1.650354195469924713e-22
2.217657120000000436e-03 -1.636019271522619794e-22
2.225931960000000504e-03 -1.619973631104514106e-22
2.234206800000000138e-03 -1.602234378964093405e-22
2.242481640000000640e-03 -1.582820264443327215e-22
2.250756480000000708e-03 -1.561751529831116038e-22
2.259031320000000776e-03 -1.539050012772092827e-22
2.267306160000000410e-03 -1.514738858878355403e-22
2.275581000000000478e-03 -1.488842899432626455e-22
2.283855840000000113e-03 -1.461388224197649120e-22
2.292130680000000181e-03 -1.432402808328535363e-22
2.300405520000000249e-03 -1.401915901829549297e-22
2.308680359999999883e-03 -1.369958789426482175e-22
2.316955199999999951e-03 -1.336563996164923360e-22
2.325230040000000453e-03 -1.301766051157690766e-22
2.333504880000000520e-03 -1.265600598706180764e-22
2.341779720000000155e-03 -1.228105105348842353e-22
2.350054560000000656e-03 -1.189318003338676285e-22
2.358329400000000724e-03 -1.149279362818315509e-22
2.366604240000000792e-03 -1.108030140423711363e-22
2.374879080000000427e-03 -1.065612861771329897e-22
2.383153920000000495e-03 -1.022070961168421579e-22
2.391428760000000129e-03 -9.774494709528354053e-23
2.399703600000000197e-03 -9.317943988943454626e-23
2.407978440000000265e-03 -8.851533520719958554e-23
2.416253279999999899e-03 -8.375749305766070476e-23
2.424528119999999967e-03 -7.891091953956924999e-23
2.432802960000000469e-03 -7.398071200505114849e-23
2.441077800000000537e-03 -6.897208660209935340e-23
2.449352640000000171e-03 -6.389033695202618656e-23
2.457627480000000673e-03 -5.874084606796670586e-23
2.465902320000000741e-03 -5.352906396081995646e-23
2.474177160000000809e-03 -4.826050974172426059e-23
2.482452000000000443e-03 -4.294076716894926569e-23
2.490726840000000511e-03 -3.757547945774465928e-23
2.499001680000000145e-03 -3.217035590383231867e-23
2.507276520000000213e-03 -2.673115898820336613e-23
2.515551360000000281e-03 -2.126371283581088058e-23
2.523826199999999916e-03 -1.577388386582581135e-23
2.532101039999999550e-03 -1.026758296599333895e-23
2.540375879999999618e-03 -4.750745573047252533e-24
2.548650720000000553e-03 7.706764731796052332e-25
2.556925560000000621e-03 6.290726909225025419e-24
2.565200400000000689e-03 1.180346139997240379e-23
2.573475240000000323e-03 1.730294636307337525e-23
2.581750080000000391e-03 2.278327713297475945e-23
2.590024920000000459e-03 2.823856655096026313e-23
2.598299760000000094e-03 3.366296087468882985e-23
2.606574600000000162e-03 3.905062703684111430e-23
2.614849439999999796e-03 4.439576911830750173e-23
2.623124279999999864e-03 4.969262087100452361e-23
2.631399119999999932e-03 5.493546795919993852e-23
2.639673959999999566e-03 6.011864487009026958e-23
2.647948799999999634e-03 6.523656206484928687e-23
2.656223640000000569e-03 7.028370280164799000e-23
2.664498480000000637e-03 7.525464716465559332e-23
2.672773320000000705e-03 8.014406819736885507e-23
2.681048160000000340e-03 8.494674444226063627e-23
2.689323000000000408e-03 8.965756093827266850e-23
2.697597840000000476e-03 9.427150677519163424e-23
2.705872680000000110e-03 9.878368898436967272e-23
2.714147520000000178e-03 1.031893151383548881e-22
2.722422359999999812e-03 1.074837265806633718e-22
2.730697199999999880e-03 1.116623657246713292e-22
2.738972039999999948e-03 1.157208316432614058e-22
2.747246879999999582e-03 1.196548298713241016e-22
2.755521719999999650e-03 1.234602487329374342e-22
2.763796560000000586e-03 1.271330899438986724e-22
2.772071400000000654e-03 1.306695588881130832e-22
2.780346240000000722e-03 1.340659790808214706e-22
2.788621080000000356e-03 1.373188866588601406e-22
2.796895920000000424e-03 1.404249383278754594e-22
2.805170760000000492e-03 1.433810015650947505e-22
2.813445600000000126e-03 1.461840684564592354e-22
2.821720440000000194e-03 1.488313367534425378e-22
2.829995279999999828e-03 1.513201387875242407e-22
2.838270119999999896e-03 1.536480098454851754e-22
2.846544959999999964e-03 1.558126360547882119e-22
2.854819799999999599e-03 1.578119045257710331e-22
2.863094639999999667e-03 1.596438706906964760e-22
2.871369480000000602e-03 1.613067834758730538e-22
2.879644320000000670e-03 1.627990722664748855e-22
2.887919160000000738e-03 1.641193436635733508e-22
2.896194000000000372e-03 1.652663900314954807e-22
2.904468840000000440e-03 1.662391601711438531e-22
2.912743680000000508e-03 1.670367928502852853e-22
2.921018520000000143e-03 1.676585663763205452e-22
2.929293360000000210e-03 1.681039587931586866e-22
2.937568199999999845e-03 1.683725792852444888e-22
2.945843039999999913e-03 1.684642510553038751e-22
2.954117879999999981e-03 1.683789260289300404e-22
2.962392719999999615e-03 1.681167798935465467e-22
2.970667559999999683e-03 1.676781156468421106e-22
2.978942400000000618e-03 1.670634577073053617e-22
2.987217240000000686e-03 1.662734562383389173e-22
2.995492080000000754e-03 1.653089705496174511e-22
3.003766920000000389e-03 1.641709871925149812e-22
3.012041760000000457e-03 1.628606879244188407e-22
3.020316600000000525e-03 1.613793894048864145e-22
3.028591440000000159e-03 1.597285924795668180e-22
3.036866280000000227e-03 1.579099457898369531e-22
3.045141119999999861e-03 1.559252722059867992e-22
3.053415959999999929e-03 1.537765564136704234e-22
3.061690799999999997e-03 1.514659451259601070e-22
3.069965639999999631e-03 1.489957584171387923e-22
3.078240479999999699e-03 1.463684635033327943e-22
3.086515320000000635e-03 1.435867084961150332e-22
3.094790160000000703e-03 1.406532730419609897e-22
3.103065000000000771e-03 1.375711211070046195e-22
3.111339840000000405e-03 1.343433344689492372e-22
3.119614680000000473e-03 1.309731797061180688e-22
3.127889520000000541e-03 1.274640320132496499e-22
3.136164360000000175e-03 1.238194503947476891e-22
3.144439200000000243e-03 1.200430991980219530e-22
3.152714039999999877e-03 1.161388228589690097e-22
3.160988879999999945e-03 1.121105717731619578e-22
3.169263720000000013e-03 1.079624660973989477e-22
3.177538559999999648e-03 1.036987324279431767e-22
3.185813399999999716e-03 9.932374875179065682e-23
3.194088240000000651e-03 9.484199868278756314e-23
3.202363080000000719e-03 9.025809541119413839e-23
3.210637920000000787e-03 8.557675825727055084e-23
3.218912760000000421e-03 8.080281718883547934e-23
3.227187600000000489e-03 7.594121153762612939e-23
3.235462440000000557e-03 7.099697671640481468e-23
3.243737280000000191e-03 6.597526005908807327e-23
3.252012120000000259e-03 6.088129166506048333e-23
3.260286959999999894e-03 5.572041015570810709e-23
3.268561799999999962e-03 5.049802252335537931e-23
3.276836640000000030e-03 4.521963310704306837e-23
3.285111479999999664e-03 3.989080024695994889e-23
3.293386319999999732e-03 3.451716345816675238e-23
3.301661160000000667e-03 2.910440443208961496e-23
3.309936000000000735e-03 2.365826917650070629e-23
3.318210840000000803e-03 1.818453756867722588e-23
3.326485680000000437e-03 1.268903885285404433e-23
3.334760520000000505e-03 7.177629725380183848e-24
3.343035360000000573e-03 1.656202510369274557e-24
3.351310200000000208e-03 -3.869331032407804742e-24
3.359585040000000276e-03 -9.393038334075885406e-24
3.367859879999999910e-03 -1.490898002934708300e-23
3.376134719999999978e-03 -2.041121222207790097e-23
3.384409560000000046e-03 -2.589380126912474344e-23
3.392684399999999680e-03 -3.135082421333198359e-23
3.400959239999999748e-03 -3.677638662894132753e-23
3.409234080000000684e-03 -4.216461647011792229e-23
3.417508920000000752e-03 -4.750968697032828872e-23
3.425783760000000819e-03 -5.280580245903241845e-23
3.434058600000000454e-03 -5.804722772887629236e-23
3.442333440000000522e-03 -6.322826768076753150e-23
3.450608280000000590e-03 -6.834330266885454726e-23
3.458883120000000224e-03 -7.338676566079889310e-23
3.467157960000000292e-03 -7.835317953520418167e-23
3.475432799999999926e-03 -8.323713605144522776e-23
3.483707639999999994e-03 -8.803332757459427848e-23
3.491982480000000062e-03 -9.273653291135594101e-23
3.500257319999999697e-03 -9.734163537043290657e-23
3.508532159999999765e-03 -1.018436218322923010e-22
3.516807000000000700e-03 -1.062375820796672032e-22
3.525081840000000768e-03 -1.105187276735824411e-22
3.533356680000000836e-03 -1.146823708987205571e-22
3.541631520000000470e-03 -1.187239676863455793e-22
3.549906360000000538e-03 -1.226390759850780331e-22
3.558181200000000606e-03 -1.264234218529415777e-22
3.566456040000000240e-03 -1.300728387716670329e-22
3.574730880000000308e-03 -1.335833488392215657e-22
3.583005719999999943e-03 -1.369510897645026302e-22
3.591280560000000011e-03 -1.401723966126999142e-22
3.599555400000000079e-03 -1.432437298646971660e-22
3.607830239999999713e-03 -1.461617428046023553e-22
3.616105079999999781e-03 -1.489232259791866179e-22
3.624379920000000716e-03 -1.515251503855237824e-22
3.632654760000000784e-03 -1.539646403278865902e-22
3.640929600000000852e-03 -1.562389873363135223e-22
3.649204440000000486e-03 -1.583456578478506323e-22
3.657479280000000554e-03 -1.602822750907073447e-22
3.665754120000000189e-03 -1.620466623014895218e-22
3.674028960000000257e-03 -1.636367920871328846e-22
3.682303800000000325e-03 -1.650508602133172966e-22
3.690578639999999959e-03 -1.662872069813248774e-22
3.698853480000000027e-03 -1.673444105440262270e-22
3.707128320000000095e-03 -1.682211924642925325e-22
3.715403159999999729e-03 -1.689165138196813329e-22
3.723677999999999797e-03 -1.694294833056589479e-22
3.731952840000000732e-03 -1.697594382797409953e-22
3.740227680000000800e-03 -1.699058735318177313e-22
3.748502520000000868e-03 -1.698684942850532839e-22
3.756777360000000503e-03 -1.696471783163540019e-22
3.765052200000000571e-03 -1.692419939831245975e-22
3.773327040000000205e-03 -1.686532016233314295e-22
3.781601880000000273e-03 -1.678812340492721808e-22
3.789876720000000341e-03 -1.669267358516758061e-22
3.798151559999999975e-03 -1.657905081969274662e-22
3.806426400000000043e-03 -1.644735775825162688e-22
3.814701240000000111e-03 -1.629771137262342513e-22
3.822976079999999745e-03 -1.613025140249017035e-22
3.831250919999999813e-03 -1.594513115675997449e-22
3.839525760000000749e-03 -1.574252591458158127e-22
3.847800600000000817e-03 -1.552262480079433845e-22
3.856075440000000885e-03 -1.528563768408781876e-22
3.864350280000000519e-03 -1.503178968861469683e-22
3.872625120000000587e-03 -1.476132540201437434e-22
3.880899960000000221e-03 -1.447450674826988477e-22
3.889174800000000289e-03 -1.417161358559087473e-22
3.897449640000000357e-03 -1.385294498778881221e-22
3.905724479999999992e-03 -1.351881596841291034e-22
3.913999320000000059e-03 -1.316956173104522276e-22
3.922274160000000127e-03 -1.280553129150985182e-22
3.930549000000000195e-03 -1.242709388600099969e-22
3.938823840000000263e-03 -1.203463107677894701e-22
3.947098680000001199e-03 -1.162854412410443168e-22
3.955373520000000399e-03 -1.120924635510209038e-22
3.963648360000000467e-03 -1.077716993393795340e-22
3.971923200000000535e-03 -1.033275989911698914e-22
3.980198040000000603e-03 -9.876478778257709685e-23
3.988472880000000671e-03 -9.408803057129144828e-23
3.996747720000000739e-03 -8.930224600774630437e-23
4.005022559999999940e-03 -8.441249787666481638e-23
4.013297400000000008e-03 -7.942397667538766601e-23
4.021572240000000076e-03 -7.434201565961593886e-23
4.029847080000000144e-03 -6.917204887534934912e-23
4.038121920000000212e-03 -6.391964640030525431e-23
4.046396760000000280e-03 -5.859046180869434218e-23
4.054671600000001215e-03 -5.319027696774334776e-23
4.062946440000000416e-03 -4.772495003204666753e-23
4.071221280000000484e-03 -4.220045587733613268e-23
4.079496120000000552e-03 -3.662284240726873219e-23
4.087770960000000620e-03 -3.099825456024041244e-23
4.096045800000000688e-03 -2.533290383389514950e-23
4.104320640000000756e-03 -1.963307297111845621e-23
4.112595479999999956e-03 -1.390510104930478415e-23
4.120870320000000024e-03 -8.155374632353571084e-24
4.129145160000000092e-03 -2.390326355444301495e-24
4.137420000000000160e-03 3.383580423976421668e-24
4.145694840000000228e-03 9.159847027168961654e-24
4.153969680000000296e-03 1.493195677924468959e-23
4.162244520000001231e-03 2.069337348555221759e-23
4.170519360000000432e-03 2.643755642341760199e-23
4.178794200000000500e-03 3.215796517621416492e-23
4.187069040000000568e-03 3.784806926949591987e-23
4.195343880000000636e-03 4.350135504796000779e-23
4.203618720000000704e-03 4.911133321962244804e-23
4.211893560000000772e-03 5.467154225254899598e-23
4.220168399999999972e-03 6.017556310761187482e-23
4.228443240000000040e-03 6.561701509524440929e-23
4.236718080000000108e-03 7.098958559255502568e-23
4.244992920000000176e-03 7.628701335369562800e-23
4.253267760000000244e-03 8.150313153756048374e-23
4.261542600000000312e-03 8.663183722040153248e-23
4.269817440000001248e-03 9.166713639096972854e-23
4.278092280000000448e-03 9.660311027707876010e-23
4.286367120000000516e-03 1.014339503684008521e-22
4.294641960000000584e-03 1.061539397541928512e-22
4.302916800000000652e-03 1.107574710951691712e-22
4.311191640000000720e-03 1.152390571655375400e-22
4.319466480000000788e-03 1.195933247153428905e-22
4.327741319999999989e-03 1.238150584411422081e-22
4.336016160000000057e-03 1.278991635603418510e-22
4.344291000000000125e-03 1.318407362950146024e-22
4.352565840000000193e-03 1.356349987598486154e-22
4.360840680000000261e-03 1.392773788096243834e-22
4.369115520000000329e-03 1.427634383818113526e-22
4.377390360000001264e-03 1.460889410392428126e-22
4.385665200000000465e-03 1.492498020607844622e-22
4.393940040000000533e-03 1.522421265289746161e-22
4.402214880000000601e-03 1.550622001670882694e-22
4.410489720000000669e-03 1.577064864235486558e-22
4.418764560000000736e-03 1.601716623432281513e-22
4.427039400000000804e-03 1.624545705999150405e-22
4.435314240000000005e-03 1.645522917028150243e-22
4.443589080000000073e-03 1.664620630316937771e-22
4.451863920000000141e-03 1.681813697986876573e-22
4.460138760000000209e-03 1.697078601815042511e-22
4.468413600000000277e-03 1.710394303743662867e-22
4.476688439999999478e-03 1.721741661171593124e-22
4.484963280000001280e-03 1.731103939580081437e-22
4.493238120000000481e-03 1.738466652024675509e-22
4.501512960000000549e-03 1.743817520031832189e-22
4.509787800000000617e-03 1.747146778096371326e-22
4.518062640000000685e-03 1.748446585691735927e-22
4.526337480000000753e-03 1.747711760159704711e-22
4.534612320000000821e-03 1.744938871940837382e-22
4.542887160000000021e-03 1.740127239302506243e-22
4.551162000000000089e-03 1.733278019833638995e-22
4.559436840000000157e-03 1.724395119734700469e-22
4.567711680000000225e-03 1.713484559171631253e-22
4.575986520000000293e-03 1.700554932254740563e-22
4.584261359999999494e-03 1.685617244404094936e-22
4.592536200000001297e-03 1.668684757560067345e-22
4.600811040000000497e-03 1.649773387146701548e-22
4.609085880000000565e-03 1.628901007395160080e-22
4.617360720000000633e-03 1.606088301541670330e-22
4.625635560000000701e-03 1.581357769801279227e-22
4.633910400000000769e-03 1.554734710364414137e-22
4.642185240000000837e-03 1.526246284099363210e-22
4.650460080000000038e-03 1.495922241323328725e-22
4.658734920000000106e-03 1.463794383511117616e-22
4.667009760000000174e-03 1.429896790715301911e-22
4.675284600000000242e-03 1.394265845895420611e-22
4.683559440000000310e-03 1.356939898135239412e-22
4.691834279999999510e-03 1.317959793739236116e-22
4.700109120000001313e-03 1.277368088955718954e-22
4.708383960000000514e-03 1.235209844393384005e-22
4.716658800000000581e-03 1.191531692960963818e-22
4.724933640000000649e-03 1.146382562509777202e-22
4.733208480000000717e-03 1.099812972475753184e-22
4.741483320000000785e-03 1.051875423887880406e-22
4.749758160000000853e-03 1.002624145575030532e-22
4.758033000000000054e-03 9.521150377545485860e-23
4.766307840000000122e-03 9.004058818605160124e-23
4.774582680000000190e-03 8.475558681884386599e-23
4.782857520000000258e-03 7.936261168664741898e-23
4.791132360000000326e-03 7.386789723069850827e-23
4.799407199999999526e-03 6.827785671497406818e-23
4.807682040000001329e-03 6.259901653288757814e-23
4.815956880000000530e-03 5.683805161547079427e-23
4.824231720000000598e-03 5.100174682594730649e-23
4.832506560000000666e-03 4.509700147968099161e-23
4.840781400000000734e-03 3.913082384264841751e-23
4.849056240000000802e-03 3.311030900230425371e-23
4.857331080000000870e-03 2.704265857293064539e-23
4.865605920000000070e-03 2.093514292769873841e-23
4.873880760000000138e-03 1.479512878586627621e-23
4.882155600000000206e-03 8.630039604956511577e-24
4.890430440000000274e-03 2.447372985091469840e-24
4.898705280000000342e-03 -3.745329832019366085e-24
4.906980119999999543e-03 -9.940482852165314661e-24
4.915254960000001345e-03 -1.613047513959870318e-23
4.923529800000000546e-03 -2.230767867096056538e-23
4.931804640000000614e-03 -2.846446298662652179e-23
4.940079480000000682e-03 -3.459320139769226319e-23
4.948354320000000750e-03 -4.068628609723047534e-23
4.956629160000000818e-03 -4.673612918899192971e-23
4.964904000000000886e-03 -5.273517790980062800e-23
4.973178840000000087e-03 -5.867591666564075631e-23
4.981453680000000155e-03 -6.455087650274008903e-23
4.989728520000000223e-03 -7.035264897428413776e-23
4.998003360000000291e-03 -7.607388271345001564e-23
5.006278200000000358e-03 -8.170731749120984005e-23
5.014553040000001294e-03 -8.724576418343280236e-23
5.022827880000001362e-03 -9.268215628573314140e-23
5.031102720000000562e-03 -9.800952007942875057e-23
5.039377560000000630e-03 -1.032210237457217898e-22
5.047652400000000698e-03 -1.083099570909135695e-22
5.055927240000000766e-03 -1.132697533229849219e-22
5.064202080000000834e-03 -1.180939986430145791e-22
5.072476920000000902e-03 -1.227764144732311092e-22
5.080751760000000103e-03 -1.273109059899015333e-22
5.089026600000000171e-03 -1.316915121334615299e-22
5.097301440000001106e-03 -1.359124816661502817e-22
5.105576280000001174e-03 -1.399682163487770210e-22
5.113851120000001242e-03 -1.438533400182084489e-22
5.122125960000001310e-03 -1.475626685887576047e-22
5.130400800000001378e-03 -1.510912342114466635e-22
5.138675640000000579e-03 -1.544343051559590376e-22
5.146950480000000647e-03 -1.575873483655248992e-22
5.155225320000000715e-03 -1.605461002530302411e-22
5.163500160000000783e-03 -1.633064851009044428e-22
5.171775000000000851e-03 -1.658647095909098305e-22
5.180049840000000919e-03 -1.682171829418269826e-22
5.188324680000000119e-03 -1.703605884497509502e-22
5.196599520000000187e-03 -1.722918528849746323e-22
5.204874360000001123e-03 -1.740081565572576384e-22
5.213149200000001190e-03 -1.755069735337109695e-22
5.221424040000001258e-03 -1.767860102239249958e-22
5.229698880000001326e-03 -1.778433033879070579e-22
5.237973720000001394e-03 -1.786771162517329244e-22
5.246248560000000595e-03 -1.792860454054288809e-22
5.254523400000000663e-03 -1.796689333417119610e-22
5.262798240000000731e-03 -1.798249267966506975e-22
5.271073080000000799e-03 -1.797534557364023990e-22
5.279347920000000867e-03 -1.794542139149060459e-22
5.287622760000000935e-03 -1.789272169429352673e-22
5.295897600000000136e-03 -1.781727160026683154e-22
5.304172440000000203e-03 -1.771913057288523472e-22
5.312447280000001139e-03 -1.759838185869957085e-22
5.320722120000001207e-03 -1.745514197029007955e-22
5.328996960000001275e-03 -1.728955426105362293e-22
5.337271800000001343e-03 -1.710179157939846445e-22
5.345546640000001411e-03 -1.689205733178134384e-22
5.353821480000000611e-03 -1.666057993515867794e-22
5.362096320000000679e-03 -1.640762056067937394e-22
5.370371160000000747e-03 -1.613346276347544848e-22
5.378646000000000815e-03 -1.583842221763692033e-22
5.386920840000000883e-03 -1.552283779497291262e-22
5.395195680000000951e-03 -1.518707736361015519e-22
5.403470520000000152e-03 -1.483153533648777038e-22
5.411745360000000220e-03 -1.445663111760099009e-22
5.420020200000001155e-03 -1.406281396783757673e-22
5.428295040000001223e-03 -1.365055484305638276e-22
5.436569880000001291e-03 -1.322035522300353576e-22
5.444844720000001359e-03 -1.277273712164325054e-22
5.453119560000001427e-03 -1.230825002737372742e-22
5.461394400000000628e-03 -1.182746495853983275e-22
5.469669240000000696e-03 -1.133097551906142799e-22
5.477944080000000764e-03 -1.081939858386687629e-22
5.486218920000000832e-03 -1.029336934245316683e-22
5.494493760000000900e-03 -9.753547091989718115e-23
5.502768600000000968e-03 -9.200607385499788054e-23
5.511043440000000168e-03 -8.635248342986496278e-23
5.519318280000000236e-03 -8.058184445501462155e-23
5.527593120000001171e-03 -7.470148959639498026e-23
5.535867960000001239e-03 -6.871892151960298173e-23
5.544142800000001307e-03 -6.264178638269887162e-23
5.552417640000001375e-03 -5.647789566615296646e-23
5.560692480000001443e-03 -5.023517017447468779e-23
5.568967320000000644e-03 -4.392167393228394061e-23
5.577242160000000712e-03 -3.754556352663814033e-23
5.585517000000000780e-03 -3.111510539375206016e-23
5.593791840000000848e-03 -2.463865214878471119e-23
5.602066680000000916e-03 -1.812463355282337441e-23
5.610341520000000984e-03 -1.158155691227263529e-23
5.618616360000000184e-03 -5.017980194857248435e-24
5.626891200000000252e-03 1.557480528002875267e-24
5.635166040000001188e-03 8.136180445633916516e-24
5.643440880000001256e-03 1.470944596512767410e-23
5.651715720000001324e-03 2.126859837613348054e-23
5.659990560000001392e-03 2.780495961434244058e-23
5.668265400000001460e-03 3.430987467577008306e-23
5.676540240000000660e-03 4.077471264044207566e-23
5.684815080000000728e-03 4.719089295428686879e-23
5.693089920000000796e-03 5.354988021025157560e-23
5.701364760000000864e-03 5.984320787644084998e-23
5.709639600000000932e-03 6.606248059688169861e-23
5.717914440000001000e-03 7.219938151383862344e-23
5.726189280000000201e-03 7.824569774283221996e-23
5.734464120000000269e-03 8.419330350403484745e-23
5.742738960000001204e-03 9.003420920996310961e-23
5.751013800000001272e-03 9.576053145881980642e-23
5.759288640000001340e-03 1.013645410406320242e-22
5.767563480000001408e-03 1.068386498309178031e-22
5.775838320000001476e-03 1.121754248896716340e-22
5.784113160000000677e-03 1.173676180521127039e-22
5.792388000000000745e-03 1.224081336285843784e-22
5.800662840000000813e-03 1.272900991698965784e-22
5.808937680000000880e-03 1.320068109197513291e-22
5.817212520000000948e-03 1.365518060943029575e-22
5.825487360000001016e-03 1.409188366470324798e-22
5.833762200000000217e-03 1.451018909792857367e-22
5.842037040000000285e-03 1.490952316296382707e-22
5.850311880000001220e-03 1.528933446599601641e-22
5.858586720000001288e-03 1.564910304838253500e-22
5.866861560000001356e-03 1.598833162849165577e-22
5.875136400000001424e-03 1.630655402131760890e-22
5.883411240000001492e-03 1.660333001089685256e-22
5.891686080000000693e-03 1.687824715775088092e-22
5.899960920000000761e-03 1.713092396256990998e-22
5.908235760000000829e-03 1.736100381401581245e-22
5.916510600000000897e-03 1.756816488335885741e-22
5.924785440000000965e-03 1.775211083432350628e-22
5.933060280000001033e-03 1.791258006193742770e-22
5.941335120000000233e-03 1.804934098569600414e-22
5.949609960000000301e-03 1.816219341453318537e-22
5.957884800000001237e-03 1.825097282266608765e-22
5.966159640000001305e-03 1.831554261446919741e-22
5.974434480000001373e-03 1.835580475731337712e-22
5.982709320000001441e-03 1.837168898272171817e-22
5.990984160000001509e-03 1.836316133500156049e-22
5.999259000000000709e-03 1.833021913265236012e-22
6.007533840000000777e-03 1.827289076171803290e-22
6.015808680000000845e-03 1.819124014361374005e-22
6.024083520000000913e-03 1.808535816306795881e-22
6.032358360000000981e-03 1.795537284458232115e-22
6.040633200000001049e-03 1.780143942862826846e-22
6.048908040000000250e-03 1.762374750587954549e-22
6.057182880000000318e-03 1.742251786041042506e-22
6.065457720000001253e-03 1.719800061669735698e-22
6.073732560000001321e-03 1.695048096530471786e-22
6.082007400000001389e-03 1.668026986036610403e-22
6.090282240000001457e-03 1.638771350258178558e-22
6.098557080000001525e-03 1.607318433950770611e-22
6.106831920000000725e-03 1.573708601372399823e-22
6.115106760000000793e-03 1.537985190210527577e-22
6.123381600000000861e-03 1.500194145362653523e-22
6.131656440000000929e-03 1.460384664872793293e-22
6.139931280000000997e-03 1.418608278050828506e-22
6.148206120000001065e-03 1.374919650459718767e-22
6.156480960000000266e-03 1.329375861811956710e-22
6.164755800000000334e-03 1.282036639462550660e-22
6.173030640000001269e-03 1.232964351693980241e-22
6.181305480000001337e-03 1.182223490969798755e-22
6.189580320000001405e-03 1.129881242943427354e-22
6.197855160000001473e-03 1.076006673380309538e-22
6.206130000000001541e-03 1.020671253321069198e-22
6.214404840000000742e-03 9.639483998958838841e-23
6.222679680000000810e-03 9.059134623360229250e-23
6.230954520000000878e-03 8.466438541316131259e-23
6.239229360000000946e-03 7.862185184895907466e-23
6.247504200000001014e-03 7.247183610692000011e-23
6.255779040000001082e-03 6.622256330335362222e-23
6.264053880000000282e-03 5.988241647666170095e-23
6.272328720000000350e-03 5.345990870644151398e-23
6.280603560000001286e-03 4.696366573844206736e-23
6.288878400000001354e-03 4.040243386762740046e-23
6.297153240000001422e-03 3.378503955046707765e-23
6.305428080000001489e-03 2.712040577883071723e-23
6.313702920000001557e-03 2.041751860918055855e-23
6.321977760000000758e-03 1.368542813803348787e-23
6.330252600000000826e-03 6.933233781473722721e-24
6.338527440000000894e-03 1.700691032636346343e-25
6.346802280000000962e-03 -6.594903895965997807e-24
6.355077120000001030e-03 -1.335251424572410563e-23
6.363351960000001098e-03 -2.009358954683799723e-23
6.371626800000000299e-03 -2.680897522524161463e-23
6.379901640000000367e-03 -3.348954042331066929e-23
6.388176480000001302e-03 -4.012620360356867187e-23
6.396451320000001370e-03 -4.670992914225321223e-23
6.404726160000001438e-03 -5.323175841527704141e-23
6.413001000000001506e-03 -5.968280587043139481e-23
6.421275840000001574e-03 -6.605427733762114292e-23
6.429550680000000774e-03 -7.233748778514021837e-23
6.437825520000000842e-03 -7.852385106692098542e-23
6.446100360000000910e-03 -8.460492612896327790e-23
6.454375200000000978e-03 -9.057238980268238320e-23
6.462650040000001046e-03 -9.641808300437895388e-23
6.470924880000001114e-03 -1.021340052244674417e-22
6.479199720000000315e-03 -1.077123203000616883e-22
6.487474560000000383e-03 -1.131453993762000637e-22
6.495749400000001318e-03 -1.184257796513765643e-22
6.504024240000001386e-03 -1.235462345550970590e-22
6.512299080000001454e-03 -1.284997312222914748e-22
6.520573920000001522e-03 -1.332794679599194851e-22
6.528848760000001590e-03 -1.378788881350049054e-22
6.537123600000000791e-03 -1.422916493366948645e-22
6.545398440000000859e-03 -1.465116978824746448e-22
6.553673280000000927e-03 -1.505332019725944667e-22
6.561948120000000995e-03 -1.543506232845600179e-22
6.570222960000001063e-03 -1.579586922225312513e-22
6.578497800000001131e-03 -1.613524081667181106e-22
6.586772640000000331e-03 -1.645270976078161733e-22
6.595047480000000399e-03 -1.674783423831008648e-22
6.603322320000001334e-03 -1.702020749436286058e-22
6.611597160000001402e-03 -1.726945113624990313e-22
6.619872000000001470e-03 -1.749521907395326571e-22
6.628146840000001538e-03 -1.769719921546816724e-22
6.636421680000001606e-03 -1.787510797714270720e-22
6.644696520000000807e-03 -1.802869961778310274e-22
6.652971360000000875e-03 -1.815775724828525419e-22
6.661246200000000943e-03 -1.826210038225336818e-22
6.669521040000001011e-03 -1.834158248394220231e-22
6.677795880000001079e-03 -1.839608885323991605e-22
6.686070720000001147e-03 -1.842554375708623362e-22
6.694345560000000347e-03 -1.842990087399519318e-22
6.702620400000000415e-03 -1.840915267903559604e-22
6.710895240000001351e-03 -1.836332384598151511e-22
6.719170080000001419e-03 -1.829247293785959064e-22
6.727444920000001487e-03 -1.819669586606612600e-22
6.735719760000001555e-03 -1.807611806494475945e-22
6.743994600000001623e-03 -1.793090398033534315e-22
6.752269440000000823e-03 -1.776124798195118102e-22
6.760544280000000891e-03 -1.756737915892197373e-22
6.768819120000000959e-03 -1.734956055671353349e-22
6.777093960000001027e-03 -1.710808415914244131e-22
6.785368800000001095e-03 -1.684327845130241343e-22
6.793643640000001163e-03 -1.655549907205354545e-22
6.801918480000000364e-03 -1.624513543907310298e-22
6.810193320000000432e-03 -1.591260696475549072e-22
6.818468160000001367e-03 -1.555836112513457841e-22
6.826743000000001435e-03 -1.518287832991986238e-22
6.835017840000001503e-03 -1.478666359916159730e-22
6.843292680000001571e-03 -1.437025355052820567e-22
6.851567520000001639e-03 -1.393421069601751333e-22
6.859842360000000840e-03 -1.347912413074911362e-22
6.868117200000000908e-03 -1.300561175769849646e-22
6.876392040000000976e-03 -1.251431366947850127e-22
6.884666880000001044e-03 -1.200589826142116134e-22
6.892941720000001112e-03 -1.148105518773758460e-22
6.901216560000001179e-03 -1.094049739650032390e-22
6.909491400000000380e-03 -1.038496010711938918e-22
6.917766240000000448e-03 -9.815196367284564311e-23
6.926041080000001383e-03 -9.231980728698098487e-23
6.934315920000001451e-03 -8.636103007811404972e-23
6.942590760000001519e-03 -8.028370485022476955e-23
6.950865600000001587e-03 -7.409605436941828934e-23
6.959140440000001655e-03 -6.780642830483572018e-23
6.967415280000000856e-03 -6.142331905123869667e-23
6.975690120000000924e-03 -5.495531944567939366e-23
6.983964960000000992e-03 -4.841114104656496996e-23
6.992239800000001060e-03 -4.179959367292521538e-23
7.000514640000001128e-03 -3.512957704751845205e-23
7.008789480000001196e-03 -2.841008963027835450e-23
7.017064320000000396e-03 -2.165019938717518099e-23
7.025339160000000464e-03 -1.485905609618189475e-23
7.033614000000001400e-03 -8.045866503814404431e-24
7.041888840000001468e-03 -1.219889111792994023e-24
7.050163680000001536e-03 5.609575942955343300e-24
7.058438520000001604e-03 1.243320450347066104e-23
7.066713360000001672e-03 1.924165393397686318e-23
7.074988200000000872e-03 2.602558207976654432e-23
7.083263040000000940e-03 3.277565484891745106e-23
7.091537880000001008e-03 3.948257045018868899e-23
7.099812720000001076e-03 4.613706480425969070e-23
7.108087560000001144e-03 5.272994437736864110e-23
7.116362400000001212e-03 5.925209458034393431e-23
7.124637240000000413e-03 6.569449946500262845e-23
7.132912080000001348e-03 7.204827297334057620e-23
7.141186920000001416e-03 7.830464480970570402e-23
7.149461760000001484e-03 8.445501105325558918e-23
7.157736600000001552e-03 9.049090937506837766e-23
7.166011440000001620e-03 9.640404550726250228e-23
7.174286280000001688e-03 1.021863052831315538e-22
7.182561120000000889e-03 1.078297305901517024e-22
7.190835960000000956e-03 1.133265696530268133e-22
7.199110800000001024e-03 1.186692377537442611e-22
7.207385640000001092e-03 1.238503507543173256e-22
7.215660480000001160e-03 1.288627330227592712e-22
7.223935320000001228e-03 1.336993956722316313e-22
7.232210160000000429e-03 1.383535990688334907e-22
7.240485000000001364e-03 1.428188098498692133e-22
7.248759840000001432e-03 1.470887506690528652e-22
7.257034680000001500e-03 1.511574116706551804e-22
7.265309520000001568e-03 1.550190284748595821e-22
7.273584360000001636e-03 1.586681626327341162e-22
7.281859200000001704e-03 1.620996405606358752e-22
7.290134040000000905e-03 1.653086173439358769e-22
7.298408880000000973e-03 1.682905711095274682e-22
7.306683720000001041e-03 1.710412732786994687e-22
7.314958560000001109e-03 1.735568607485439999e-22
7.323233400000001177e-03 1.758337531336668958e-22
7.331508240000000377e-03 1.778687117261324965e-22
7.339783080000000445e-03 1.796588156414206617e-22
7.348057920000001381e-03 1.812014323497429759e-22
7.356332760000001449e-03 1.824942829990639580e-22
7.364607600000001517e-03 1.835353683048700911e-22
7.372882440000001585e-03 1.843230323191058506e-22
7.381157280000001653e-03 1.848559544347740234e-22
7.389432120000001721e-03 1.851331254098561897e-22
7.397706960000000921e-03 1.851539336631336954e-22
7.405981800000000989e-03 1.849180879987999736e-22
7.414256640000001057e-03 1.844256923676905381e-22
7.422531480000001125e-03 1.836772312488487308e-22
7.430806320000001193e-03 1.826735345131241382e-22
7.439081160000000394e-03 1.814158534041804174e-22
7.447356000000000462e-03 1.799057619591430489e-22
7.455630840000001397e-03 1.781452149580931134e-22
7.463905680000001465e-03 1.761365149238845853e-22
7.472180520000001533e-03 1.738822712511507584e-22
7.480455360000001601e-03 1.713854594663096538e-22
7.488730200000001669e-03 1.686493392218168622e-22
7.497005040000001737e-03 1.656775041866604332e-22
7.505279880000000937e-03 1.624738729832668469e-22
7.513554720000001005e-03 1.590426527844366984e-22
7.521829560000001073e-03 1.553884127822241423e-22
7.530104400000001141e-03 1.515160101015107861e-22
7.538379240000001209e-03 1.474306365679517348e-22
7.546654080000000410e-03 1.431378099544316594e-22
7.554928920000000478e-03 1.386433250236313841e-22
7.563203760000001413e-03 1.339533095081072904e-22
7.571478600000001481e-03 1.290741424161392413e-22
7.579753440000001549e-03 1.240124775683925845e-22
7.588028280000001617e-03 1.187752263934996782e-22
7.596303120000001685e-03 1.133695101992968083e-22
7.604577960000001753e-03 1.078026986154230172e-22
7.612852800000000954e-03 1.020823551387383874e-22
7.621127640000001022e-03 9.621625175680908762e-23
7.629402480000001090e-03 9.021237554545506328e-23
7.637677320000001158e-03 8.407888980090622861e-23
7.645952160000001226e-03 7.782417610942783569e-23
7.654227000000000426e-03 7.145679196822584630e-23
7.662501840000000494e-03 6.498547521872640413e-23
7.670776680000001430e-03 5.841914562966626894e-23
7.679051520000001498e-03 5.176685945450459221e-23
7.687326360000001566e-03 4.503782713839302704e-23
7.695601200000001633e-03 3.824137140904824958e-23
7.703876040000001701e-03 3.138691808308152497e-23
7.712150880000001769e-03 2.448398851037817588e-23
7.720425720000000970e-03 1.754217037326942346e-23
7.728700560000001038e-03 1.057112168037041462e-23
7.736975400000001106e-03 3.580551944051672499e-24
7.745250240000001174e-03 -3.419785551983885196e-24
7.753525080000001242e-03 -1.042009725051467889e-23
7.761799920000000443e-03 -1.741056632880880991e-23
7.770074760000000511e-03 -2.438135635555588308e-23
7.778349600000001446e-03 -3.132262899782729317e-23
7.786624440000001514e-03 -3.822455250180302130e-23
7.794899280000001582e-03 -4.507732216186328089e-23
7.803174120000001650e-03 -5.187117190860104295e-23
7.811448960000001718e-03 -5.859639037810740472e-23
7.819723800000000918e-03 -6.524334624932803293e-23
7.827998640000001854e-03 -7.180248686640061763e-23
7.836273480000001054e-03 -7.826437579129070125e-23
7.844548320000001990e-03 -8.461969051627745011e-23
7.852823160000001190e-03 -9.085923674973630022e-23
7.861098000000000391e-03 -9.697397754328378605e-23
7.869372840000001326e-03 -1.029550125515358999e-22
7.877647680000000527e-03 -1.087936191366067425e-22
7.885922520000001462e-03 -1.144812449848767131e-22
7.894197360000002398e-03 -1.200095101610325412e-22
7.902472200000001598e-03 -1.253702521595301022e-22
7.910747040000000799e-03 -1.305554976389392467e-22
7.919021880000001734e-03 -1.355575102097838206e-22
7.927296720000000935e-03 -1.403688044755336892e-22
7.935571560000001870e-03 -1.449821313393193309e-22
7.943846400000001071e-03 -1.493905505754053676e-22
7.952121240000002006e-03 -1.535873886938140375e-22
7.960396080000001207e-03 -1.575662760640968031e-22
7.968670920000000407e-03 -1.613211712684309724e-22
7.976945760000001343e-03 -1.648463145982081491e-22
7.985220600000000543e-03 -1.681362991590426846e-22
7.993495440000001478e-03 -1.711860299995383733e-22
8.001770280000002414e-03 -1.739907322241563890e-22
8.010045120000001614e-03 -1.765460024434241408e-22
8.018319960000000815e-03 -1.788477467170854188e-22
8.026594800000001750e-03 -1.808922468892905373e-22
8.034869640000000951e-03 -1.826761460577002534e-22
8.043144480000001886e-03 -1.841964228478153387e-22
8.051419320000001087e-03 -1.854504659223367128e-22
8.059694160000002022e-03 -1.864360062173230067e-22
8.067969000000001223e-03 -1.871511590206650531e-22
8.076243840000000423e-03 -1.875944445600748540e-22
8.084518680000001359e-03 -1.877647304053244936e-22
8.092793520000000559e-03 -1.876613121749777639e-22
8.101068360000001495e-03 -1.872838611112764178e-22
8.109343200000002430e-03 -1.866324255411264326e-22
8.117618040000001631e-03 -1.857074823956940646e-22
8.125892880000000831e-03 -1.845098594563745497e-22
8.134167720000001767e-03 -1.830407954553443157e-22
8.142442560000000967e-03 -1.813019245214738286e-22
8.150717400000001903e-03 -1.792952367192344025e-22
8.158992240000001103e-03 -1.770231523254052198e-22
8.167267080000002039e-03 -1.744884521687902951e-22
8.175541920000001239e-03 -1.716943024020752958e-22
8.183816760000000440e-03 -1.686442806142324852e-22
8.192091600000001375e-03 -1.653423059999612873e-22
8.200366440000000576e-03 -1.617927037680379476e-22
8.208641280000001511e-03 -1.580001649897058810e-22
8.216916120000002446e-03 -1.539697246188035215e-22
8.225190960000001647e-03 -1.497068166616580134e-22
8.233465800000000848e-03 -1.452172010031070433e-22
8.241740640000001783e-03 -1.405069967529642670e-22
8.250015480000000984e-03 -1.355826855391003656e-22
8.258290320000001919e-03 -1.304510551904260995e-22
8.266565160000001120e-03 -1.251192550745561040e-22
8.274840000000002055e-03 -1.195947456378385905e-22
8.283114840000001255e-03 -1.138852871110531619e-22
8.291389680000000456e-03 -1.079989710773190096e-22
8.299664520000001391e-03 -1.019441530165951308e-22
8.307939360000000592e-03 -9.572947854059948885e-23
8.316214200000001527e-03 -8.936386771654985194e-23
8.324489040000002463e-03 -8.285647139450140224e-23
8.332763879999999929e-03 -7.621670330625714048e-23
8.341038720000000864e-03 -6.945419243770708570e-23
8.349313560000000065e-03 -6.257877434462324066e-23
8.357588400000001000e-03 -5.560050053042025831e-23
8.365863240000000201e-03 -4.852958871726137914e-23
8.374138080000001136e-03 -4.137643377719559130e-23
8.382412920000000336e-03 -3.415158584469680397e-23
8.390687760000001272e-03 -2.686572023442870057e-23
8.398962600000000472e-03 -1.952964373029342317e-23
8.407237440000001408e-03 -1.215425955996034151e-23
8.415512280000000608e-03 -4.750557144230373381e-24
8.423787120000001544e-03 2.670396868217946934e-24
8.432061960000002479e-03 1.009748443614360022e-23
8.440336799999999945e-03 1.751954032073244270e-23
8.448611640000000880e-03 2.492536889275938874e-23
8.456886480000000081e-03 3.230375668238822566e-23
8.465161320000001016e-03 3.964348200851953225e-23
8.473436160000000217e-03 4.693333173188167379e-23
8.481711000000001152e-03 5.416211016562237458e-23
8.489985840000000353e-03 6.131866216023624771e-23
8.498260680000001288e-03 6.839188510507805279e-23
8.506535520000000489e-03 7.537074850690647508e-23
8.514810360000001424e-03 8.224432572758896662e-23
8.523085200000000625e-03 8.900179664169153613e-23
8.531360040000001560e-03 9.563248808659611637e-23
8.539634880000002495e-03 1.021258886910881800e-22
8.547909719999999961e-03 1.084716515738189615e-22
8.556184560000000897e-03 1.146596432156037270e-22
8.564459400000000097e-03 1.206799266445741293e-22
8.572734240000001033e-03 1.265227809606520031e-22
8.581009080000000233e-03 1.321787319431379577e-22
8.589283920000001168e-03 1.376385231837325063e-22
8.597558760000000369e-03 1.428931564375184228e-22
8.605833600000001304e-03 1.479338985419942648e-22
8.614108440000000505e-03 1.527522657012119257e-22
8.622383280000001440e-03 1.573400849207704403e-22
8.630658120000000641e-03 1.616894815861037280e-22
8.638932960000001576e-03 1.657928922261741550e-22
8.647207800000002512e-03 1.696431349064143277e-22
8.655482639999999978e-03 1.732333745618314239e-22
8.663757480000000913e-03 1.765571728516349993e-22
8.672032320000000113e-03 1.796085297647373610e-22
8.680307160000001049e-03 1.823818383977184583e-22
8.688582000000000249e-03 1.848719608679136680e-22
8.696856840000001185e-03 1.870742128056454442e-22
8.705131680000000385e-03 1.889843344047403545e-22
8.713406520000001321e-03 1.905985648799463517e-22
8.721681360000000521e-03 1.919135824839200755e-22
8.729956200000001457e-03 1.929265125423593475e-22
8.738231040000000657e-03 1.936349805886158042e-22
8.746505880000001593e-03 1.940370450995270141e-22
8.754780720000002528e-03 1.941312455847064052e-22
8.763055559999999994e-03 1.939166283081053876e-22
8.771330400000000929e-03 1.933926913166489503e-22
8.779605240000000130e-03 1.925594627002385433e-22
8.787880080000001065e-03 1.914174821861855459e-22
8.796154920000000266e-03 1.899677673010449218e-22
8.804429760000001201e-03 1.882118929222085065e-22
8.812704600000000402e-03 1.861519254906740709e-22
8.820979440000001337e-03 1.837904212612697651e-22
8.829254280000000538e-03 1.811304779159942011e-22
8.837529120000001473e-03 1.781756532302130628e-22
8.845803959999998939e-03 1.749299956376828725e-22
8.854078800000001609e-03 1.713980621271914514e-22
8.862353640000002544e-03 1.675848485704499982e-22
8.870628480000000010e-03 1.634958426766459413e-22
8.878903320000000945e-03 1.591370065727442887e-22
8.887178160000000146e-03 1.545147273460350996e-22
8.895453000000001081e-03 1.496358745745562836e-22
8.903727840000000282e-03 1.445077493869881442e-22
8.912002680000001217e-03 1.391380605184989702e-22
8.920277520000000418e-03 1.335349696018568481e-22
8.928552360000001353e-03 1.277070243471600442e-22
8.936827200000000554e-03 1.216631602261162254e-22
8.945102040000001489e-03 1.154127244694256501e-22
8.953376879999998955e-03 1.089654099941964161e-22
8.961651720000001625e-03 1.023312740677857803e-22
8.969926560000002561e-03 9.552073548068320601e-23
8.978201400000000026e-03 8.854451832066879231e-23
8.986476240000000962e-03 8.141367578012937209e-23
8.994751080000000162e-03 7.413956295254929788e-23
9.003025920000001098e-03 6.673379586785556961e-23
9.011300760000000298e-03 5.920827034608746809e-23
9.019575600000001234e-03 5.157511988869249351e-23
9.027850440000000434e-03 4.384668994735500555e-23
9.036125280000001370e-03 3.603554487906732337e-23
9.044400120000000570e-03 2.815442227580686214e-23
9.052674960000001506e-03 2.021621830363568995e-23
9.060949799999998971e-03 1.223398048198553231e-23
9.069224640000001642e-03 4.220867391724870103e-24
9.077499480000002577e-03 -3.809862131163892498e-24
9.085774320000000043e-03 -1.184486992566776349e-23
9.094049160000000978e-03 -1.987077008315403135e-23
9.102324000000000179e-03 -2.787414397387878359e-23
9.110598840000001114e-03 -3.584157075383724969e-23
9.118873680000000315e-03 -4.375964825697338890e-23
9.127148520000001250e-03 -5.161501688430439460e-23
9.135423360000000451e-03 -5.939438923554886308e-23
9.143698200000001386e-03 -6.708456122636649136e-23
9.151973040000000587e-03 -7.467244528603710536e-23
9.160247880000001522e-03 -8.214509148501850274e-23
9.168522719999998988e-03 -8.948969436645159090e-23
9.176797560000001658e-03 -9.669363564094205154e-23
9.185072400000002593e-03 -1.037444945327736102e-22
9.193347240000000059e-03 -1.106300560962977380e-22
9.201622080000000994e-03 -1.173383622791093822e-22
9.209896920000000195e-03 -1.238577097447412926e-22
9.218171760000001130e-03 -1.301766639494822577e-22
9.226446600000000331e-03 -1.362841141691475758e-22
9.234721440000001266e-03 -1.421692582317447439e-22
9.242996280000000467e-03 -1.478216250327808635e-22
9.251271120000001402e-03 -1.532311271046820488e-22
9.259545960000000603e-03 -1.583880338072313730e-22
9.267820800000001538e-03 -1.632830032514508668e-22
9.276095639999999004e-03 -1.679071269159068341e-22
9.284370480000001674e-03 -1.722518952745524411e-22
9.292645320000002609e-03 -1.763092395947732178e-22
9.300920160000000075e-03 -1.800715663891097088e-22
9.309195000000001011e-03 -1.835317198586733111e-22
9.317469840000000211e-03 -1.866830335377419997e-22
9.325744680000001147e-03 -1.895193531122423962e-22
9.334019520000000347e-03 -1.920349982420573618e-22
9.342294360000001283e-03 -1.942248225222661887e-22
9.350569200000000483e-03 -1.960842230043912677e-22
9.358844040000001419e-03 -1.976091032819096834e-22
9.367118880000000619e-03 -1.987959395648003367e-22
9.375393720000001554e-03 -1.996417766415796021e-22
9.383668559999999020e-03 -2.001441937666148052e-22
9.391943400000001690e-03 -2.003013745373253456e-22
9.400218240000002626e-03 -2.001120898469361632e-22
9.408493080000000092e-03 -1.995756674528945161e-22
9.416767920000001027e-03 -1.986920633063854638e-22
9.425042760000000228e-03 -1.974618330599120228e-22
9.433317600000001163e-03 -1.958861058247972999e-22
9.441592440000000364e-03 -1.939666550994301676e-22
9.449867280000001299e-03 -1.917058602793471925e-22
9.458142120000000500e-03 -1.891066837571031736e-22
9.466416960000001435e-03 -1.861727382066453262e-22
9.474691800000000635e-03 -1.829082380804689723e-22
9.482966640000001571e-03 -1.793179785204924559e-22
9.491241479999999037e-03 -1.754073955820237321e-22
9.499516320000001707e-03 -1.711825103764452899e-22
9.507791160000002642e-03 -1.666499096764454737e-22
9.516066000000000108e-03 -1.618167988655665039e-22
9.524340840000001043e-03 -1.566909424428836028e-22
9.532615680000000244e-03 -1.512806456759039774e-22
9.540890520000001179e-03 -1.455947993237008503e-22
9.549165360000000380e-03 -1.396428172431647382e-22
9.557440200000001315e-03 -1.334346171894599812e-22
9.565715040000000516e-03 -1.269806550426561647e-22
9.573989880000001451e-03 -1.202918610466309216e-22
9.582264720000000652e-03 -1.133796190025220992e-22
9.590539560000001587e-03 -1.062557898671512004e-22
9.598814399999999053e-03 -9.893264954960232567e-23
9.607089240000001723e-03 -9.142286666301602490e-23
9.615364080000002658e-03 -8.373951634159383531e-23
9.623638920000000124e-03 -7.589602208788678175e-23
9.631913760000001060e-03 -6.790613271001192722e-23
9.640188600000000260e-03 -5.978392790471544240e-23
9.648463440000001196e-03 -5.154376622092495130e-23
9.656738280000000396e-03 -4.320026171375795405e-23
9.665013120000001332e-03 -3.476828183995205895e-23
9.673287960000000532e-03 -2.626290044819925172e-23
9.681562800000001467e-03 -1.769937319172502300e-23
9.689837640000000668e-03 -9.093125564971152264e-24
9.698112480000001603e-03 -4.597096550355586980e-25
9.706387319999999069e-03 8.185221082443452486e-24
9.714662160000001739e-03 1.682593313746802263e-23
9.722937000000002675e-03 2.544665051608745948e-23
9.731211840000000141e-03 3.403157824481427469e-23
9.739486680000001076e-03 4.256493111905269795e-23
9.747761520000000277e-03 5.103096660433078694e-23
9.756036360000001212e-03 5.941400616805158940e-23
9.764311200000000412e-03 6.769847238724863239e-23
9.772586040000001348e-03 7.586892048258897126e-23
9.780860880000000548e-03 8.391005664737407334e-23
9.789135720000001484e-03 9.180678317020098001e-23
9.797410560000000684e-03 9.954422961882289877e-23
9.805685400000001620e-03 1.071077651598953891e-22
9.813960239999999086e-03 1.144830482598313115e-22
9.822235080000001756e-03 1.216560574804192391e-22
9.830509920000002691e-03 1.286130945490658494e-22
9.838784760000000157e-03 1.353408343005639852e-22
9.847059600000001092e-03 1.418263571179506745e-22
9.855334440000000293e-03 1.480571427615351259e-22
9.863609280000001228e-03 1.540211192496382110e-22
9.871884120000000429e-03 1.597067041309407414e-22
9.880158960000001364e-03 1.651027920353262161e-22
9.888433800000000565e-03 1.701988025098488481e-22
9.896708640000001500e-03 1.749847341453295873e-22
9.904983480000000701e-03 1.794511429902618113e-22
9.913258320000001636e-03 1.835891820182912352e-22
9.921533160000002571e-03 1.873906610263066425e-22
9.929808000000001772e-03 1.908480104803305102e-22
9.938082840000002707e-03 1.939543036426174303e-22
9.946357680000000173e-03 1.967033159847633081e-22
9.954632520000001109e-03 1.990894794605435437e-22
9.962907360000000309e-03 2.011078870189645841e-22
9.971182200000001244e-03 2.027543522289724011e-22
9.979457040000000445e-03 2.040253664893867832e-22
9.987731880000001380e-03 2.049180898532158942e-22
9.996006720000000581e-03 2.054304117331824367e-22
1.000428156000000152e-02 2.055609212783066197e-22
1.001255640000000072e-02 2.053088857773851208e-22
1.002083124000000165e-02 2.046743082330615424e-22
1.002910608000000259e-02 2.036579129322738358e-22
1.003738092000000179e-02 2.022611081646543560e-22
1.004565576000000272e-02 2.004860306560921437e-22
1.005393060000000019e-02 1.983355436573970018e-22
1.006220544000000112e-02 1.958131839461906505e-22
1.007048028000000033e-02 1.929231878432363310e-22
1.007875512000000126e-02 1.896705039350131518e-22
1.008702996000000046e-02 1.860607326295600366e-22
1.009530480000000140e-02 1.821001354840382326e-22
1.010357964000000233e-02 1.777956620269044450e-22
1.011185448000000153e-02 1.731548887058759984e-22
1.012012932000000247e-02 1.681860115879162804e-22
1.012840416000000167e-02 1.628978777100199156e-22
1.013667900000000260e-02 1.572999303565517933e-22
1.014495384000000180e-02 1.514021861646131122e-22
1.015322868000000274e-02 1.452152625567750732e-22
1.016150352000000021e-02 1.387503379234452748e-22
1.016977836000000114e-02 1.320191150146083769e-22
1.017805320000000034e-02 1.250338378323008413e-22
1.018632804000000128e-02 1.178072670584410257e-22
1.019460288000000221e-02 1.103526310717527852e-22
1.020287772000000141e-02 1.026836267445242301e-22
1.021115256000000235e-02 9.481440562695142118e-23
1.021942740000000155e-02 8.675951804735249419e-23
1.022770224000000248e-02 7.853389851184585973e-23
1.023597708000000168e-02 7.015285678038669764e-23
1.024425192000000262e-02 6.163202318661633870e-23
1.025252676000000182e-02 5.298732288786134829e-23
1.026080160000000276e-02 4.423496440625381054e-23
1.026907644000000022e-02 3.539139310690308534e-23
1.027735128000000116e-02 2.647325842980107309e-23
1.028562612000000036e-02 1.749739622051291606e-23
1.029390096000000129e-02 8.480790578564904993e-24
1.030217580000000223e-02 -5.594625299071409635e-25
1.031045064000000143e-02 -9.606179852154761635e-24
1.031872548000000236e-02 -1.864212742871322874e-23
1.032700032000000157e-02 -2.765005727963113062e-23
1.033527516000000250e-02 -3.661273595416649715e-23
1.034355000000000170e-02 -4.551298456600950614e-23
1.035182484000000264e-02 -5.433371164041938949e-23
1.036009968000000184e-02 -6.305793959737934230e-23
1.036837452000000277e-02 -7.166884669270130339e-23
1.037664936000000024e-02 -8.014979801814242753e-23
1.038492420000000117e-02 -8.848436544953135903e-23
1.039319904000000037e-02 -9.665636699049021512e-23
1.040147388000000131e-02 -1.046499040683033988e-22
1.040974872000000225e-02 -1.124493731057659541e-22
1.041802356000000145e-02 -1.200394970402363373e-22
1.042629840000000238e-02 -1.274053733314349979e-22
1.043457324000000158e-02 -1.345324797380682160e-22
1.044284808000000252e-02 -1.414066949871913363e-22
1.045112292000000172e-02 -1.480143523734770134e-22
1.045939776000000265e-02 -1.543422530456782901e-22
1.046767260000000185e-02 -1.603776752337362031e-22
1.047594744000000279e-02 -1.661084243895350924e-22
1.048422228000000025e-02 -1.715228699442636640e-22
1.049249712000000119e-02 -1.766099428779967475e-22
1.050077196000000039e-02 -1.813591721227136956e-22
1.050904680000000133e-02 -1.857607436243105768e-22
1.051732164000000226e-02 -1.898054876917647910e-22
1.052559648000000146e-02 -1.934848919337216108e-22
1.053387132000000240e-02 -1.967911583590925102e-22
1.054214616000000160e-02 -1.997171976758175440e-22
1.055042100000000253e-02 -2.022566154600343626e-22
1.055869584000000173e-02 -2.044037502623478888e-22
1.056697068000000267e-02 -2.061536991979918261e-22
1.057524552000000187e-02 -2.075022897110373100e-22
1.058352036000000281e-02 -2.084460992244761389e-22
1.059179520000000027e-02 -2.089825114804113681e-22
1.060007004000000121e-02 -2.091096936421274326e-22
1.060834488000000041e-02 -2.088265951288103726e-22
1.061661972000000134e-02 -2.081329989733841798e-22
1.062489456000000228e-02 -2.070295244292451519e-22
1.063316940000000148e-02 -2.055175952992591264e-22
1.064144424000000241e-02 -2.035994607124415066e-22
1.064971908000000161e-02 -2.012782258767259304e-22
1.065799392000000255e-02 -1.985578026478285223e-22
1.066626876000000175e-02 -1.954429008521417275e-22
1.067454360000000269e-02 -1.919390629176022078e-22
1.068281844000000189e-02 -1.880526332349747001e-22
1.069109328000000282e-02 -1.837907230465128655e-22
1.069936812000000029e-02 -1.791612240345436461e-22
1.070764296000000122e-02 -1.741728136534767735e-22
1.071591780000000042e-02 -1.688349004549427113e-22
1.072419264000000136e-02 -1.631576112310421405e-22
1.073246748000000229e-02 -1.571518081654606788e-22
1.074074232000000149e-02 -1.508290414852270490e-22
1.074901716000000243e-02 -1.442015115010720995e-22
1.075729200000000163e-02 -1.372820677521189196e-22
1.076556684000000257e-02 -1.300841909036916039e-22
1.077384168000000177e-02 -1.226219357343609599e-22
1.078211652000000270e-02 -1.149099091509252196e-22
1.079039136000000190e-02 -1.069632657225803538e-22
1.079866620000000284e-02 -9.879765555097227372e-23
1.080694104000000030e-02 -9.042918516306210579e-23
1.081521588000000124e-02 -8.187440193011196498e-23
1.082349072000000044e-02 -7.315026352861254263e-23
1.083176556000000137e-02 -6.427408518109364137e-23
1.084004040000000231e-02 -5.526351017325774635e-23
1.084831524000000151e-02 -4.613648669433608215e-23
1.085659008000000245e-02 -3.691121821926330267e-23
1.086486492000000165e-02 -2.760612447661979094e-23
1.087313976000000258e-02 -1.823981293366900389e-23
1.088141460000000178e-02 -8.831041643482480894e-24
1.088968944000000272e-02 6.013236305630264856e-25
1.089796428000000192e-02 1.003834091024215532e-23
1.090623912000000285e-02 1.946102646074651483e-23
1.091451396000000032e-02 2.885039587777399770e-23
1.092278880000000126e-02 3.818749819268541847e-23
1.093106364000000046e-02 4.745345120185099325e-23
1.093933848000000139e-02 5.662948613431488851e-23
1.094761332000000233e-02 6.569698213707573144e-23
1.095588816000000153e-02 7.463749911487962397e-23
1.096416300000000246e-02 8.343282344658728443e-23
1.097243784000000166e-02 9.206500804555201944e-23
1.098071268000000260e-02 1.005163986021058826e-22
1.098898752000000180e-02 1.087696696127515805e-22
1.099726236000000273e-02 1.168078767960919533e-22
1.100553720000000194e-02 1.246144806658256151e-22
1.101381204000000287e-02 1.321733720647144490e-22
1.102208688000000034e-02 1.394689172677643062e-22
1.103036172000000127e-02 1.464860013369863045e-22
1.103863656000000047e-02 1.532100391601359382e-22
1.104691140000000141e-02 1.596270028791584729e-22
1.105518624000000234e-02 1.657234747616945563e-22
1.106346108000000154e-02 1.714866675573250595e-22
1.107173592000000248e-02 1.769044349334155667e-22
1.108001076000000168e-02 1.819653056898986737e-22
1.108828560000000261e-02 1.866585369206070403e-22
1.109656044000000182e-02 1.909741145827239263e-22
1.110483528000000275e-02 1.949027677492506225e-22
1.111311012000000195e-02 1.984360102135999538e-22
1.112138496000000289e-02 2.015661704128504641e-22
1.112965980000000035e-02 2.042863770168799221e-22
1.113793464000000129e-02 2.065905703709396612e-22
1.114620948000000049e-02 2.084735425094362724e-22
1.115448432000000142e-02 2.099309348136905556e-22
1.116275916000000236e-02 2.109592230995670967e-22
1.117103400000000156e-02 2.115557306087092345e-22
1.117930884000000250e-02 2.117186633561988442e-22
1.118758368000000170e-02 2.114470873218961111e-22
1.119585852000000263e-02 2.107409192080481939e-22
1.120413336000000183e-02 2.096009433573593446e-22
1.121240820000000277e-02 2.080288316373975824e-22
1.122068304000000197e-02 2.060271108269527112e-22
1.122895788000000290e-02 2.035991558952342838e-22
1.123723272000000037e-02 2.007492087810258734e-22
1.124550756000000130e-02 1.974823767596354710e-22
1.125378240000000050e-02 1.938045978412056164e-22
1.126205724000000144e-02 1.897226328349523056e-22
1.127033208000000238e-02 1.852440804306816216e-22
1.127860692000000158e-02 1.803773548032661676e-22
1.128688176000000251e-02 1.751316534751172035e-22
1.129515660000000171e-02 1.695169486249074976e-22
1.130343144000000265e-02 1.635439971908319531e-22
1.131170628000000185e-02 1.572243073918197217e-22
1.131998112000000278e-02 1.505701114241970004e-22
1.132825596000000198e-02 1.435943561817820741e-22
1.133653080000000292e-02 1.363107039916321897e-22
1.134480564000000039e-02 1.287334902196014745e-22
1.135308048000000132e-02 1.208776949939906122e-22
1.136135532000000052e-02 1.127589283854806797e-22
1.136963016000000146e-02 1.043934161223375758e-22
1.137790500000000239e-02 9.579795125227494736e-23
1.138617984000000159e-02 8.698986248579110240e-23
1.139445468000000253e-02 7.798699248786862781e-23
1.140272952000000173e-02 6.880767045410566382e-23
1.141100436000000266e-02 5.947066265976398938e-23
1.141927920000000186e-02 4.999513804693836056e-23
1.142755404000000280e-02 4.040064012070578634e-23
1.143582888000000200e-02 3.070705019974340478e-23
1.144410372000000294e-02 2.093453846877872099e-23
1.145237856000000040e-02 1.110352582504352573e-23
1.146065340000000134e-02 1.234647507861586108e-24
1.146892824000000054e-02 -8.651292255154278854e-24
1.147720308000000147e-02 -1.853336917414222243e-23
1.148547792000000241e-02 -2.839058085242205026e-23
1.149375276000000161e-02 -3.820189054093198477e-23
1.150202760000000254e-02 -4.794627656346688189e-23
1.151030244000000174e-02 -5.760277763505713509e-23
1.151857728000000268e-02 -6.715053518592937403e-23
1.152685212000000188e-02 -7.656884061807144474e-23
1.153512696000000282e-02 -8.583718497639096220e-23
1.154340180000000202e-02 -9.493529863295442100e-23
1.155167664000000295e-02 -1.038431919577088469e-22
1.155995148000000042e-02 -1.125412033552906856e-22
1.156822632000000135e-02 -1.210100478484734659e-22
1.157650116000000055e-02 -1.292308500789229951e-22
1.158477600000000149e-02 -1.371851822756475163e-22
1.159305084000000242e-02 -1.448551114460349445e-22
1.160132568000000163e-02 -1.522232486462861942e-22
1.160960052000000256e-02 -1.592727765379131456e-22
1.161787536000000176e-02 -1.659874848837252669e-22
1.162615020000000270e-02 -1.723518151487253036e-22
1.163442504000000190e-02 -1.783509098638384662e-22
1.164269988000000283e-02 -1.839706311443546788e-22
1.165097472000000203e-02 -1.891975881559222022e-22
1.165924956000000297e-02 -1.940191722802618858e-22
1.166752440000000043e-02 -1.984236029633372185e-22
1.167579924000000137e-02 -2.023999388478034249e-22
1.168407408000000057e-02 -2.059380996567926383e-22
1.169234892000000151e-02 -2.090288975308286657e-22
1.170062376000000244e-02 -2.116640871330691313e-22
1.170889860000000164e-02 -2.138363808798399972e-22
1.171717344000000258e-02 -2.155394663263392234e-22
1.172544828000000178e-02 -2.167680320320515864e-22
1.173372312000000271e-02 -2.175178101968327154e-22
1.174199796000000191e-02 -2.177855877264621449e-22
1.175027280000000285e-02 -2.175692039787444748e-22
1.175854764000000205e-02 -2.168675607836653687e-22
1.176682248000000298e-02 -2.156806459535174776e-22
1.177509732000000045e-02 -2.140095447290282762e-22
1.178337216000000139e-02 -2.118564236217230215e-22
1.179164700000000059e-02 -2.092245318057937835e-22
1.179992184000000152e-02 -2.061182107032604673e-22
1.180819668000000246e-02 -2.025429101259132645e-22
1.181647152000000166e-02 -1.985051636421242457e-22
1.182474636000000259e-02 -1.940125773763354493e-22
1.183302120000000179e-02 -1.890738237050715561e-22
1.184129604000000273e-02 -1.836986481244343801e-22
1.184957088000000193e-02 -1.778978428602735704e-22
1.185784572000000286e-02 -1.716832176718302979e-22
1.186612056000000207e-02 -1.650675801838572979e-22
1.187439540000000300e-02 -1.580647242312964397e-22
1.188267024000000047e-02 -1.506894074622372898e-22
1.189094508000000140e-02 -1.429573048126250050e-22
1.189921992000000060e-02 -1.348849756867610758e-22
1.190749476000000154e-02 -1.264898331759272868e-22
1.191576960000000247e-02 -1.177901190480509964e-22
1.192404444000000167e-02 -1.088048518902611688e-22
1.193231928000000261e-02 -9.955378187625662943e-23
1.194059412000000181e-02 -9.005735063530684950e-23
1.194886896000000275e-02 -8.033665588657063578e-23
1.195714380000000195e-02 -7.041340676541028096e-23
1.196541864000000288e-02 -6.030986811507513359e-23
1.197369348000000208e-02 -5.004881351803624929e-23
1.198196832000000302e-02 -3.965347843990624684e-23
1.199024316000000048e-02 -2.914751425526898155e-23
1.199851800000000142e-02 -1.855492967670791843e-23
1.200679284000000062e-02 -7.900036411457836478e-24
1.201506768000000155e-02 2.792601912995302290e-24
1.202334252000000249e-02 1.349822045894457132e-23
1.203161736000000169e-02 2.419190714157361951e-23
1.203989220000000263e-02 3.484865922683298058e-23
1.204816704000000183e-02 4.544343645491579619e-23
1.205644188000000276e-02 5.595121477223061932e-23
1.206471672000000196e-02 6.634704370452041442e-23
1.207299156000000290e-02 7.660610622174202892e-23
1.208126640000000210e-02 8.670377520380670707e-23
1.208954124000000303e-02 9.661566986073206465e-23
1.209781608000000050e-02 1.063177128745191600e-22
1.210609092000000143e-02 1.157861932799611046e-22
1.211436576000000064e-02 1.249978223652050472e-22
1.212264060000000157e-02 1.339297861070885012e-22
1.213091544000000251e-02 1.425597992241226792e-22
1.213919028000000171e-02 1.508661611750942079e-22
1.214746512000000264e-02 1.588278196144950040e-22
1.215573996000000184e-02 1.664244200820190086e-22
1.216401480000000278e-02 1.736363568622522870e-22
1.217228964000000198e-02 1.804448257341957104e-22
1.218056448000000291e-02 1.868318793296464152e-22
1.218883932000000211e-02 1.927804878868102666e-22
1.219711416000000305e-02 1.982745785203904992e-22
1.220538900000000052e-02 2.032990767322352891e-22
1.221366384000000145e-02 2.078399480529979082e-22
1.222193868000000065e-02 2.118842417662347744e-22
1.223021352000000159e-02 2.154201400841027748e-22
1.223848836000000252e-02 2.184369847977481703e-22
1.224676320000000172e-02 2.209253098856598657e-22
1.225503804000000266e-02 2.228768757662544303e-22
1.226331288000000186e-02 2.242847049816370573e-22
1.227158772000000279e-02 2.251431235654182495e-22
1.227986256000000199e-02 2.254477749454261892e-22
1.228813740000000293e-02 2.251956351140455095e-22
1.229641224000000213e-02 2.243850276136277172e-22
1.230468708000000307e-02 2.230156365067229208e-22
1.231296192000000053e-02 2.210885264841669290e-22
1.232123676000000147e-02 2.186061409146151184e-22
1.232951160000000067e-02 2.155722990700533043e-22
1.233778644000000160e-02 2.119921979462418307e-22
1.234606128000000254e-02 2.078724121515761771e-22
1.235433612000000174e-02 2.032208994500496247e-22
1.236261096000000267e-02 1.980469927127558612e-22
1.237088580000000188e-02 1.923613785383354235e-22
1.237916064000000281e-02 1.861760814844937736e-22
1.238743548000000201e-02 1.795044453528853738e-22
1.239571032000000295e-02 1.723611149084533275e-22
1.240398516000000215e-02 1.647620177546749294e-22
1.241226000000000308e-02 1.567243263829444153e-22
1.242053484000000055e-02 1.482664253674510834e-22
1.242880968000000148e-02 1.394078779004606167e-22
1.243708452000000068e-02 1.301693894806679299e-22
1.244535936000000162e-02 1.205727735985500205e-22
1.245363420000000255e-02 1.106409054836159876e-22
1.246190904000000176e-02 1.003976686492525601e-22
1.247018388000000269e-02 8.986790473430371617e-23
1.247845872000000189e-02 7.907736088736423318e-23
1.248673356000000283e-02 6.805263551287225509e-23
1.249500840000000203e-02 5.682112419770435353e-23
1.250328324000000296e-02 4.541095444630454165e-23
1.251155808000000216e-02 3.385092093971474526e-23
1.251983292000000310e-02 2.217042065656795412e-23
1.252810776000000056e-02 1.039938528950123613e-23
1.253638260000000150e-02 -1.431788646010843982e-24
1.254465744000000070e-02 -1.329231289309644329e-23
1.255293228000000164e-02 -2.515108719544652338e-23
1.256120712000000257e-02 -3.697677858975746731e-23
1.256948196000000177e-02 -4.873790206137389254e-23
1.257775680000000271e-02 -6.040290307986933196e-23
1.258603164000000191e-02 -7.194024204127528616e-23
1.259430648000000284e-02 -8.331848189682620610e-23
1.260258132000000204e-02 -9.450637604201081422e-23
1.261085616000000298e-02 -1.054729558031966374e-22
1.261913100000000218e-02 -1.161876184568606919e-22
1.262740584000000311e-02 -1.266202153741141597e-22
1.263568068000000058e-02 -1.367411402147515115e-22
1.264395552000000152e-02 -1.465214195733932713e-22
1.265223036000000072e-02 -1.559327987452354787e-22
1.266050520000000165e-02 -1.649478244255010617e-22
1.266878004000000259e-02 -1.735399271375335099e-22
1.267705488000000179e-02 -1.816835020821768553e-22
1.268532972000000272e-02 -1.893539883936583798e-22
1.269360456000000192e-02 -1.965279494372505574e-22
1.270187940000000286e-02 -2.031831517010239563e-22
1.271015424000000206e-02 -2.092986345044885374e-22
1.271842908000000300e-02 -2.148547803894385778e-22
1.272670392000000220e-02 -2.198333831113021177e-22
1.273497876000000313e-02 -2.242177121864738082e-22
1.274325360000000060e-02 -2.279925736120666963e-22
1.275152844000000153e-02 -2.311443701759539397e-22
1.275980328000000073e-02 -2.336611523450686992e-22
1.276807812000000167e-02 -2.355326594782573790e-22
1.277635296000000260e-02 -2.367503598409976948e-22
1.278462780000000180e-02 -2.373074862440484860e-22
1.279290264000000274e-02 -2.371990677002454340e-22
1.280117748000000194e-02 -2.364219577676162904e-22
1.280945232000000288e-02 -2.349748634095001512e-22
1.281772716000000208e-02 -2.328583677061664625e-22
1.282600200000000301e-02 -2.300749441845823725e-22
1.283427684000000221e-02 -2.266289712665814702e-22
1.284255168000000315e-02 -2.225267423751944754e-22
1.285082652000000061e-02 -2.177764707993811692e-22
1.285910136000000155e-02 -2.123882888487508389e-22
1.286737620000000075e-02 -2.063742420785372540e-22
1.287565104000000168e-02 -1.997482798688173635e-22
1.288392588000000262e-02 -1.925262327999855831e-22
1.289220072000000182e-02 -1.847257867113815173e-22
1.290047556000000276e-02 -1.763664525964432672e-22
1.290875040000000196e-02 -1.674695309117902499e-22
1.291702524000000289e-02 -1.580580701811969055e-22
1.292530008000000209e-02 -1.481568196977782331e-22
1.293357492000000303e-02 -1.377921767836353543e-22
1.294184976000000223e-02 -1.269921288616104426e-22
1.295012460000000316e-02 -1.157861843331123932e-22
1.295839944000000063e-02 -1.042052991017356802e-22
1.296667428000000157e-02 -9.228179793838477895e-23
1.297494912000000077e-02 -8.004929017498358908e-23
1.298322396000000170e-02 -6.754258015842357229e-23
1.299149880000000264e-02 -5.479757287477462595e-23
1.299977364000000184e-02 -4.185117508738260954e-23
1.300804848000000277e-02 -2.874119271967155694e-23
1.301632332000000197e-02 -1.550622325641445840e-23
1.302459816000000291e-02 -2.185543400104008091e-24
1.303287300000000211e-02 1.118100569750787584e-23
1.304114784000000304e-02 2.455313634439773568e-23
1.304942268000000224e-02 3.789023498563024924e-23
1.305769752000000318e-02 5.115148514197000108e-23
1.306597236000000065e-02 6.429599209999611860e-23
1.307424720000000158e-02 7.728290886804547684e-23
1.308252204000000078e-02 9.007156300505833783e-23
1.309079688000000172e-02 1.026215842944226497e-22
1.309907172000000265e-02 1.148930319683658120e-22
1.310734656000000185e-02 1.268465211396319248e-22
1.311562140000000279e-02 1.384433484730118145e-22
1.312389624000000199e-02 1.496456167514466020e-22
1.313217108000000292e-02 1.604163581163679509e-22
1.314044592000000213e-02 1.707196558060678069e-22
1.314872076000000306e-02 1.805207642287090386e-22
1.315699560000000226e-02 1.897862271876540659e-22
1.316527044000000320e-02 1.984839940351364770e-22
1.317354528000000066e-02 2.065835337327267257e-22
1.318182012000000160e-02 2.140559467636371063e-22
1.319009496000000080e-02 2.208740724451478955e-22
1.319836980000000173e-02 2.270125930048866635e-22
1.320664464000000267e-02 2.324481337081002102e-22
1.321491948000000187e-02 2.371593582267778902e-22
1.322319432000000280e-02 2.411270586892663168e-22
1.323146916000000201e-02 2.443342399320458954e-22
1.323974400000000294e-02 2.467661975940599318e-22
1.324801884000000214e-02 2.484105898138221747e-22
1.325629368000000308e-02 2.492575023767069339e-22
1.326456852000000228e-02 2.492995071958473890e-22
1.327284336000000321e-02 2.485317139974748183e-22
1.328111820000000068e-02 2.469518151375651327e-22
1.328939304000000161e-02 2.445601236322213873e-22
1.329766788000000081e-02 2.413596027485539298e-22
1.330594272000000175e-02 2.373558880355592954e-22
1.331421756000000269e-02 2.325573015695394454e-22
1.332249240000000189e-02 2.269748578154698125e-22
1.333076724000000282e-02 2.206222607408804316e-22
1.333904208000000202e-02 2.135158917998953219e-22
1.334731692000000296e-02 2.056747884101291349e-22
1.335559176000000216e-02 1.971206125887940192e-22
1.336386660000000309e-02 1.878776095012727724e-22
1.337214144000000229e-02 1.779725557991602654e-22
1.338041628000000323e-02 1.674346977691482335e-22
1.338869112000000069e-02 1.562956794618920250e-22
1.339696596000000163e-02 1.445894611002890343e-22
1.340524080000000083e-02 1.323522281581597513e-22
1.341351564000000177e-02 1.196222915372815723e-22
1.342179048000000270e-02 1.064399792525156977e-22
1.343006532000000190e-02 9.284751998215786360e-23
1.343834016000000284e-02 7.888891879029209626e-23
1.344661500000000204e-02 6.460982534147760900e-23
1.345488984000000297e-02 5.005739489450284844e-23
1.346316468000000217e-02 3.528014253995681850e-23
1.347143952000000311e-02 2.032779132456110315e-23
1.347971436000000231e-02 5.251114839829197520e-24
1.348798920000000325e-02 -9.898225120527570231e-24
1.349626404000000071e-02 -2.506784532107173325e-23
1.350453888000000165e-02 -4.020481188044564826e-23
1.351281372000000085e-02 -5.525581483588897694e-23
1.352108856000000178e-02 -7.016734626973369505e-23
1.352936340000000272e-02 -8.488588177601125081e-23
1.353763824000000192e-02 -9.935806497023897005e-23
1.354591308000000285e-02 -1.135308946387302136e-22
1.355418792000000205e-02 -1.273519140218492662e-22
1.356246276000000299e-02 -1.407694016548031276e-22
1.357073760000000219e-02 -1.537325631576842436e-22
1.357901244000000313e-02 -1.661917233567369096e-22
1.358728728000000233e-02 -1.780985180931003648e-22
1.359556212000000326e-02 -1.894060849968305766e-22
1.360383696000000073e-02 -2.000692523640085250e-22
1.361211180000000166e-02 -2.100447251180232290e-22
1.362038664000000086e-02 -2.192912667494546742e-22
1.362866148000000180e-02 -2.277698761974973931e-22
1.363693632000000273e-02 -2.354439588780154487e-22
1.364521116000000193e-02 -2.422794914002755743e-22
1.365348600000000287e-02 -2.482451797912497457e-22
1.366176084000000207e-02 -2.533126111161963684e-22
1.367003568000000301e-02 -2.574563981941938309e-22
1.367831052000000221e-02 -2.606543167392996146e-22
1.368658536000000314e-02 -2.628874338846303736e-22
1.369486020000000234e-02 -2.641402268322369469e-22
1.370313504000000328e-02 -2.644006903874822666e-22
1.371140988000000074e-02 -2.636604323370905167e-22
1.371968472000000168e-02 -2.619147559043394777e-22
1.372795956000000088e-02 -2.591627287708960704e-22
1.373623440000000182e-02 -2.554072383634801997e-22
1.374450924000000275e-02 -2.506550332750588986e-22
1.375278408000000195e-02 -2.449167508797957511e-22
1.376105892000000289e-02 -2.382069312538127431e-22
1.376933376000000209e-02 -2.305440171420291438e-22
1.377760860000000302e-02 -2.219503400483215486e-22
1.378588344000000222e-02 -2.124520919201979009e-22
1.379415828000000316e-02 -2.020792816597446394e-22
1.380243312000000236e-02 -1.908656756748254945e-22
1.381070796000000329e-02 -1.788487219199646826e-22
1.381898280000000076e-02 -1.660694573225656987e-22
1.382725764000000170e-02 -1.525723989748104235e-22
1.383553248000000090e-02 -1.384054198097705872e-22
1.384380732000000183e-02 -1.236196095597081476e-22
1.385208216000000277e-02 -1.082691216259630729e-22
1.386035700000000197e-02 -9.241100617663827448e-23
1.386863184000000290e-02 -7.610502947712726052e-23
1.387690668000000210e-02 -5.941347928802600860e-23
1.388518152000000304e-02 -4.240095624545272647e-23
1.389345636000000224e-02 -2.513415172454824159e-23
1.390173120000000317e-02 -7.681612034745354732e-24
1.391000604000000238e-02 9.886509603759584875e-24
1.391828088000000331e-02 2.749871121887325523e-23
1.392655572000000078e-02 4.508240947620704238e-23
1.393483056000000171e-02 6.256421557011802206e-23
1.394310540000000091e-02 7.987021940097904124e-23
1.395138024000000185e-02 9.692628195252828009e-23
1.395965508000000278e-02 1.136583353241942467e-22
1.396792992000000198e-02 1.299926890364079245e-22
1.397620476000000292e-02 1.458563409525597735e-22
1.398447960000000212e-02 1.611772909898490870e-22
1.399275444000000306e-02 1.758848550307167662e-22
1.400102928000000226e-02 1.899099801034486128e-22
1.400930412000000319e-02 2.031855615394737944e-22
1.401757896000000239e-02 2.156467622884670141e-22
1.402585380000000333e-02 2.272313330906353615e-22
1.403412864000000079e-02 2.378799305354580210e-22
1.404240348000000173e-02 2.475364312992253830e-22
1.405067832000000093e-02 2.561482374054749691e-22
1.405895316000000186e-02 2.636665654234350256e-22
1.406722800000000280e-02 2.700467259555067721e-22
1.407550284000000200e-02 2.752483920063806797e-22
1.408377768000000294e-02 2.792358558945172961e-22
1.409205252000000214e-02 2.819782743397168494e-22
1.410032736000000307e-02 2.834499056729418397e-22
1.410860220000000227e-02 2.836303216655700089e-22
1.411687704000000321e-02 2.825045972661353197e-22
1.412515188000000241e-02 2.800634834816079005e-22
1.413342672000000334e-02 2.763035588559012695e-22
1.414170156000000081e-02 2.712273624669593180e-22
1.414997640000000174e-02 2.648435150895117855e-22
1.415825124000000268e-02 2.571668013804105297e-22
1.416652608000000188e-02 2.482182363259717750e-22
1.417480092000000282e-02 2.380251137646421486e-22
1.418307576000000202e-02 2.266210321224507499e-22
1.419135060000000295e-02 2.140459026701212936e-22
1.419962544000000215e-02 2.003459004268079478e-22
1.420790028000000309e-02 1.855733837921351619e-22
1.421617512000000229e-02 1.697867891659529582e-22
1.422444996000000322e-02 1.530505053354834108e-22
1.423272480000000242e-02 1.354347205153016380e-22
1.424099964000000336e-02 1.170152146383832186e-22
1.424927448000000083e-02 9.787313522171936830e-23
1.425754932000000176e-02 7.809474745599837305e-23
1.426582416000000270e-02 5.777115800626803715e-23
1.427409900000000190e-02 3.699797538236270933e-23
1.428237384000000283e-02 1.587495285559977654e-23
1.429064868000000203e-02 -5.494384712719140095e-24
1.429892352000000297e-02 -2.700313861620038522e-23
1.430719836000000217e-02 -4.854148392276073566e-23
1.431547320000000310e-02 -6.999712980500760604e-23
1.432374804000000230e-02 -9.125579942323440968e-23
1.433202288000000324e-02 -1.122017478523048906e-22
1.434029772000000244e-02 -1.327183050791273505e-22
1.434857256000000338e-02 -1.526884316241425875e-22
1.435684740000000084e-02 -1.719953010547551668e-22
1.436512224000000178e-02 -1.905228983130315685e-22
1.437339708000000271e-02 -2.081566343034313951e-22
1.438167192000000191e-02 -2.247839957981600619e-22
1.438994676000000285e-02 -2.402951898858538589e-22
1.439822160000000205e-02 -2.545838046625298888e-22
1.440649644000000298e-02 -2.675475124200036302e-22
1.441477128000000218e-02 -2.790887305838353472e-22
1.442304612000000312e-02 -2.891153082319368153e-22
1.443132096000000232e-02 -2.975412568326430295e-22
1.443959580000000326e-02 -3.042874001109892756e-22
1.444787064000000246e-02 -3.092820966511555910e-22
1.445614548000000339e-02 -3.124619485219327211e-22
1.446442032000000086e-02 -3.137724249844033853e-22
1.447269516000000179e-02 -3.131686005818804674e-22
1.448097000000000273e-02 -3.106157365349552697e-22
1.448924484000000193e-02 -3.060899160129536159e-22
1.449751968000000286e-02 -2.995786633556716897e-22
1.450579452000000207e-02 -2.910814268834536962e-22
1.451406936000000300e-02 -2.806102040588964926e-22
1.452234420000000220e-02 -2.681899124709927816e-22
1.453061904000000314e-02 -2.538589251180960684e-22
1.453889388000000234e-02 -2.376693682107023354e-22
1.454716872000000327e-02 -2.196874978276017433e-22
1.455544356000000074e-02 -1.999939151035461859e-22
1.456371840000000341e-02 -1.786837628480423637e-22
1.457199324000000087e-02 -1.558668157977851552e-22
1.458026808000000181e-02 -1.316674895611912622e-22
1.458854292000000274e-02 -1.062247452335350294e-22
1.459681776000000195e-02 -7.969189748433993897e-23
1.460509260000000288e-02 -5.223627177232903140e-23
1.461336744000000208e-02 -2.403879438039095931e-23
1.462164228000000302e-02 4.706644935597893706e-24
1.462991712000000222e-02 3.379385623010969064e-23
1.463819196000000315e-02 6.300530722855198782e-23
1.464646680000000235e-02 9.211311722544942972e-23
1.465474164000000329e-02 1.208803401295151371e-22
1.466301648000000075e-02 1.490623751481282849e-22
1.467129132000000342e-02 1.764085934035195848e-22
1.467956616000000089e-02 2.026641885085122561e-22
1.468784100000000183e-02 2.275722088263422022e-22
1.469611584000000276e-02 2.508758348499630984e-22
1.470439068000000196e-02 2.723208517584244292e-22
1.471266552000000290e-02 2.916583650183859879e-22
1.472094036000000210e-02 3.086477214494120734e-22
1.472921520000000303e-02 3.230596146509048044e-22
1.473749004000000223e-02 3.346794044740766599e-22
1.474576488000000317e-02 3.433105757213117000e-22
1.475403972000000237e-02 3.487782691231292683e-22
1.476231456000000331e-02 3.509328793966035527e-22
1.477058940000000077e-02 3.496536576435393475e-22
1.477886424000000344e-02 3.448521953513723867e-22
1.478713908000000091e-02 3.364757328035699259e-22
1.479541392000000184e-02 3.245102448712149889e-22
1.480368876000000278e-02 3.089832200256366036e-22
1.481196360000000198e-02 2.899660712986672129e-22
1.482023844000000291e-02 2.675761004195516297e-22
1.482851328000000211e-02 2.419779638166694122e-22
1.483678812000000305e-02 2.133845888594239897e-22
1.484506296000000225e-02 1.820574660583967050e-22
1.485333780000000319e-02 1.483062479676716479e-22
1.486161264000000239e-02 1.124875866243765768e-22
1.486988748000000332e-02 7.500314665361332702e-23
1.487816232000000079e-02 3.629674067795330720e-23
1.488643716000000346e-02 -3.149454058436405264e-24
1.489471200000000092e-02 -4.281962581647475554e-23
1.490298684000000186e-02 -8.217002083726070973e-23
1.491126168000000279e-02 -1.206356030630439224e-22
1.491953652000000199e-02 -1.576376777962234318e-22
1.492781136000000293e-02 -1.925924700285058750e-22
1.493608620000000213e-02 -2.249206403693881306e-22
1.494436104000000307e-02 -2.540577095148756882e-22
1.495263588000000227e-02 -2.794653391626636684e-22
1.496091072000000320e-02 -3.006433775685442537e-22
1.496918556000000240e-02 -3.171425259916760348e-22
1.497746040000000334e-02 -3.285773845903694237e-22
1.498573524000000080e-02 -3.346395257091811962e-22
1.499401008000000347e-02 -3.351101635846155391e-22
1.500228492000000094e-02 -3.298718930601852864e-22
1.501055976000000187e-02 -3.189189291873699837e-22
1.501883460000000281e-02 -3.023650857773082091e-22
1.502710944000000201e-02 -2.804489721833354670e-22
1.503538428000000295e-02 -2.535359827674013105e-22
1.504365912000000215e-02 -2.221164947892555578e-22
1.505193396000000308e-02 -1.868001285527242180e-22
1.506020880000000228e-02 -1.483062306279028983e-22
1.506848364000000322e-02 -1.074504073751854039e-22
1.507675848000000242e-02 -6.512774720376319636e-23
1.508503332000000335e-02 -2.229299917719250134e-23