0.000000000000000000e+00 6.689847801689840856e-23
8.274839999999915508e-06 6.249789898166559986e-23
1.654968000000010884e-05 5.804229914903665095e-23
2.482452000000002435e-05 5.353544745013464284e-23
3.309935999999993986e-05 4.898111281608223338e-23
4.137420000000013658e-05 4.438306663850335050e-23
4.964904000000004870e-05 3.974510401642242895e-23
5.792387999999996760e-05 3.507103340650717817e-23
6.619871999999987972e-05 3.036466512689620818e-23
7.447356000000006967e-05 2.562981201994878953e-23
8.274839999999998856e-05 2.087032186627065138e-23
9.102323999999990746e-05 1.609008366096179688e-23
9.929808000000009741e-05 1.129303154173342436e-23
1.075729200000000163e-04 6.483171747193253096e-24
1.158477599999999352e-04 1.664542107816866784e-24
1.241226000000001251e-04 -3.158758742534792641e-24
1.323974400000000305e-04 -7.982625452776595485e-24
1.406722799999999629e-04 -1.280296179267946414e-23
1.489471200000001393e-04 -1.761568672872626768e-23
1.572219600000000718e-04 -2.241679220479436725e-23
1.654967999999999771e-04 -2.720230098958988878e-23
1.737716399999998825e-04 -3.196828366738907640e-23
1.820464800000000860e-04 -3.671083335846098335e-23
1.903213199999999913e-04 -4.142601774524891152e-23
1.985961599999999238e-04 -4.610988427149072435e-23
2.068710000000001273e-04 -5.075844513102451372e-23
2.151458400000000326e-04 -5.536767639399722869e-23
2.234206799999999380e-04 -5.993357514903193483e-23
2.316955200000001415e-04 -6.445217287049836414e-23
2.399703600000000468e-04 -6.891956005500036479e-23
2.482451999999999792e-04 -7.333194879200899807e-23
2.565200400000001556e-04 -7.768560408243359617e-23
2.647948800000000610e-04 -8.197690878735416922e-23
2.730697200000000205e-04 -8.620227958372984010e-23
2.813445599999999259e-04 -9.035818269414297557e-23
2.896194000000001023e-04 -9.444110130252308543e-23
2.978942400000000076e-04 -9.844753483016224985e-23
3.061690799999999130e-04 -1.023739937018839805e-22
3.144439200000001436e-04 -1.062170323292044156e-22
3.227187600000000489e-04 -1.099732376119080809e-22
3.309935999999999543e-04 -1.136392883458031922e-22
3.392684400000001307e-04 -1.172119478701161048e-22
3.475432800000000902e-04 -1.206880880854174195e-22
3.558181199999999956e-04 -1.240647148672953100e-22
3.640929600000001719e-04 -1.273389097698335743e-22
3.723678000000000773e-04 -1.305078746680222343e-22
3.806426399999999826e-04 -1.335688450292923645e-22
3.889174799999999422e-04 -1.365191107795986933e-22
3.971923200000001186e-04 -1.393559834222470251e-22
4.054671600000000239e-04 -1.420768234044703820e-22
4.137420000000002545e-04 -1.446790266392797313e-22
4.220168400000001599e-04 -1.471601231340126697e-22
4.302916800000000652e-04 -1.495177122359680191e-22
4.385665199999999706e-04 -1.517495845348784332e-22
4.468413600000001470e-04 -1.538536389247026752e-22
4.551162000000001065e-04 -1.558279350715482121e-22
4.633910400000000119e-04 -1.576706512804703629e-22
4.716658800000001883e-04 -1.593800687795804157e-22
4.799407200000000936e-04 -1.609545705693724285e-22
4.882155599999999989e-04 -1.623926008659070382e-22
4.964903999999999585e-04 -1.636926838313103985e-22
5.047652400000001349e-04 -1.648533890648969250e-22
5.130400800000000944e-04 -1.658733643143914156e-22
5.213149200000002708e-04 -1.667513190905328559e-22
5.295897600000001220e-04 -1.674861120333302647e-22
5.378646000000000815e-04 -1.680766911876456104e-22
5.461394400000000411e-04 -1.685222655874989293e-22
5.544142800000002175e-04 -1.688221544211618903e-22
5.626891200000000686e-04 -1.689759361534290055e-22
5.709639600000000282e-04 -1.689833008658627069e-22
5.792388000000002046e-04 -1.688440696278222832e-22
5.875136400000001641e-04 -1.685581374466206218e-22
5.957884800000000152e-04 -1.681254585985310755e-22
6.040633199999999748e-04 -1.675460355111628779e-22
6.123381600000001512e-04 -1.668199785660533501e-22
6.206130000000001107e-04 -1.659475119485738892e-22
6.288878400000002871e-04 -1.649290141857214637e-22
6.371626800000001383e-04 -1.637650790201174273e-22
6.454375200000000978e-04 -1.624564333016347428e-22
6.537123599999999490e-04 -1.610040379067434741e-22
6.619871999999999085e-04 -1.594089441491706917e-22
6.702620399999998681e-04 -1.576723812867941075e-22
6.785368800000002613e-04 -1.557956417794398933e-22
6.868117200000002209e-04 -1.537801482886459374e-22
6.950865600000001804e-04 -1.516273785525352641e-22
7.033614000000000316e-04 -1.493389392921744605e-22
7.116362399999999911e-04 -1.469165041856994387e-22
7.199110800000004928e-04 -1.443619179340248654e-22
7.281859200000003439e-04 -1.416771291838422751e-22
7.364607600000003034e-04 -1.388642929083627785e-22
7.447356000000001546e-04 -1.359257194293713851e-22
7.530104400000001141e-04 -1.328638874599765526e-22
7.612852799999999653e-04 -1.296814407924878869e-22
7.695601199999999248e-04 -1.263811069350998270e-22
7.778349599999998844e-04 -1.229657177819731652e-22
7.861098000000002776e-04 -1.194381461212608861e-22
7.943846400000002372e-04 -1.158013274635129797e-22
8.026594800000001967e-04 -1.120582514931033189e-22
8.109343200000000479e-04 -1.082120315399715833e-22
8.192091600000000074e-04 -1.042658571060428614e-22
8.274840000000005091e-04 -1.002231262324619435e-22
8.357588400000003602e-04 -9.608732244445642802e-23
8.440336800000003198e-04 -9.186212613847305477e-23
8.523085200000001709e-04 -8.755129672346743740e-23
8.605833600000001304e-04 -8.315870123075578199e-23
8.688581999999999816e-04 -7.868826008627928332e-23
8.771330399999999411e-04 -7.414393533111563624e-23
8.854078799999999007e-04 -6.952971767899319425e-23
8.936827200000002939e-04 -6.484964001083896358e-23
9.019575600000002535e-04 -6.010777376559391616e-23
9.102324000000002130e-04 -5.530826424231501938e-23
9.185072400000000642e-04 -5.045534347687460097e-23
9.267820800000000237e-04 -4.555332702527848006e-23
9.350569200000004169e-04 -4.060665645481571677e-23
9.433317600000003765e-04 -3.561983081875512097e-23
9.516066000000003361e-04 -3.059745053406520313e-23
9.598814400000001872e-04 -2.554413760280418752e-23
9.681562800000001467e-04 -2.046453883750887358e-23
9.764311199999999979e-04 -1.536329974284227041e-23
9.847059600000000659e-04 -1.024503996564008150e-23
9.929807999999999170e-04 -5.114371959194883453e-24
1.001255640000000419e-03 2.409337730563577019e-26
1.009530480000000270e-03 5.165739680613093791e-24
1.017805320000000121e-03 1.030589776792438267e-23
1.026080160000000189e-03 1.543986690145138376e-23
1.034355000000000040e-03 2.056289039219558711e-23
1.042629840000000542e-03 2.567017266163063129e-23
1.050904680000000393e-03 3.075691984963288251e-23
1.059179520000000244e-03 3.581834194308471808e-23
1.067454360000000312e-03 4.084970267663230478e-23
1.075729200000000163e-03 4.584633408329890222e-23
1.084004040000000014e-03 5.080362447298787190e-23
1.092278880000000082e-03 5.571705031447954989e-23
1.100553719999999933e-03 6.058211822649202200e-23
1.108828560000000435e-03 6.539438457107690369e-23
1.117103400000000286e-03 7.014941661450416755e-23
1.125378240000000137e-03 7.484279407119539138e-23
1.133653080000000205e-03 7.947010738663956925e-23
1.141927920000000056e-03 8.402698337023955877e-23
1.150202760000000558e-03 8.850907694616616917e-23
1.158477600000000409e-03 9.291215419439805905e-23
1.166752440000000260e-03 9.723204188493536203e-23
1.175027280000000328e-03 1.014647284416324203e-22
1.183302120000000179e-03 1.056062961453738214e-22
1.191576960000000030e-03 1.096529646568527010e-22
1.199851799999999882e-03 1.136010517110855812e-22
1.208126639999999950e-03 1.174469531696437053e-22
1.216401480000000451e-03 1.211871362401848145e-22
1.224676320000000302e-03 1.248181226138649510e-22
1.232951160000000154e-03 1.283364979565171554e-22
1.241226000000000221e-03 1.317389237545431137e-22
1.249500840000000073e-03 1.350221778185056672e-22
1.257775680000000574e-03 1.381831384950634108e-22
1.266050520000000425e-03 1.412188778237386995e-22
1.274325360000000277e-03 1.441265699571729736e-22
1.282600200000000345e-03 1.469036129702780907e-22
1.290875040000000196e-03 1.495474917147738263e-22
1.299149880000000047e-03 1.520558751219175666e-22
1.307424719999999898e-03 1.544265011548451009e-22
1.315699559999999966e-03 1.566572348609485771e-22
1.323974399999999817e-03 1.587460005164946990e-22
1.332249240000000319e-03 1.606908442580715005e-22
1.340524080000000170e-03 1.624898836165247078e-22
1.348798920000000238e-03 1.641414047789727984e-22
1.357073760000000523e-03 1.656438086778013215e-22
1.365348600000000591e-03 1.669956948132465771e-22
1.373623440000000442e-03 1.681958267866454229e-22
1.381898280000000293e-03 1.692431360885688396e-22
1.390173120000000361e-03 1.701367274861253304e-22
1.398447960000000212e-03 1.708758158786845648e-22
1.406722800000000063e-03 1.714597564695320689e-22
1.414997639999999914e-03 1.718879819603373805e-22
1.423272479999999982e-03 1.721600463432669310e-22
1.431547319999999833e-03 1.722755826484892303e-22
1.439822160000000335e-03 1.722343818085535383e-22
1.448097000000000186e-03 1.720363276268875384e-22
1.456371840000000254e-03 1.716815263720692212e-22
1.464646680000000539e-03 1.711701864279467468e-22
1.472921520000000607e-03 1.705027650234208774e-22
1.481196360000000458e-03 1.696798218483570953e-22
1.489471200000000309e-03 1.687021239909173699e-22
1.497746040000000377e-03 1.675705311625648110e-22
1.506020880000000228e-03 1.662860456903346693e-22
1.514295720000000079e-03 1.648497487203067752e-22
1.522570559999999931e-03 1.632628420159793562e-22
1.530845399999999999e-03 1.615266114302613338e-22
1.539120239999999850e-03 1.596424897031217269e-22
1.547395080000000351e-03 1.576120342318710673e-22
1.555669920000000202e-03 1.554369698343359110e-22
1.563944760000000270e-03 1.531191961125791244e-22
1.572219600000000555e-03 1.506607575518167210e-22
1.580494440000000623e-03 1.480638842383286413e-22
1.588769280000000474e-03 1.453309039341738344e-22
1.597044120000000325e-03 1.424642924322560794e-22
1.605318960000000393e-03 1.394665897833098912e-22
1.613593800000000245e-03 1.363404485169130299e-22
1.621868640000000096e-03 1.330885797539709591e-22
1.630143479999999947e-03 1.297138235595768211e-22
1.638418320000000015e-03 1.262190894707262547e-22
1.646693159999999866e-03 1.226074676857181929e-22
1.654968000000000368e-03 1.188821312449330763e-22
1.663242840000000219e-03 1.150464538783606305e-22
1.671517680000000287e-03 1.111038975044301748e-22
1.679792520000000572e-03 1.070580804012229301e-22
1.688067360000000640e-03 1.029126976829425076e-22
1.696342200000000491e-03 9.867153439670345047e-23
1.704617040000000342e-03 9.433843037309814311e-23
1.712891880000000410e-03 8.991728796368762460e-23
1.721166720000000261e-03 8.541205805735113083e-23
1.729441560000000112e-03 8.082677189216358301e-23
1.737716399999999963e-03 7.616553650766598890e-23
1.745991240000000031e-03 7.143255682213763284e-23
1.754266079999999882e-03 6.663215007271506421e-23
1.762540920000000384e-03 6.176871501044868869e-23
1.770815760000000235e-03 5.684676231708427130e-23
1.779090600000000303e-03 5.187084642875483707e-23
1.787365440000000588e-03 4.684558762890494452e-23
1.795640280000000656e-03 4.177562177170101455e-23
1.803915120000000507e-03 3.666560479402490771e-23
1.812189960000000358e-03 3.152020240664671183e-23
1.820464800000000426e-03 2.634410176541202373e-23
1.828739640000000277e-03 2.114200829628150747e-23
1.837014480000000128e-03 1.591868551361817034e-23
1.845289319999999979e-03 1.067892525173290198e-23
1.853564160000000047e-03 5.427591339742266783e-24
1.861838999999999899e-03 1.695764951060325544e-25
1.870113840000000400e-03 -5.090193545540941952e-24
1.878388680000000251e-03 -1.034678115376556352e-23
1.886663520000000102e-03 -1.559527200029729477e-23
1.894938360000000604e-03 -2.083076808468103941e-23
1.903213200000000672e-03 -2.604841564430371076e-23
1.911488040000000523e-03 -3.124339309450539547e-23
1.919762880000000374e-03 -3.641090286378285927e-23
1.928037720000000442e-03 -4.154616801606783193e-23
1.936312560000000293e-03 -4.664441337073530170e-23
1.944587400000000145e-03 -5.170086510417217074e-23
1.952862239999999996e-03 -5.671075831450810289e-23
1.961137080000000064e-03 -6.166934079467650124e-23
1.969411920000000132e-03 -6.657189729069818211e-23
1.977686760000000200e-03 -7.141377549661037482e-23
1.985961600000000268e-03 -7.619037987234249050e-23
1.994236440000000336e-03 -8.089722582183943423e-23
2.002511280000000837e-03 -8.552988427331275755e-23
2.010786120000000472e-03 -9.008404009422421417e-23
2.019060960000000540e-03 -9.455542179252453870e-23
2.027335800000000608e-03 -9.893984337038836938e-23
2.035610640000000242e-03 -1.032331550372378121e-22
2.043885480000000310e-03 -1.074312855490738564e-22
2.052160320000000378e-03 -1.115302057389137811e-22
2.060435160000000012e-03 -1.155260019240079614e-22
2.068710000000000080e-03 -1.194148237578992492e-22
2.076984840000000148e-03 -1.231929823427548994e-22
2.085259680000000216e-03 -1.268568802367312200e-22
2.093534520000000284e-03 -1.304030897229748629e-22
2.101809360000000352e-03 -1.338282912559299975e-22
2.110084200000000854e-03 -1.371293035244687053e-22
2.118359040000000488e-03 -1.403030495166380651e-22
2.126633880000000556e-03 -1.433465612420771229e-22
2.134908720000000624e-03 -1.462569697589203050e-22
2.143183560000000258e-03 -1.490315182497945796e-22
2.151458400000000326e-03 -1.516675722065563959e-22
2.159733240000000394e-03 -1.541626284836844992e-22
2.168008080000000028e-03 -1.565143549989966109e-22
2.176282920000000096e-03 -1.587205554427221526e-22
2.184557760000000164e-03 -1.607792408174760046e-22
2.192832600000000232e-03 -1.626885418238125930e-22
2.201107440000000300e-03 -1.644467964806534933e-22
2.209382280000000368e-03 -1.660524415452842350e-22
2.217657120000000870e-03 -1.675041022829611965e-22
2.225931960000000504e-03 -1.688004907880315825e-22
2.234206800000000572e-03 -1.699405030501083040e-22
2.242481640000000640e-03 -1.709231229125949883e-22
2.250756480000000274e-03 -1.717475408550683805e-22
2.259031320000000342e-03 -1.724130458869941278e-22
2.267306160000000410e-03 -1.729191626228895213e-22
2.275581000000000045e-03 -1.732655271067309074e-22
2.283855840000000113e-03 -1.734520093337090205e-22
2.292130679999999747e-03 -1.734785961138939778e-22
2.300405520000000249e-03 -1.733454688906470876e-22
2.308680360000000317e-03 -1.730529194744048013e-22
2.316955200000000385e-03 -1.726013953638287097e-22
2.325230040000000886e-03 -1.719914484607774583e-22
2.333504880000000520e-03 -1.712237815940181680e-22
2.341779720000000588e-03 -1.702992164751113940e-22
2.350054560000000656e-03 -1.692187400215712194e-22
2.358329400000000291e-03 -1.679834905368298936e-22
2.366604240000000359e-03 -1.665947666830135052e-22
2.374879080000000427e-03 -1.650540383933435666e-22
2.383153920000000061e-03 -1.633629036589114892e-22
2.391428760000000129e-03 -1.615231187354849743e-22
2.399703599999999763e-03 -1.595365348719903890e-22
2.407978440000000265e-03 -1.574051379781194130e-22
2.416253280000000333e-03 -1.551309971372541646e-22
2.424528120000000401e-03 -1.527163192227622269e-22
2.432802960000000903e-03 -1.501633970872986578e-22
2.441077800000000537e-03 -1.474746890961965112e-22
2.449352640000000605e-03 -1.446527394349045064e-22
2.457627480000000673e-03 -1.417002711363437329e-22
2.465902320000000307e-03 -1.386200841986538223e-22
2.474177160000000375e-03 -1.354151379387664859e-22
2.482452000000000443e-03 -1.320884564104357847e-22
2.490726840000000077e-03 -1.286431922629237161e-22
2.499001680000000145e-03 -1.250825540442752208e-22
2.507276520000000647e-03 -1.214098622141434741e-22
2.515551360000000281e-03 -1.176284917422766408e-22
2.523826200000000349e-03 -1.137419308793054323e-22
2.532101040000000417e-03 -1.097537284880779803e-22
2.540375880000000051e-03 -1.056675526400589516e-22
2.548650720000000553e-03 -1.014871407270405560e-22
2.556925560000000621e-03 -9.721634013071631545e-23
2.565200400000000689e-03 -9.285906932265659449e-23
2.573475240000000323e-03 -8.841932831683528273e-23
2.581750080000000391e-03 -8.390117742355058910e-23
2.590024920000000459e-03 -7.930873135603403794e-23
2.598299760000000094e-03 -7.464615167813155434e-23
2.606574600000000595e-03 -6.991764650904094764e-23
2.614849440000000663e-03 -6.512747073455594573e-23
2.623124280000000298e-03 -6.027993022737787617e-23
2.631399120000000365e-03 -5.537939005048484240e-23
2.639673960000000433e-03 -5.043026442589083728e-23
2.647948800000000068e-03 -4.543703238829365377e-23
2.656223640000000569e-03 -4.040420637332116782e-23
2.664498480000000637e-03 -3.533634655862037028e-23
2.672773320000000705e-03 -3.023802628805079054e-23
2.681048160000000340e-03 -2.511383604876344494e-23
2.689323000000000408e-03 -1.996836952666184133e-23
2.697597840000000476e-03 -1.480622319904971672e-23
2.705872680000000110e-03 -9.631999187844379711e-24
2.714147520000000612e-03 -4.450314431206280216e-24
2.722422360000000680e-03 7.342049139759668141e-25
2.730697200000000314e-03 5.916910261473480984e-24
2.738972040000000382e-03 1.109314828490501786e-23
2.747246880000000450e-03 1.625826568035187220e-23
2.755521720000000084e-03 2.140761593636377582e-23
2.763796560000000586e-03 2.653658565552931879e-23
2.772071400000000654e-03 3.164057958038260865e-23
2.780346240000000722e-03 3.671504963936871945e-23
2.788621080000000356e-03 4.175547087333545463e-23
2.796895920000000424e-03 4.675736055523577797e-23
2.805170760000000492e-03 5.171625833361263426e-23
2.813445600000000126e-03 5.662773996992172131e-23
2.821720440000000628e-03 6.148740361330479580e-23
2.829995280000000696e-03 6.629089053738231363e-23
2.838270120000000330e-03 7.103387241286478738e-23
2.846544960000000398e-03 7.571208391990995434e-23
2.854819800000000466e-03 8.032130790252840230e-23
2.863094640000000100e-03 8.485740469410995017e-23
2.871369480000000602e-03 8.931629975710006712e-23
2.879644320000000670e-03 9.369399166564146694e-23
2.887919160000000738e-03 9.798654777150028178e-23
2.896194000000000372e-03 1.021900980430657642e-22
2.904468840000000440e-03 1.063008389109533250e-22
2.912743680000000508e-03 1.103150307393876681e-22
2.921018520000000143e-03 1.142290108948315888e-22
2.929293360000000644e-03 1.180391910277321417e-22
2.937568200000000712e-03 1.217420837507100220e-22
2.945843040000000346e-03 1.253342822116912362e-22
2.954117880000000414e-03 1.288125009478986792e-22
2.962392720000000482e-03 1.321735327549639226e-22
2.970667560000000117e-03 1.354142989694521978e-22
2.978942400000000618e-03 1.385317933776409180e-22
2.987217240000000686e-03 1.415231384522797703e-22
2.995492080000000754e-03 1.443855265973585919e-22
3.003766920000000389e-03 1.471162856211501773e-22
3.012041760000000457e-03 1.497128166874840780e-22
3.020316600000000525e-03 1.521726758372739707e-22
3.028591440000000159e-03 1.544934984695317503e-22
3.036866280000000660e-03 1.566730954053624285e-22
3.045141120000000728e-03 1.587093603341757109e-22
3.053415960000000363e-03 1.606003677156095480e-22
3.061690800000000431e-03 1.623442747627764204e-22
3.069965640000000499e-03 1.639394127554072347e-22
3.078240480000000133e-03 1.653841957235524009e-22
3.086515320000000635e-03 1.666772107863968526e-22
3.094790160000000703e-03 1.678171326390274003e-22
3.103065000000000771e-03 1.688028196933969320e-22
3.111339840000000405e-03 1.696332280695103771e-22
3.119614680000000473e-03 1.703075076162081276e-22
3.127889520000000541e-03 1.708249165019035864e-22
3.136164360000000175e-03 1.711849042176293242e-22
3.144439200000000677e-03 1.713870347083342414e-22
3.152714040000000745e-03 1.714310512575166680e-22
3.160988880000000379e-03 1.713168139970844935e-22
3.169263720000000447e-03 1.710443531269864635e-22
3.177538560000000949e-03 1.706138204182281558e-22
3.185813399999999716e-03 1.700255372633927876e-22
3.194088240000000651e-03 1.692799577392118398e-22
3.202363080000000719e-03 1.683777064858353480e-22
3.210637920000000787e-03 1.673195537499319587e-22
3.218912760000000421e-03 1.661064321972580782e-22
3.227187600000000489e-03 1.647394258980927100e-22
3.235462440000000557e-03 1.632197651470444292e-22
3.243737280000000191e-03 1.615488292380083352e-22
3.252012120000001127e-03 1.597281300245119060e-22
3.260286959999999894e-03 1.577593271130429359e-22
3.268561800000001263e-03 1.556442069769590328e-22
3.276836640000000030e-03 1.533847106456473159e-22
3.285111480000000965e-03 1.509829026990092034e-22
3.293386319999999732e-03 1.484410112897544010e-22
3.301661160000000667e-03 1.457613795470151488e-22
3.309936000000000735e-03 1.429465143361238082e-22
3.318210840000000803e-03 1.399990235157908900e-22
3.326485680000000437e-03 1.369216682384408754e-22
3.334760520000000505e-03 1.337172974299300998e-22
3.343035360000000573e-03 1.303889019705678106e-22
3.351310200000000208e-03 1.269395527635714727e-22
3.359585040000001143e-03 1.233724594310159369e-22
3.367859879999999910e-03 1.196909079704634448e-22
3.376134720000001279e-03 1.158983252220707977e-22
3.384409560000000046e-03 1.119982100424957446e-22
3.392684400000000981e-03 1.079941988185543428e-22
3.400959239999999748e-03 1.038899923268077609e-22
3.409234080000000684e-03 9.968941527944462179e-23
3.417508920000000752e-03 9.539634779575218435e-23
3.425783760000000819e-03 9.101477724174829234e-23
3.434058600000000454e-03 8.654873954730450178e-23
3.442333440000000522e-03 8.200236750970212093e-23
3.450608280000000590e-03 7.737983891098058855e-23
3.458883120000000224e-03 7.268542399442995912e-23
3.467157960000001159e-03 6.792343555810371797e-23
3.475432799999999926e-03 6.309827199423545310e-23
3.483707640000001295e-03 5.821437009803486394e-23
3.491982480000000062e-03 5.327623794026861589e-23
3.500257320000000998e-03 4.828841543563322022e-23
3.508532159999999765e-03 4.325549614262744325e-23
3.516807000000000700e-03 3.818209844951821841e-23
3.525081840000000768e-03 3.307288067844505373e-23
3.533356680000000836e-03 2.793252077948569698e-23
3.541631520000000470e-03 2.276572858089256057e-23
3.549906360000000538e-03 1.757723021936488948e-23
3.558181200000000606e-03 1.237177675662597051e-23
3.566456040000000240e-03 7.154132011128076376e-24
3.574730880000001176e-03 1.929074410051312141e-24
3.583005719999999943e-03 -3.298610559881956708e-24
3.591280560000001312e-03 -8.524136135545231765e-24
3.599555400000000079e-03 -1.374271615559271179e-23
3.607830240000001014e-03 -1.894957617637516789e-23
3.616105079999999781e-03 -2.413995037101445391e-23
3.624379920000000716e-03 -2.930909524491389266e-23
3.632654760000000784e-03 -3.445228321245711344e-23
3.640929600000000852e-03 -3.956481763706000457e-23
3.649204440000000486e-03 -4.464202449473376636e-23
3.657479280000000554e-03 -4.967926825182625840e-23
3.665754120000000189e-03 -5.467194257363175032e-23
3.674028960000000257e-03 -5.961548653896381286e-23
3.682303800000001192e-03 -6.450537517688089338e-23
3.690578639999999959e-03 -6.933713603219123168e-23
3.698853480000001328e-03 -7.410634012765853694e-23
3.707128320000000095e-03 -7.880861938589842518e-23
3.715403160000001030e-03 -8.343965838942195791e-23
3.723677999999999797e-03 -8.799521178757936832e-23
3.731952840000000732e-03 -9.247109730546027099e-23
3.740227680000000800e-03 -9.686320988363432363e-23
3.748502520000000868e-03 -1.011675166799781527e-22
3.756777360000000503e-03 -1.053800651270949748e-22
3.765052200000000571e-03 -1.094969806695329339e-22
3.773327040000000205e-03 -1.135144701426336218e-22
3.781601880000000273e-03 -1.174288226950019046e-22
3.789876720000001208e-03 -1.212364126259608423e-22
3.798151559999999975e-03 -1.249337038887786818e-22
3.806426400000001344e-03 -1.285172530587148863e-22
3.814701240000000111e-03 -1.319837179156450018e-22
3.822976080000001046e-03 -1.353298556433766735e-22
3.831250919999999813e-03 -1.385525355703297325e-22
3.839525760000000749e-03 -1.416487281321674540e-22
3.847800600000000817e-03 -1.446155211138091481e-22
3.856075440000000885e-03 -1.474501013682324820e-22
3.864350280000000519e-03 -1.501497740235587342e-22
3.872625120000000587e-03 -1.527119429492067006e-22
3.880899960000000221e-03 -1.551341335589280386e-22
3.889174800000000289e-03 -1.574139744167697490e-22
3.897449640000001225e-03 -1.595492249759625038e-22
3.905724479999999992e-03 -1.615377542173657651e-22
3.913999320000000927e-03 -1.633775736559836085e-22
3.922274160000000127e-03 -1.650668074847820352e-22
3.930549000000001063e-03 -1.666037293390580736e-22
3.938823840000000263e-03 -1.679867238029078612e-22
3.947098680000001199e-03 -1.692143249934325058e-22
3.955373520000000399e-03 -1.702851751620354739e-22
3.963648360000000467e-03 -1.711980649861212411e-22
3.971923200000000535e-03 -1.719518942341489148e-22
3.980198040000000603e-03 -1.725457156878019289e-22
3.988472880000000671e-03 -1.729786962116748927e-22
3.996747720000000739e-03 -1.732501657898797921e-22
4.005022560000001675e-03 -1.733595730654796175e-22
4.013297400000000008e-03 -1.733065383769473110e-22
4.021572240000000943e-03 -1.730908012104647923e-22
4.029847080000000144e-03 -1.727122745856127238e-22
4.038121920000001079e-03 -1.721709883869115995e-22
4.046396760000000280e-03 -1.714671439098657494e-22
4.054671600000001215e-03 -1.706010584529107787e-22
4.062946440000000416e-03 -1.695732213129852110e-22
4.071221280000000484e-03 -1.683842401189510144e-22
4.079496120000000552e-03 -1.670348998588102916e-22
4.087770960000000620e-03 -1.655261070954846519e-22
4.096045800000000688e-03 -1.638589516184167500e-22
4.104320640000000756e-03 -1.620346460171405240e-22
4.112595480000001691e-03 -1.600545880255661019e-22
4.120870320000000024e-03 -1.579202969316733280e-22
4.129145160000000959e-03 -1.556334750759990266e-22
4.137420000000000160e-03 -1.531959440849895426e-22
4.145694840000001095e-03 -1.506097051222507886e-22
4.153969680000000296e-03 -1.478768768342936004e-22
4.162244520000001231e-03 -1.449997546652207442e-22
4.170519360000000432e-03 -1.419807508869343451e-22
4.178794200000000500e-03 -1.388224534165091795e-22
4.187069040000000568e-03 -1.355275666807271787e-22
4.195343880000000636e-03 -1.320989695769274213e-22
4.203618720000000704e-03 -1.285396553861721511e-22
4.211893560000000772e-03 -1.248527872007688168e-22
4.220168400000001707e-03 -1.210416377221869562e-22
4.228443240000000040e-03 -1.171096405938919666e-22
4.236718080000000976e-03 -1.130603337386906907e-22
4.244992920000000176e-03 -1.088974068068245109e-22
4.253267760000001112e-03 -1.046246497101624122e-22
4.261542600000000312e-03 -1.002459970378797869e-22
4.269817440000001248e-03 -9.576547962739636746e-23
4.278092280000000448e-03 -9.118726545837253248e-23
4.286367120000000516e-03 -8.651561313303315922e-23
4.294641960000000584e-03 -8.175490825136659716e-23
4.302916800000000652e-03 -7.690962090301848877e-23
4.311191640000000720e-03 -7.198433768187751070e-23
4.319466480000000788e-03 -6.698372391301272492e-23
4.327741320000001723e-03 -6.191255164768361172e-23
4.336016160000000057e-03 -5.677566441912505936e-23
4.344291000000000992e-03 -5.157800046135714099e-23
4.352565840000000193e-03 -4.632455990154049000e-23
4.360840680000001128e-03 -4.102042271407298530e-23
4.369115520000000329e-03 -3.567072153787459711e-23
4.377390360000001264e-03 -3.028065540158561652e-23
4.385665200000000465e-03 -2.485546895666807962e-23
4.393940040000000533e-03 -1.940046312478511831e-23
4.402214880000000601e-03 -1.392097738107238117e-23
4.410489720000000669e-03 -8.422397293722322589e-24
4.418764560000000736e-03 -2.910137413668099530e-24
4.427039400000000804e-03 2.610354558037875475e-24
4.435314240000001740e-03 8.133613354234784576e-24
4.443589080000000073e-03 1.365415480559244922e-23
4.451863920000001008e-03 1.916648848965185443e-23
4.460138760000000209e-03 2.466511819514953046e-23
4.468413600000001144e-03 3.014455166410240285e-23
4.476688439999999478e-03 3.559930189157928805e-23
4.484963280000001280e-03 4.102389510404505968e-23
4.493238120000000481e-03 4.641287218304800669e-23
4.501512960000000549e-03 5.176079712750977823e-23
4.509787800000000617e-03 5.706225806643156976e-23
4.518062640000000685e-03 6.231187858058098222e-23
4.526337480000000753e-03 6.750431749444587314e-23
4.534612320000000821e-03 7.263428338483493048e-23
4.542887160000001756e-03 7.769653185197890431e-23
4.551162000000000089e-03 8.268588176554936466e-23
4.559436840000001025e-03 8.759720881735315402e-23
4.567711680000000225e-03 9.242546310589041814e-23
4.575986520000001161e-03 9.716565842173878570e-23
4.584261359999999494e-03 1.018128934606636370e-22
4.592536200000001297e-03 1.063623365050634956e-22
4.600811040000000497e-03 1.108092540647265625e-22
4.609085880000000565e-03 1.151489897856913875e-22
4.617360720000000633e-03 1.193770024345009956e-22
4.625635560000000701e-03 1.234888369281408025e-22
4.633910400000000769e-03 1.274801694615172407e-22
4.642185240000000837e-03 1.313467694620078078e-22
4.650460080000001772e-03 1.350845490925566061e-22
4.658734920000000106e-03 1.386895171576085291e-22
4.667009760000001041e-03 1.421578350772527948e-22
4.675284600000000242e-03 1.454857636724973646e-22
4.683559440000001177e-03 1.486697304563130458e-22
4.691834279999999510e-03 1.517062674790461729e-22
4.700109120000001313e-03 1.545920904962957667e-22
4.708383960000000514e-03 1.573240255498066851e-22
4.716658800000000581e-03 1.598990959140271298e-22
4.724933640000000649e-03 1.623144383717771568e-22
4.733208480000000717e-03 1.645673952143496378e-22
4.741483320000000785e-03 1.666554233751574963e-22
4.749758160000000853e-03 1.685761922409268441e-22
4.758033000000001789e-03 1.703274873885483489e-22
4.766307840000000122e-03 1.719073150230987093e-22
4.774582680000001057e-03 1.733138003619739937e-22
4.782857520000000258e-03 1.745452972218410465e-22
4.791132360000001193e-03 1.756002816499715135e-22
4.799407199999999526e-03 1.764774636076735044e-22
4.807682040000001329e-03 1.771756780624100377e-22
4.815956880000000530e-03 1.776939955024511520e-22
4.824231720000000598e-03 1.780316137571601556e-22
4.832506560000000666e-03 1.781879647480119188e-22
4.840781400000000734e-03 1.781626103347363213e-22
4.849056240000000802e-03 1.779553435765136279e-22
4.857331080000000870e-03 1.775660911237233048e-22
4.865605920000001805e-03 1.769950076385205386e-22
4.873880760000000138e-03 1.762423862926913573e-22
4.882155600000001074e-03 1.753087447246247547e-22
4.890430440000000274e-03 1.741947444791570060e-22
4.898705280000001210e-03 1.729012662092700436e-22
4.906980119999999543e-03 1.714293388745691514e-22
4.915254960000001345e-03 1.697802016597965055e-22
4.923529800000000546e-03 1.679552451799451593e-22
4.931804640000000614e-03 1.659560587708361303e-22
4.940079480000000682e-03 1.637843872742793908e-22
4.948354320000000750e-03 1.614421638590628046e-22
4.956629160000000818e-03 1.589314837946858625e-22
4.964904000000000886e-03 1.562546226589192926e-22
4.973178840000001821e-03 1.534140244084782580e-22
4.981453680000000155e-03 1.504123039795271551e-22
4.989728520000001090e-03 1.472522471335575872e-22
4.998003360000000291e-03 1.439367975993114224e-22
5.006278200000001226e-03 1.404690701956625467e-22
5.014553040000001294e-03 1.368523240888886935e-22
5.022827880000001362e-03 1.330899909970837225e-22
5.031102720000000562e-03 1.291856356939865969e-22
5.039377560000000630e-03 1.251429972263489681e-22
5.047652400000000698e-03 1.209659376911806685e-22
5.055927240000000766e-03 1.166584934595274628e-22
5.064202080000000834e-03 1.122248143000667509e-22
5.072476920000000902e-03 1.076692231947080297e-22
5.080751760000000103e-03 1.029961477598688318e-22
5.089026600000000171e-03 9.821018543603342269e-23
5.097301440000001106e-03 9.331602945035895049e-23
5.105576280000001174e-03 8.831853401697422366e-23
5.113851120000001242e-03 8.322263970921494669e-23
5.122125960000001310e-03 7.803343645657810823e-23
5.130400800000001378e-03 7.275609329522369441e-23
5.138675640000000579e-03 6.739591997285810872e-23
5.146950480000000647e-03 6.195830164628700414e-23
5.155225320000000715e-03 5.644875684716734515e-23
5.163500160000000783e-03 5.087287599432803330e-23
5.171775000000000851e-03 4.523637016320959391e-23
5.180049840000000919e-03 3.954501596472611737e-23
5.188324680000000119e-03 3.380469193557247968e-23
5.196599520000000187e-03 2.802133428952397567e-23
5.204874360000001123e-03 2.220096189139526339e-23
5.213149200000001190e-03 1.634964422591162649e-23
5.221424040000001258e-03 1.047351708714755371e-23
5.229698880000001326e-03 4.578760276313347212e-24
5.237973720000001394e-03 -1.328394609386084077e-24
5.246248560000000595e-03 -7.241680859874399298e-24
5.254523400000000663e-03 -1.315479551359331336e-23
5.262798240000000731e-03 -1.906141439931642626e-23
5.271073080000000799e-03 -2.495519501077906297e-23
5.279347920000000867e-03 -3.082979197980728377e-23
5.287622760000000935e-03 -3.667885949625436510e-23
5.295897600000000136e-03 -4.249606681186759918e-23
5.304172440000000203e-03 -4.827509613104821055e-23
5.312447280000001139e-03 -5.400965788605943998e-23
5.320722120000001207e-03 -5.969348303651412678e-23
5.328996960000001275e-03 -6.532034111929055241e-23
5.337271800000001343e-03 -7.088402788783349494e-23
5.345546640000001411e-03 -7.637839200177906671e-23
5.353821480000000611e-03 -8.179731736095919891e-23
5.362096320000000679e-03 -8.713476329571286975e-23
5.370371160000000747e-03 -9.238473827359694886e-23
5.378646000000000815e-03 -9.754135319863660540e-23
5.386920840000000883e-03 -1.025987838441137842e-22
5.395195680000000951e-03 -1.075513306474736655e-22
5.403470520000000152e-03 -1.123933722643850091e-22
5.411745360000000220e-03 -1.171194230868508375e-22
5.420020200000001155e-03 -1.217240859007781536e-22
5.428295040000001223e-03 -1.262021012755671705e-22
5.436569880000001291e-03 -1.305483091115454181e-22
5.444844720000001359e-03 -1.347576877057083532e-22
5.453119560000001427e-03 -1.388253314446432542e-22
5.461394400000000628e-03 -1.427464776310308311e-22
5.469669240000000696e-03 -1.465165035610525299e-22
5.477944080000000764e-03 -1.501309367286196835e-22
5.486218920000000832e-03 -1.535854715597610480e-22
5.494493760000000900e-03 -1.568759573652818932e-22
5.502768600000000968e-03 -1.599984342066042172e-22
5.511043440000000168e-03 -1.629490956119828033e-22
5.519318280000000236e-03 -1.657243445086644214e-22
5.527593120000001171e-03 -1.683207322026435761e-22
5.535867960000001239e-03 -1.707350368692622100e-22
5.544142800000001307e-03 -1.729641822240330837e-22
5.552417640000001375e-03 -1.750053390055219376e-22
5.560692480000001443e-03 -1.768558260875548845e-22
5.568967320000000644e-03 -1.785132290105595104e-22
5.577242160000000712e-03 -1.799752879764674812e-22
5.585517000000000780e-03 -1.812400211734803483e-22
5.593791840000000848e-03 -1.823056096268010314e-22
5.602066680000000916e-03 -1.831705121548973066e-22
5.610341520000000984e-03 -1.838333607844960711e-22
5.618616360000000184e-03 -1.842930578565886734e-22
5.626891200000000252e-03 -1.845486939753328544e-22
5.635166040000001188e-03 -1.845996206768819192e-22
5.643440880000001256e-03 -1.844453983070359934e-22
5.651715720000001324e-03 -1.840858381674521184e-22
5.659990560000001392e-03 -1.835209837089067238e-22
5.668265400000001460e-03 -1.827511167650974994e-22
5.676540240000000660e-03 -1.817767727880065174e-22
5.684815080000000728e-03 -1.805987088766753859e-22
5.693089920000000796e-03 -1.792179518707742345e-22
5.701364760000000864e-03 -1.776357308956739502e-22
5.709639600000000932e-03 -1.758535556117184888e-22
5.717914440000001000e-03 -1.738731203483233207e-22
5.726189280000000201e-03 -1.716964077237884907e-22
5.734464120000000269e-03 -1.693255733467442467e-22
5.742738960000001204e-03 -1.667630659810425506e-22
5.751013800000001272e-03 -1.640115027889558363e-22
5.759288640000001340e-03 -1.610737918969019911e-22
5.767563480000001408e-03 -1.579530101444600322e-22
5.775838320000001476e-03 -1.546525118331920890e-22
5.784113160000000677e-03 -1.511758220265604323e-22
5.792388000000000745e-03 -1.475267191850606385e-22
5.800662840000000813e-03 -1.437091552779944387e-22
5.808937680000000880e-03 -1.397273066200272892e-22
5.817212520000000948e-03 -1.355855277900707684e-22
5.825487360000001016e-03 -1.312883698579108927e-22
5.833762200000000217e-03 -1.268405693091906414e-22
5.842037040000000285e-03 -1.222470348178361602e-22
5.850311880000001220e-03 -1.175128667218339756e-22
5.858586720000001288e-03 -1.126433151393700091e-22
5.866861560000001356e-03 -1.076438216693611219e-22
5.875136400000001424e-03 -1.025199554180179698e-22
5.883411240000001492e-03 -9.727746739825524384e-23
5.891686080000000693e-03 -9.192221537086492521e-23
5.899960920000000761e-03 -8.646022240673009669e-23
5.908235760000000829e-03 -8.089760269258044973e-23
5.916510600000000897e-03 -7.524061707194757698e-23
5.924785440000000965e-03 -6.949560878348022545e-23
5.933060280000001033e-03 -6.366904957292835832e-23
5.941335120000000233e-03 -5.776748908225453377e-23
5.949609960000000301e-03 -5.179758615031691827e-23
5.957884800000001237e-03 -4.576607221681661216e-23
5.966159640000001305e-03 -3.967976546085843239e-23
5.974434480000001373e-03 -3.354554765677291337e-23
5.982709320000001441e-03 -2.737036357922984884e-23
5.990984160000001509e-03 -2.116120969352882382e-23
5.999259000000000709e-03 -1.492512444320822322e-23
6.007533840000000777e-03 -8.669185007841390992e-24
6.015808680000000845e-03 -2.400494055670500327e-24
6.024083520000000913e-03 3.873820983777596061e-24
6.032358360000000981e-03 1.014662044607159707e-23
6.040633200000001049e-03 1.641075605778996356e-23
6.048908040000000250e-03 2.265907963230706178e-23
6.057182880000000318e-03 2.888445274132650316e-23
6.065457720000001253e-03 3.507975027308959843e-23
6.073732560000001321e-03 4.123787568960346927e-23
6.082007400000001389e-03 4.735176115358470806e-23
6.090282240000001457e-03 5.341438453975880365e-23
6.098557080000001525e-03 5.941877074734097907e-23
6.106831920000000725e-03 6.535800453973006560e-23
6.115106760000000793e-03 7.122523903979096524e-23
6.123381600000000861e-03 7.701369782372402883e-23
6.131656440000000929e-03 8.271669606684615864e-23
6.139931280000000997e-03 8.832762648222730233e-23
6.148206120000001065e-03 9.383999670987760094e-23
6.156480960000000266e-03 9.924739696665389571e-23
6.164755800000000334e-03 1.045435547021534679e-22
6.173030640000001269e-03 1.097222863671078571e-22
6.181305480000001337e-03 1.147775665772730762e-22
6.189580320000001405e-03 1.197034708524492788e-22
6.197855160000001473e-03 1.244942504218906962e-22
6.206130000000001541e-03 1.291442761023659416e-22
6.214404840000000742e-03 1.336481046806293096e-22
6.222679680000000810e-03 1.380004357143484619e-22
6.230954520000000878e-03 1.421961553077187292e-22
6.239229360000000946e-03 1.462303181058669715e-22
6.247504200000001014e-03 1.500981588643974816e-22
6.255779040000001082e-03 1.537951098205694969e-22
6.264053880000000282e-03 1.573167756338799712e-22
6.272328720000000350e-03 1.606589902571244152e-22
6.280603560000001286e-03 1.638177548872743424e-22
6.288878400000001354e-03 1.667893293198104404e-22
6.297153240000001422e-03 1.695701386311168445e-22
6.305428080000001489e-03 1.721568841235315252e-22
6.313702920000001557e-03 1.745464344984736670e-22
6.321977760000000758e-03 1.767359345375655934e-22
6.330252600000000826e-03 1.787227046445805511e-22
6.338527440000000894e-03 1.805043270656388418e-22
6.346802280000000962e-03 1.820785764062421607e-22
6.355077120000001030e-03 1.834434704145971885e-22
6.363351960000001098e-03 1.845972469494962870e-22
6.371626800000000299e-03 1.855383715928219952e-22
6.379901640000000367e-03 1.862655684035737592e-22
6.388176480000001302e-03 1.867777792152131651e-22
6.396451320000001370e-03 1.870742463625449078e-22
6.404726160000001438e-03 1.871544237014361555e-22
6.413001000000001506e-03 1.870180982464102649e-22
6.421275840000001574e-03 1.866652646608772492e-22
6.429550680000000774e-03 1.860962606559112136e-22
6.437825520000000842e-03 1.853116309312017166e-22
6.446100360000000910e-03 1.843122447633946113e-22
6.454375200000000978e-03 1.830991802964814998e-22
6.462650040000001046e-03 1.816738004942308686e-22
6.470924880000001114e-03 1.800376798704304052e-22
6.479199720000000315e-03 1.781926304730192004e-22
6.487474560000000383e-03 1.761406816016968194e-22
6.495749400000001318e-03 1.738840598553808607e-22
6.504024240000001386e-03 1.714252237456304681e-22
6.512299080000001454e-03 1.687668061118576003e-22
6.520573920000001522e-03 1.659116981479361867e-22
6.528848760000001590e-03 1.628629621063008182e-22
6.537123600000000791e-03 1.596239482384813745e-22
6.545398440000000859e-03 1.561981896743873681e-22
6.553673280000000927e-03 1.525895213719806352e-22
6.561948120000000995e-03 1.488019774222818691e-22
6.570222960000001063e-03 1.448398773435391533e-22
6.578497800000001131e-03 1.407077471578910543e-22
6.586772640000000331e-03 1.364103528446722369e-22
6.595047480000000399e-03 1.319526585373923061e-22
6.603322320000001334e-03 1.273398101811256563e-22
6.611597160000001402e-03 1.225771341118228926e-22
6.619872000000001470e-03 1.176700898669765340e-22
6.628146840000001538e-03 1.126243059367187095e-22
6.636421680000001606e-03 1.074455206760955908e-22
6.644696520000000807e-03 1.021396471187690588e-22
6.652971360000000875e-03 9.671271258645358976e-23
6.661246200000000943e-03 9.117093466922942317e-23
6.669521040000001011e-03 8.552066581397032320e-23
6.677795880000001079e-03 7.976845329960566686e-23
6.686070720000001147e-03 7.392099474551890438e-23
6.694345560000000347e-03 6.798515959066205502e-23
6.702620400000000415e-03 6.196795929430128267e-23
6.710895240000001351e-03 5.587652921546535574e-23
6.719170080000001419e-03 4.971811244881880219e-23
6.727444920000001487e-03 4.350002301421977783e-23
6.735719760000001555e-03 3.722963969458936002e-23
6.743994600000001623e-03 3.091437473929025528e-23
6.752269440000000823e-03 2.456167538088001720e-23
6.760544280000000891e-03 1.817900743492151405e-23
6.768819120000000959e-03 1.177386214401387461e-23
6.777093960000001027e-03 5.353749366068178905e-24
6.785368800000001095e-03 -1.073796041580403952e-24
6.793643640000001163e-03 -7.501220166650199927e-24
6.801918480000000364e-03 -1.392095002240487148e-23
6.810193320000000432e-03 -2.032540474455105612e-23
6.818468160000001367e-03 -2.670700049715909169e-23
6.826743000000001435e-03 -3.305817101990290845e-23
6.835017840000001503e-03 -3.937136862836712576e-23
6.843292680000001571e-03 -4.563909564092594615e-23
6.851567520000001639e-03 -5.185389488159305829e-23
6.859842360000000840e-03 -5.800838790355642577e-23
6.868117200000000908e-03 -6.409525914068208439e-23
6.876392040000000976e-03 -7.010729072721263317e-23
6.884666880000001044e-03 -7.603735281343603075e-23
6.892941720000001112e-03 -8.187842265831590946e-23
6.901216560000001179e-03 -8.762359365975335405e-23
6.909491400000000380e-03 -9.326606887135059429e-23
6.917766240000000448e-03 -9.879919579133283808e-23
6.926041080000001383e-03 -1.042164310936732939e-22
6.934315920000001451e-03 -1.095113994279083039e-22
6.942590760000001519e-03 -1.146778364390167239e-22
6.950865600000001587e-03 -1.197096594985443416e-22
6.959140440000001655e-03 -1.246009075476745911e-22
6.967415280000000856e-03 -1.293458048873698768e-22
6.975690120000000924e-03 -1.339387218606752702e-22
6.983964960000000992e-03 -1.383742137079922391e-22
6.992239800000001060e-03 -1.426470207008145698e-22
7.000514640000001128e-03 -1.467520667670924597e-22
7.008789480000001196e-03 -1.506845055686679779e-22
7.017064320000000396e-03 -1.544396700740643126e-22
7.025339160000000464e-03 -1.580131558081489039e-22
7.033614000000001400e-03 -1.614007307251844929e-22
7.041888840000001468e-03 -1.645984336768428706e-22
7.050163680000001536e-03 -1.676024766266331906e-22
7.058438520000001604e-03 -1.704093309164245221e-22
7.066713360000001672e-03 -1.730156603129086731e-22
7.074988200000000872e-03 -1.754183722655027554e-22
7.083263040000000940e-03 -1.776146056303392401e-22
7.091537880000001008e-03 -1.796017296032856522e-22
7.099812720000001076e-03 -1.813773910943436903e-22
7.108087560000001144e-03 -1.829394536173592160e-22
7.116362400000001212e-03 -1.842860916489002487e-22
7.124637240000000413e-03 -1.854156837760183350e-22
7.132912080000001348e-03 -1.863269258583997479e-22
7.141186920000001416e-03 -1.870187172340835490e-22
7.149461760000001484e-03 -1.874902569299257161e-22
7.157736600000001552e-03 -1.877409663324234290e-22
7.166011440000001620e-03 -1.877705397937039135e-22
7.174286280000001688e-03 -1.875789286191103470e-22
7.182561120000000889e-03 -1.871663298764851769e-22
7.190835960000000956e-03 -1.865332348564942601e-22
7.199110800000001024e-03 -1.856803559887639498e-22
7.207385640000001092e-03 -1.846087231896800615e-22
7.215660480000001160e-03 -1.833195713555860595e-22
7.223935320000001228e-03 -1.818144504417790470e-22
7.232210160000000429e-03 -1.800951151849823254e-22
7.240485000000001364e-03 -1.781636093552143438e-22
7.248759840000001432e-03 -1.760221980077711915e-22
7.257034680000001500e-03 -1.736733996090579616e-22
7.265309520000001568e-03 -1.711199806045379266e-22
7.273584360000001636e-03 -1.683649268833438608e-22
7.281859200000001704e-03 -1.654114974572844180e-22
7.290134040000000905e-03 -1.622631438529709695e-22
7.298408880000000973e-03 -1.589235989830448779e-22
7.306683720000001041e-03 -1.553967728688929322e-22
7.314958560000001109e-03 -1.516868394370236957e-22
7.323233400000001177e-03 -1.477981488841100155e-22
7.331508240000000377e-03 -1.437352805932593626e-22
7.339783080000000445e-03 -1.395030015293498698e-22
7.348057920000001381e-03 -1.351062707977874074e-22
7.356332760000001449e-03 -1.305502508314342113e-22
7.364607600000001517e-03 -1.258402646833150678e-22
7.372882440000001585e-03 -1.209818469596728376e-22
7.381157280000001653e-03 -1.159806698364106594e-22
7.389432120000001721e-03 -1.108426072431937293e-22
7.397706960000000921e-03 -1.055736586251137828e-22
7.405981800000000989e-03 -1.001799977003581985e-22
7.414256640000001057e-03 -9.466792174343233998e-23
7.422531480000001125e-03 -8.904386883459156463e-23
7.430806320000001193e-03 -8.331440377148024475e-23
7.439081160000000394e-03 -7.748620227827262708e-23
7.447356000000000462e-03 -7.156606832904199037e-23
7.455630840000001397e-03 -6.556089394776835149e-23
7.463905680000001465e-03 -5.947769186369362979e-23
7.472180520000001533e-03 -5.332354735832432242e-23
7.480455360000001601e-03 -4.710564668376292565e-23
7.488730200000001669e-03 -4.083123869004069338e-23
7.497005040000001737e-03 -3.450764711203560425e-23
7.505279880000000937e-03 -2.814225026064544669e-23
7.513554720000001005e-03 -2.174247684263528891e-23
7.521829560000001073e-03 -1.531580089195930846e-23
7.530104400000001141e-03 -8.869727512120938919e-24
7.538379240000001209e-03 -2.411794364902386474e-24
7.546654080000000410e-03 4.050444867954131737e-24
7.554928920000000478e-03 1.050942085811104476e-23
7.563203760000001413e-03 1.695756261755604855e-23
7.571478600000001481e-03 2.338730209871489180e-23
7.579753440000001549e-03 2.979108691215897504e-23
7.588028280000001617e-03 3.616138418095038288e-23
7.596303120000001685e-03 4.249069757432454864e-23
7.604577960000001753e-03 4.877156320892104505e-23
7.612852800000000954e-03 5.499657544676975213e-23
7.621127640000001022e-03 6.115837304162464270e-23
7.629402480000001090e-03 6.724967130139897712e-23
7.637677320000001158e-03 7.326324660207997451e-23
7.645952160000001226e-03 7.919196388491039956e-23
7.654227000000000426e-03 8.502877393348869446e-23
7.662501840000000494e-03 9.076672227993049234e-23
7.670776680000001430e-03 9.639897105990520741e-23
7.679051520000001498e-03 1.019187804334292273e-22
7.687326360000001566e-03 1.073195573729143159e-22
7.695601200000001633e-03 1.125948138017642242e-22
7.703876040000001701e-03 1.177382293335787608e-22
7.712150880000001769e-03 1.227436073179174582e-22
7.720425720000000970e-03 1.276049252482381888e-22
7.728700560000001038e-03 1.323163171652394299e-22
7.736975400000001106e-03 1.368720869797090529e-22
7.745250240000001174e-03 1.412667356075357651e-22
7.753525080000001242e-03 1.454949263644046429e-22
7.761799920000000443e-03 1.495515551521790365e-22
7.770074760000000511e-03 1.534316794834336871e-22
7.778349600000001446e-03 1.571306045951923305e-22
7.786624440000001514e-03 1.606438114247705423e-22
7.794899280000001582e-03 1.639670174983593327e-22
7.803174120000001650e-03 1.670961441045735229e-22
7.811448960000001718e-03 1.700273238946901926e-22
7.819723800000000918e-03 1.727569285173829187e-22
7.827998640000001854e-03 1.752815200922488302e-22
7.836273480000001054e-03 1.775979338827957240e-22
7.844548320000001990e-03 1.797031963882926053e-22
7.852823160000001190e-03 1.815946270485182508e-22
7.861098000000000391e-03 1.832697665823944070e-22
7.869372840000001326e-03 1.847264445671904843e-22
7.877647680000000527e-03 1.859627603243839360e-22
7.885922520000001462e-03 1.869770778472601581e-22
7.894197360000002398e-03 1.877680745584047512e-22
7.902472200000001598e-03 1.883346622161693491e-22
7.910747040000000799e-03 1.886760824837889205e-22
7.919021880000001734e-03 1.887917949521574634e-22
7.927296720000000935e-03 1.886815684540725871e-22
7.935571560000001870e-03 1.883453981023615619e-22
7.943846400000001071e-03 1.877835460228532608e-22
7.952121240000002006e-03 1.869965283813181447e-22
7.960396080000001207e-03 1.859850887156337751e-22
7.968670920000000407e-03 1.847502585254614246e-22
7.976945760000001343e-03 1.832932769203782108e-22
7.985220600000000543e-03 1.816156920891923139e-22
7.993495440000001478e-03 1.797192693791363970e-22
8.001770280000002414e-03 1.776060748551696338e-22
8.010045120000001614e-03 1.752784240955561636e-22
8.018319960000000815e-03 1.727389000322180398e-22
8.026594800000001750e-03 1.699903693386334644e-22
8.034869640000000951e-03 1.670359252722802322e-22
8.043144480000001886e-03 1.638789601331713153e-22
8.051419320000001087e-03 1.605230663713389071e-22
8.059694160000002022e-03 1.569721198279539445e-22
8.067969000000001223e-03 1.532301962733860928e-22
8.076243840000000423e-03 1.493016159071050989e-22
8.084518680000001359e-03 1.451909177349654237e-22
8.092793520000000559e-03 1.409028432194359906e-22
8.101068360000001495e-03 1.364423745641376939e-22
8.109343200000002430e-03 1.318146685408607559e-22
8.117618040000001631e-03 1.270251309475357976e-22
8.125892880000000831e-03 1.220793381533043470e-22
8.134167720000001767e-03 1.169830977905328590e-22
8.142442560000000967e-03 1.117424012842219060e-22
8.150717400000001903e-03 1.063634333559224844e-22
8.158992240000001103e-03 1.008525739525239974e-22
8.167267080000002039e-03 9.521635476866490502e-23
8.175541920000001239e-03 8.946149873939902255e-23
8.183816760000000440e-03 8.359485382643714122e-23
8.192091600000001375e-03 7.762343749220855819e-23
8.200366440000000576e-03 7.155438687679566944e-23
8.208641280000001511e-03 6.539497745101541332e-23
8.216916120000002446e-03 5.915260883669187638e-23
8.225190960000003382e-03 5.283478694276119643e-23
8.233465800000000848e-03 4.644913846285741940e-23
8.241740640000000048e-03 4.000336910714192202e-23
8.250015480000000984e-03 3.350528517972248421e-23
8.258290320000001919e-03 2.696275354737507373e-23
8.266565160000001120e-03 2.038371160373752649e-23
8.274840000000000320e-03 1.377614588009212144e-23
8.283114840000001255e-03 7.148086667712450746e-24
8.291389680000002191e-03 5.076026354229950830e-25
8.299664520000001391e-03 -6.137213782551715504e-24
8.307939360000000592e-03 -1.277824806632967240e-23
8.316214200000003262e-03 -1.940737993679230014e-23
8.324489040000002463e-03 -2.601648916533968864e-23
8.332763879999999929e-03 -3.259747131735952151e-23
8.341038720000000864e-03 -3.914224293412207242e-23
8.349313560000003534e-03 -4.564276153629873175e-23
8.357588400000001000e-03 -5.209102136030869971e-23
8.365863240000000201e-03 -5.847908100796638105e-23
8.374138080000001136e-03 -6.479905195103902816e-23
8.382412920000002071e-03 -7.104312564377788836e-23
8.390687760000001272e-03 -7.720357075445609831e-23
8.398962600000000472e-03 -8.327274344165279375e-23
8.407237440000001408e-03 -8.924310892151604587e-23
8.415512280000002343e-03 -9.510722457764325858e-23
8.423787120000001544e-03 -1.008577861332925768e-22
8.432061960000002479e-03 -1.064875937680041846e-22
8.440336800000003414e-03 -1.119895999444399005e-22
8.448611640000000880e-03 -1.173568892542023019e-22
8.456886480000000081e-03 -1.225826963403296425e-22
8.465161320000001016e-03 -1.276604260676100841e-22
8.473436160000001952e-03 -1.325836267380975672e-22
8.481711000000001152e-03 -1.373460499509026800e-22
8.489985840000000353e-03 -1.419415972549568423e-22
8.498260680000001288e-03 -1.463643845683021981e-22
8.506535520000002223e-03 -1.506087077425772222e-22
8.514810360000001424e-03 -1.546690663109242744e-22
8.523085200000000625e-03 -1.585401844942084542e-22
8.531360040000003295e-03 -1.622169750399403425e-22
8.539634880000002495e-03 -1.656946125056159100e-22
8.547909719999999961e-03 -1.689684626600236923e-22
8.556184560000000897e-03 -1.720341593526140865e-22
8.564459400000001832e-03 -1.748875583289595229e-22
8.572734240000001033e-03 -1.775247608962795430e-22
8.581009080000000233e-03 -1.799421358750346466e-22
8.589283920000001168e-03 -1.821362721719884755e-22
8.597558760000002104e-03 -1.841040616081307733e-22
8.605833600000001304e-03 -1.858426174955917210e-22
8.614108440000000505e-03 -1.873493576570650106e-22
8.622383280000001440e-03 -1.886219585023974806e-22
8.630658120000002376e-03 -1.896583728403040595e-22
8.638932960000001576e-03 -1.904568626312562008e-22
8.647207800000002512e-03 -1.910159364694841841e-22
8.655482640000003447e-03 -1.913344429634104757e-22
8.663757480000000913e-03 -1.914114788717366293e-22
8.672032320000000113e-03 -1.912464697343099408e-22
8.680307160000001049e-03 -1.908391287439133476e-22
8.688582000000001984e-03 -1.901894592931651933e-22
8.696856840000001185e-03 -1.892978012139867566e-22
8.705131680000000385e-03 -1.881647523634069304e-22
8.713406520000001321e-03 -1.867912669883039710e-22
8.721681360000002256e-03 -1.851785617676565346e-22
8.729956200000001457e-03 -1.833281825384455487e-22
8.738231040000000657e-03 -1.812419759060887134e-22
8.746505880000003327e-03 -1.789220691043355464e-22
8.754780720000002528e-03 -1.763709285326893844e-22
8.763055559999999994e-03 -1.735912708923804348e-22
8.771330400000000929e-03 -1.705861556446268272e-22
8.779605240000001865e-03 -1.673589045457060082e-22
8.787880080000001065e-03 -1.639131445953748907e-22
8.796154920000000266e-03 -1.602528042247757873e-22
8.804429760000001201e-03 -1.563820692077487949e-22
8.812704600000002136e-03 -1.523054527988162699e-22
8.820979440000001337e-03 -1.480277027709005023e-22
8.829254280000000538e-03 -1.435538760917091364e-22
8.837529120000001473e-03 -1.388892774544364201e-22
8.845803960000002408e-03 -1.340394695109097981e-22
8.854078800000001609e-03 -1.290102879545780507e-22
8.862353640000002544e-03 -1.238077802766684333e-22
8.870628480000003480e-03 -1.184382712960833722e-22
8.878903320000000945e-03 -1.129082854424354658e-22
8.887178160000000146e-03 -1.072245924126421897e-22
8.895453000000001081e-03 -1.013941782225338509e-22
8.903727840000002017e-03 -9.542422704090718287e-23
8.912002680000001217e-03 -8.932215338812020987e-23
8.920277520000000418e-03 -8.309553727162468238e-23
8.928552360000001353e-03 -7.675217324421898343e-23
8.936827200000002289e-03 -7.030001484962418635e-23
8.945102040000001489e-03 -6.374718700670583544e-23
8.953376879999998955e-03 -5.710197783947854726e-23
8.961651720000003360e-03 -5.037280405334178626e-23
8.969926560000002561e-03 -4.356823838556369238e-23
8.978201400000000026e-03 -3.669696071284325497e-23
8.986476240000000962e-03 -2.976777978878186894e-23
8.994751080000001897e-03 -2.278960767847829858e-23
9.003025920000001098e-03 -1.577145019057996645e-23
9.011300760000000298e-03 -8.722409968662768337e-24
9.019575600000001234e-03 -1.651654581495752244e-24
9.027850440000002169e-03 5.431573485744791900e-24
9.036125280000001370e-03 1.251798639208604141e-23
9.044400120000000570e-03 1.959825281087204257e-23
9.052674960000001506e-03 2.666301451178921915e-23
9.060949800000002441e-03 3.370289789409988115e-23
9.069224640000001642e-03 4.070852479352131261e-23
9.077499480000002577e-03 4.767052478588386255e-23
9.085774320000003512e-03 5.457954503140925517e-23
9.094049160000000978e-03 6.142626593291705582e-23
9.102324000000000179e-03 6.820140437073029947e-23
9.110598840000001114e-03 7.489574115283073829e-23
9.118873680000002049e-03 8.150011594754233150e-23
9.127148520000001250e-03 8.800545850846462101e-23
9.135423360000000451e-03 9.440279237042425363e-23
9.143698200000001386e-03 1.006832447133758654e-22
9.151973040000002321e-03 1.068380793786433686e-22
9.160247880000001522e-03 1.128586753881207259e-22
9.168522719999998988e-03 1.187365791230177507e-22
9.176797560000003393e-03 1.244634817236044032e-22
9.185072400000002593e-03 1.300312467750207879e-22
9.193347240000000059e-03 1.354319319110374492e-22
9.201622080000000994e-03 1.406577651351053493e-22
9.209896920000001930e-03 1.457012124325886852e-22
9.218171760000001130e-03 1.505549336185948665e-22
9.226446600000000331e-03 1.552118363972351182e-22
9.234721440000001266e-03 1.596650786898786044e-22
9.242996280000002202e-03 1.639080529807963588e-22
9.251271120000001402e-03 1.679344570227644978e-22
9.259545960000000603e-03 1.717382285492530626e-22
9.267820800000001538e-03 1.753136214759493908e-22
9.276095640000002474e-03 1.786551777307911369e-22
9.284370480000001674e-03 1.817577284248785459e-22
9.292645320000002609e-03 1.846164537676405563e-22
9.300920160000003545e-03 1.872268104319179586e-22
9.309195000000001011e-03 1.895846242741281851e-22
9.317469840000000211e-03 1.916860370115903203e-22
9.325744680000001147e-03 1.935275284628684147e-22
9.334019520000002082e-03 1.951059609325561352e-22
9.342294360000001283e-03 1.964185064954302170e-22
9.350569200000000483e-03 1.974627486412530224e-22
9.358844040000001419e-03 1.982366058111887844e-22
9.367118880000002354e-03 1.987383721445735479e-22
9.375393720000001554e-03 1.989667394264683722e-22
9.383668559999999020e-03 1.989207300232240672e-22
9.391943400000003425e-03 1.985997966523570499e-22
9.400218240000002626e-03 1.980037326249058310e-22
9.408493080000000092e-03 1.971327266588231070e-22
9.416767920000001027e-03 1.959873675507227397e-22
9.425042760000001962e-03 1.945685866847253341e-22
9.433317600000001163e-03 1.928777528844419126e-22
9.441592440000000364e-03 1.909165750950280823e-22
9.449867280000001299e-03 1.886871647789731320e-22
9.458142120000002234e-03 1.861920234630901914e-22
9.466416960000001435e-03 1.834339937571271138e-22
9.474691800000000635e-03 1.804163429149079396e-22
9.482966640000001571e-03 1.771426654784734917e-22
9.491241480000002506e-03 1.736169469703289521e-22
9.499516320000001707e-03 1.698435426033880723e-22
9.507791160000002642e-03 1.658271360093314626e-22
9.516066000000003577e-03 1.615728128860396074e-22
9.524340840000001043e-03 1.570859672788660070e-22
9.532615680000000244e-03 1.523723616596282376e-22
9.540890520000001179e-03 1.474380997702227066e-22
9.549165360000002115e-03 1.422895895771186333e-22
9.557440200000001315e-03 1.369336046783585151e-22
9.565715040000000516e-03 1.313771969956408439e-22
9.573989880000001451e-03 1.256277478902991961e-22
9.582264720000002386e-03 1.196929397711880726e-22
9.590539560000001587e-03 1.135807216589369098e-22
9.598814399999999053e-03 1.072993588316350585e-22
9.607089240000003458e-03 1.008573557542065338e-22
9.615364080000002658e-03 9.426349561975401683e-23
9.623638920000000124e-03 8.752681455453045102e-23
9.631913760000001060e-03 8.065656843167108989e-23
9.640188600000001995e-03 7.366226963992840752e-23
9.648463440000001196e-03 6.655362110773652737e-23
9.656738280000000396e-03 5.934054111185433937e-23
9.665013120000001332e-03 5.203313991170716169e-23
9.673287960000002267e-03 4.464168844242323165e-23
9.681562800000001467e-03 3.717663963056708799e-23
9.689837640000000668e-03 2.964857651246755320e-23
9.698112480000001603e-03 2.206822159283153660e-23
9.706387320000002539e-03 1.444641509490914872e-23
9.714662160000001739e-03 6.794088390078732959e-24
9.722937000000002675e-03 -8.777332784277599423e-25
9.731211840000003610e-03 -8.557966709596977141e-24
9.739486680000001076e-03 -1.623547492528184569e-23
9.747761520000000277e-03 -2.389908938960217039e-23
9.756036360000001212e-03 -3.153762608525185549e-23
9.764311200000002147e-03 -3.913990071244168432e-23
9.772586040000001348e-03 -4.669474754863649602e-23
9.780860880000000548e-03 -5.419103029371842274e-23
9.789135720000001484e-03 -6.161766827636915883e-23
9.797410560000002419e-03 -6.896363830746835968e-23
9.805685400000001620e-03 -7.621800616749827851e-23
9.813960239999999086e-03 -8.336993593684009855e-23
9.822235080000003490e-03 -9.040870040841691562e-23
9.830509920000002691e-03 -9.732372128891729188e-23
9.838784760000000157e-03 -1.041045538419466031e-22
9.847059600000001092e-03 -1.107409315363756483e-22
9.855334440000002028e-03 -1.172227708645523451e-22
9.863609280000001228e-03 -1.235401694092679554e-22
9.871884120000000429e-03 -1.296834599112743729e-22
9.880158960000001364e-03 -1.356431770023840406e-22
9.888433800000002299e-03 -1.414101030361662555e-22
9.896708640000001500e-03 -1.469752820130508250e-22
9.904983480000000701e-03 -1.523299986677400412e-22
9.913258320000001636e-03 -1.574658522938740115e-22
9.921533160000002571e-03 -1.623747158081676402e-22
9.929808000000001772e-03 -1.670487731211639205e-22
9.938082840000002707e-03 -1.714805532583710634e-22
9.946357680000003643e-03 -1.756628830731940261e-22
9.954632520000001109e-03 -1.795889691962102634e-22
9.962907360000000309e-03 -1.832523580062551669e-22
9.971182200000001244e-03 -1.866469463260420848e-22
9.979457040000002180e-03 -1.897670407504116187e-22
9.987731880000001380e-03 -1.926072900095343827e-22
9.996006720000000581e-03 -1.951627624893277290e-22
1.000428156000000152e-02 -1.974289312967954130e-22
1.001255640000000245e-02 -1.994016498774851911e-22
1.002083124000000165e-02 -2.010772401256766959e-22
1.002910608000000259e-02 -2.024524153752433697e-22
1.003738092000000352e-02 -2.035243350886743381e-22
1.004565576000000272e-02 -2.042906249435685473e-22
1.005393060000000019e-02 -2.047493143456752415e-22
1.006220544000000112e-02 -2.048989336864106642e-22
1.007048028000000206e-02 -2.047384517752811581e-22
1.007875512000000126e-02 -2.042672877306435030e-22
1.008702996000000046e-02 -2.034853729926986262e-22
1.009530480000000140e-02 -2.023930626467172850e-22
1.010357964000000233e-02 -2.009912167559270164e-22
1.011185448000000153e-02 -1.992811749812721971e-22
1.012012932000000247e-02 -1.972647161323567835e-22
1.012840416000000167e-02 -1.949441468754019799e-22
1.013667900000000260e-02 -1.923222126373877070e-22
1.014495384000000180e-02 -1.894021371435218916e-22
1.015322868000000274e-02 -1.861876478315719766e-22
1.016150352000000021e-02 -1.826828959668856848e-22
1.016977836000000114e-02 -1.788925416633196489e-22
1.017805320000000034e-02 -1.748216977607174104e-22
1.018632804000000128e-02 -1.704759116100314875e-22
1.019460288000000221e-02 -1.658612283565368157e-22
1.020287772000000141e-02 -1.609840971738647924e-22
1.021115256000000235e-02 -1.558514177339490899e-22
1.021942740000000155e-02 -1.504705331402308705e-22
1.022770224000000248e-02 -1.448491646771641668e-22
1.023597708000000168e-02 -1.389954785560776709e-22
1.024425192000000262e-02 -1.329180183819870477e-22
1.025252676000000182e-02 -1.266256977979443473e-22
1.026080160000000276e-02 -1.201278344324647394e-22
1.026907644000000022e-02 -1.134340689818300452e-22
1.027735128000000116e-02 -1.065544007661768106e-22
1.028562612000000036e-02 -9.949916446750517880e-23
1.029390096000000129e-02 -9.227898016838709119e-23
1.030217580000000223e-02 -8.490479225324968818e-23
1.031045064000000143e-02 -7.738780882956905926e-23
1.031872548000000236e-02 -6.973949373650405909e-23
1.032700032000000157e-02 -6.197157569767199837e-23
1.033527516000000250e-02 -5.409598856359177723e-23
1.034355000000000170e-02 -4.612488581460594561e-23
1.035182484000000264e-02 -3.807061395456702943e-23
1.036009968000000184e-02 -2.994567704126018742e-23
1.036837452000000277e-02 -2.176274573963246270e-23
1.037664936000000024e-02 -1.353461412287153977e-23
1.038492420000000117e-02 -5.274186805540212763e-24
1.039319904000000037e-02 3.005533466020671280e-24
1.040147388000000131e-02 1.129148108195595055e-23
1.040974872000000225e-02 1.957053596120665178e-23
1.041802356000000145e-02 2.782955107225040864e-23
1.042629840000000238e-02 3.605537089784810690e-23
1.043457324000000158e-02 4.423485157798546562e-23
1.044284808000000252e-02 5.235488509678371216e-23
1.045112292000000172e-02 6.040241125157439452e-23
1.045939776000000265e-02 6.836445178153177300e-23
1.046767260000000185e-02 7.622811904750907125e-23
1.047594744000000279e-02 8.398063873253825796e-23
1.048422228000000025e-02 9.160938445196090544e-23
1.049249712000000119e-02 9.910187377462283379e-23
1.050077196000000039e-02 1.064458116088278927e-22
1.050904680000000133e-02 1.136291067102573780e-22
1.051732164000000226e-02 1.206398701825778398e-22
1.052559648000000146e-02 1.274664750376099722e-22
1.053387132000000240e-02 1.340975445027068062e-22
1.054214616000000160e-02 1.405219718366605902e-22
1.055042100000000253e-02 1.467289749642325317e-22
1.055869584000000173e-02 1.527080650967510117e-22
1.056697068000000267e-02 1.584490969567788068e-22
1.057524552000000187e-02 1.639422957982314782e-22
1.058352036000000281e-02 1.691782276084542771e-22
1.059179520000000027e-02 1.741478751489869547e-22
1.060007004000000121e-02 1.788426263929530878e-22
1.060834488000000041e-02 1.832542672557225863e-22
1.061661972000000134e-02 1.873750645901971891e-22
1.062489456000000228e-02 1.911977176684865406e-22
1.063316940000000148e-02 1.947153877214012730e-22
1.064144424000000241e-02 1.979217561802458197e-22
1.064971908000000161e-02 2.008109616839024726e-22
1.065799392000000255e-02 2.033776654084286616e-22
1.066626876000000175e-02 2.056170668261485593e-22
1.067454360000000269e-02 2.075248527600973039e-22
1.068281844000000189e-02 2.090972866469632168e-22
1.069109328000000282e-02 2.103311768666479096e-22
1.069936812000000029e-02 2.112238551101656894e-22
1.070764296000000122e-02 2.117732649244369683e-22
1.071591780000000042e-02 2.119778905375759119e-22
1.072419264000000136e-02 2.118367743477106731e-22
1.073246748000000229e-02 2.113495772671727487e-22
1.074074232000000149e-02 2.105164953836542156e-22
1.074901716000000243e-02 2.093383128269808957e-22
1.075729200000000163e-02 2.078164201504410644e-22
1.076556684000000257e-02 2.059527412635932328e-22
1.077384168000000177e-02 2.037498076273732657e-22
1.078211652000000270e-02 2.012107300670974511e-22
1.079039136000000190e-02 1.983391500497765785e-22
1.079866620000000284e-02 1.951393158624180787e-22
1.080694104000000030e-02 1.916160175270078592e-22
1.081521588000000124e-02 1.877745700896564706e-22
1.082349072000000044e-02 1.836208741478039985e-22
1.083176556000000137e-02 1.791613331333628177e-22
1.084004040000000231e-02 1.744028668940456695e-22
1.084831524000000151e-02 1.693529428658177633e-22
1.085659008000000245e-02 1.640194941562235026e-22
1.086486492000000165e-02 1.584109529806969908e-22
1.087313976000000258e-02 1.525362474388768963e-22
1.088141460000000178e-02 1.464047329068039518e-22
1.088968944000000272e-02 1.400262330212865868e-22
1.089796428000000192e-02 1.334110068318970380e-22
1.090623912000000285e-02 1.265696998789457314e-22
1.091451396000000032e-02 1.195133818104558783e-22
1.092278880000000126e-02 1.122534941351577166e-22
1.093106364000000046e-02 1.048018212125841625e-22
1.093933848000000139e-02 9.717051601252466397e-23
1.094761332000000233e-02 8.937203997029854563e-23
1.095588816000000153e-02 8.141914980717299139e-23
1.096416300000000246e-02 7.332490618109647671e-23
1.097243784000000166e-02 6.510261583729142463e-23
1.098071268000000260e-02 5.676582720691425519e-23
1.098898752000000180e-02 4.832832113986251697e-23
1.099726236000000273e-02 3.980406182105985612e-23
1.100553720000000194e-02 3.120719345164154411e-23
1.101381204000000287e-02 2.255201669353102887e-23
1.102208688000000034e-02 1.385295109570913382e-23
1.103036172000000127e-02 5.124526843972449993e-24
1.103863656000000047e-02 -3.618646137906699038e-24
1.104691140000000141e-02 -1.236190471984829053e-23
1.105518624000000234e-02 -2.109054959851662622e-23
1.106346108000000154e-02 -2.978987713074845121e-23
1.107173592000000248e-02 -3.844519832135356709e-23
1.108001076000000168e-02 -4.704186746935522029e-23
1.108828560000000261e-02 -5.556530976804178269e-23
1.109656044000000182e-02 -6.400103652118382110e-23
1.110483528000000275e-02 -7.233468508180715502e-23
1.111311012000000195e-02 -8.055203627768031765e-23
1.112138496000000289e-02 -8.863902925859492993e-23
1.112965980000000035e-02 -9.658180915738741830e-23
1.113793464000000129e-02 -1.043667321607618716e-22
1.114620948000000049e-02 -1.119803841146798806e-22
1.115448432000000142e-02 -1.194096334638226291e-22
1.116275916000000236e-02 -1.266416253458587747e-22
1.117103400000000156e-02 -1.336638072644641325e-22
1.117930884000000250e-02 -1.404639840427681121e-22
1.118758368000000170e-02 -1.470303007697854456e-22
1.119585852000000263e-02 -1.533512760185450911e-22
1.120413336000000183e-02 -1.594158523941865205e-22
1.121240820000000277e-02 -1.652133688754165002e-22
1.122068304000000197e-02 -1.707336009488205213e-22
1.122895788000000290e-02 -1.759668037450157912e-22
1.123723272000000037e-02 -1.809036781992528774e-22
1.124550756000000130e-02 -1.855354190331516629e-22
1.125378240000000050e-02 -1.898537511435999188e-22
1.126205724000000144e-02 -1.938508914444737636e-22
1.127033208000000238e-02 -1.975196032956966099e-22
1.127860692000000158e-02 -2.008532222236607998e-22
1.128688176000000251e-02 -2.038456130189497694e-22
1.129515660000000171e-02 -2.064912270885504029e-22
1.130343144000000265e-02 -2.087851171591381582e-22
1.131170628000000185e-02 -2.107228928966275931e-22
1.131998112000000278e-02 -2.123007811529904691e-22
1.132825596000000198e-02 -2.135156330142182948e-22
1.133653080000000292e-02 -2.143648786670759249e-22
1.134480564000000039e-02 -2.148465885659838889e-22
1.135308048000000132e-02 -2.149594714012425866e-22
1.136135532000000052e-02 -2.147028272371431324e-22
1.136963016000000146e-02 -2.140766065438463388e-22
1.137790500000000239e-02 -2.130814013182544924e-22
1.138617984000000159e-02 -2.117183981657677310e-22
1.139445468000000253e-02 -2.099894354041778939e-22
1.140272952000000173e-02 -2.078969905898497042e-22
1.141100436000000266e-02 -2.054441330185928583e-22
1.141927920000000186e-02 -2.026345769512296622e-22
1.142755404000000280e-02 -1.994726648456019920e-22
1.143582888000000200e-02 -1.959633179022050973e-22
1.144410372000000294e-02 -1.921120828989657418e-22
1.145237856000000040e-02 -1.879251130853997856e-22
1.146065340000000134e-02 -1.834091178581513002e-22
1.146892824000000054e-02 -1.785714034617853047e-22
1.147720308000000147e-02 -1.734198545661728519e-22
1.148547792000000241e-02 -1.679628832277839763e-22
1.149375276000000161e-02 -1.622094625839049290e-22
1.150202760000000254e-02 -1.561691087891442629e-22
1.151030244000000174e-02 -1.498518282732977809e-22
1.151857728000000268e-02 -1.432681424474846429e-22
1.152685212000000188e-02 -1.364290699528746957e-22
1.153512696000000282e-02 -1.293460730804575227e-22
1.154340180000000202e-02 -1.220310733940723181e-22
1.155167664000000295e-02 -1.144964356819905868e-22
1.155995148000000042e-02 -1.067549149529317092e-22
1.156822632000000135e-02 -9.881966332675942160e-23
1.157650116000000055e-02 -9.070421525356649064e-23
1.158477600000000149e-02 -8.242243577178618961e-23
1.159305084000000242e-02 -7.398851871526591907e-23
1.160132568000000163e-02 -6.541697204306160926e-23
1.160960052000000256e-02 -5.672256861215252282e-23
1.161787536000000176e-02 -4.792033655777555891e-23
1.162615020000000270e-02 -3.902554307638432937e-23
1.163442504000000190e-02 -3.005364856803752524e-23
1.164269988000000283e-02 -2.102029026290608366e-23
1.165097472000000203e-02 -1.194126209787458376e-23
1.165924956000000297e-02 -2.832473484337300251e-24
1.166752440000000043e-02 6.290071479671872672e-24
1.167579924000000137e-02 1.541029904415372461e-23
1.168407408000000057e-02 2.451210116805456564e-23
1.169234892000000151e-02 3.357935786380653579e-23
1.170062376000000244e-02 4.259596799762908279e-23
1.170889860000000164e-02 5.154587996701986169e-23
1.171717344000000258e-02 6.041311331158249985e-23
1.172544828000000178e-02 6.918179547224924250e-23
1.173372312000000271e-02 7.783618997143689428e-23
1.174199796000000191e-02 8.636071415635070729e-23
1.175027280000000285e-02 9.473997947300666434e-23
1.175854764000000205e-02 1.029588201983484808e-22
1.176682248000000298e-02 1.110023047333547341e-22
1.177509732000000045e-02 1.188557763346877868e-22
1.178337216000000139e-02 1.265048874276985348e-22
1.179164700000000059e-02 1.339356033665062010e-22
1.179992184000000152e-02 1.411342400071571204e-22
1.180819668000000246e-02 1.480875071880401545e-22
1.181647152000000166e-02 1.547825041967995204e-22
1.182474636000000259e-02 1.612067490600799226e-22
1.183302120000000179e-02 1.673482310497339649e-22
1.184129604000000273e-02 1.731954000444292855e-22
1.184957088000000193e-02 1.787371842481208685e-22
1.185784572000000286e-02 1.839630492388744708e-22
1.186612056000000207e-02 1.888629897629253007e-22
1.187439540000000300e-02 1.934275345548676934e-22
1.188267024000000047e-02 1.976478057913299610e-22
1.189094508000000140e-02 2.015155220881755028e-22
1.189921992000000060e-02 2.050229870927520860e-22
1.190749476000000154e-02 2.081631392275507524e-22
1.191576960000000247e-02 2.109295714254920297e-22
1.192404444000000167e-02 2.133165040209497149e-22
1.193231928000000261e-02 2.153188182785739133e-22
1.194059412000000181e-02 2.169320969741455011e-22
1.194886896000000275e-02 2.181525886157249836e-22
1.195714380000000195e-02 2.189772221708463303e-22
1.196541864000000288e-02 2.194036612643638469e-22
1.197369348000000208e-02 2.194302696165043612e-22
1.198196832000000302e-02 2.190561047848312876e-22
1.199024316000000048e-02 2.182809691407172703e-22
1.199851800000000142e-02 2.171053932321265121e-22
1.200679284000000062e-02 2.155306087912552610e-22
1.201506768000000155e-02 2.135585851084435118e-22
1.202334252000000249e-02 2.111920400489260003e-22
1.203161736000000169e-02 2.084343959168856011e-22
1.203989220000000263e-02 2.052897929341909581e-22
1.204816704000000183e-02 2.017631211053531151e-22
1.205644188000000276e-02 1.978599694463924815e-22
1.206471672000000196e-02 1.935866162283054982e-22
1.207299156000000290e-02 1.889500633272728890e-22
1.208126640000000210e-02 1.839580008770108097e-22
1.208954124000000303e-02 1.786187762271965238e-22
1.209781608000000050e-02 1.729414142727572068e-22
1.210609092000000143e-02 1.669356098599115299e-22
1.211436576000000064e-02 1.606116791721051539e-22
1.212264060000000157e-02 1.539805580857823865e-22
1.213091544000000251e-02 1.470538140792922499e-22
1.213919028000000171e-02 1.398435926925376810e-22
1.214746512000000264e-02 1.323625954689702220e-22
1.215573996000000184e-02 1.246240893327160969e-22
1.216401480000000278e-02 1.166418692543762792e-22
1.217228964000000198e-02 1.084302181764093220e-22
1.218056448000000291e-02 1.000039012766775485e-22
1.218883932000000211e-02 9.137815052716201714e-23
1.219711416000000305e-02 8.256861407890907700e-23
1.220538900000000052e-02 7.359133474581872766e-23
1.221366384000000145e-02 6.446274091126224988e-23
1.222193868000000065e-02 5.519960014782334344e-23
1.223021352000000159e-02 4.581898460130768787e-23
1.223848836000000252e-02 3.633825327794397333e-23
1.224676320000000172e-02 2.677501939067015534e-23
1.225503804000000266e-02 1.714710736988959718e-23
1.226331288000000186e-02 7.472526678040903133e-24
1.227158772000000279e-02 -2.230554849064254022e-24
1.227986256000000199e-02 -1.194385275218969795e-23
1.228813740000000293e-02 -2.164899710846451522e-23
1.229641224000000213e-02 -3.132756173429781381e-23
1.230468708000000307e-02 -4.096110201334130153e-23
1.231296192000000053e-02 -5.053118889877785950e-23
1.232123676000000147e-02 -6.001943948396371978e-23
1.232951160000000067e-02 -6.940755725174348550e-23
1.233778644000000160e-02 -7.867736683380433143e-23
1.234606128000000254e-02 -8.781084324942247799e-23
1.235433612000000174e-02 -9.679015055380479948e-23
1.236261096000000267e-02 -1.055976834937945495e-22
1.237088580000000188e-02 -1.142160914078738487e-22
1.237916064000000281e-02 -1.226283086497423315e-22
1.238743548000000201e-02 -1.308176023125919088e-22
1.239571032000000295e-02 -1.387675991156312475e-22
1.240398516000000215e-02 -1.464623067882465947e-22
1.241226000000000308e-02 -1.538861521172675857e-22
1.242053484000000055e-02 -1.610240278471773269e-22
1.242880968000000148e-02 -1.678613050992757104e-22
1.243708452000000068e-02 -1.743838578219735957e-22
1.244535936000000162e-02 -1.805781106353048229e-22
1.245363420000000255e-02 -1.864310675047507903e-22
1.246190904000000176e-02 -1.919303196345398937e-22
1.247018388000000269e-02 -1.970640741019730490e-22
1.247845872000000189e-02 -2.018212058066409731e-22
1.248673356000000283e-02 -2.061912650147609624e-22
1.249500840000000203e-02 -2.101644889000265577e-22
1.250328324000000296e-02 -2.137318368865608350e-22
1.251155808000000216e-02 -2.168850326747451123e-22
1.251983292000000310e-02 -2.196165569814668371e-22
1.252810776000000056e-02 -2.219196609342688315e-22
1.253638260000000150e-02 -2.237884059970923126e-22
1.254465744000000070e-02 -2.252176854395026595e-22
1.255293228000000164e-02 -2.262032138572762827e-22
1.256120712000000257e-02 -2.267415420183202579e-22
1.256948196000000177e-02 -2.268300986170148280e-22
1.257775680000000271e-02 -2.264671906520366131e-22
1.258603164000000191e-02 -2.256519927639894231e-22
1.259430648000000284e-02 -2.243845599734020778e-22
1.260258132000000204e-02 -2.226658623102986973e-22
1.261085616000000298e-02 -2.204977669866165832e-22
1.261913100000000218e-02 -2.178830283160149024e-22
1.262740584000000311e-02 -2.148252984881212672e-22
1.263568068000000058e-02 -2.113291527699838985e-22
1.264395552000000152e-02 -2.074000612716969361e-22
1.265223036000000072e-02 -2.030443772857459418e-22
1.266050520000000165e-02 -1.982693429965705126e-22
1.266878004000000259e-02 -1.930831003023720668e-22
1.267705488000000179e-02 -1.874946538287330516e-22
1.268532972000000272e-02 -1.815138543270723993e-22
1.269360456000000192e-02 -1.751513971634740703e-22
1.270187940000000286e-02 -1.684188213852461970e-22
1.271015424000000206e-02 -1.613284689014727250e-22
1.271842908000000300e-02 -1.538934634393004492e-22
1.272670392000000220e-02 -1.461277013296856507e-22
1.273497876000000313e-02 -1.380458407522811556e-22
1.274325360000000060e-02 -1.296632567107929877e-22
1.275152844000000153e-02 -1.209960133987668739e-22
1.275980328000000073e-02 -1.120608450219100498e-22
1.276807812000000167e-02 -1.028751362395735373e-22
1.277635296000000260e-02 -9.345687414172330613e-23
1.278462780000000180e-02 -8.382461477499911373e-23
1.279290264000000274e-02 -7.399745546101286091e-23
1.280117748000000194e-02 -6.399500879727926580e-23
1.280945232000000288e-02 -5.383735397172344204e-23
1.281772716000000208e-02 -4.354499841224598183e-23
1.282600200000000301e-02 -3.313884338224280036e-23
1.283427684000000221e-02 -2.264015135711515182e-23
1.284255168000000315e-02 -1.207049767291601270e-23
1.285082652000000061e-02 -1.451727396227147655e-24
1.285910136000000155e-02 9.194084502091623066e-24
1.286737620000000075e-02 1.984467316215195292e-23
1.287565104000000168e-02 3.047763181803925327e-23
1.288392588000000262e-02 4.107045792034669698e-23
1.289220072000000182e-02 5.160059613753935248e-23
1.290047556000000276e-02 6.204548317681248301e-23
1.290875040000000196e-02 7.238259671461322389e-23
1.291702524000000289e-02 8.258950166685354256e-23
1.292530008000000209e-02 9.264389501005222727e-23
1.293357492000000303e-02 1.025236522322461965e-22
1.294184976000000223e-02 1.122068798526161431e-22
1.295012460000000316e-02 1.216719609578166246e-22
1.295839944000000063e-02 1.308975992393927991e-22
1.296667428000000157e-02 1.398628642938854042e-22
1.297494912000000077e-02 1.485472434087732713e-22
1.298322396000000170e-02 1.569306905213899065e-22
1.299149880000000264e-02 1.649936654582689344e-22
1.299977364000000184e-02 1.727171774080471394e-22
1.300804848000000277e-02 1.800828306255853019e-22
1.301632332000000197e-02 1.870728788667052303e-22
1.302459816000000291e-02 1.936702627319309218e-22
1.303287300000000211e-02 1.998586477794504227e-22
1.304114784000000304e-02 2.056224657693834488e-22
1.304942268000000224e-02 2.109469616647331918e-22
1.305769752000000318e-02 2.158182419075822927e-22
1.306597236000000065e-02 2.202233022705353659e-22
1.307424720000000158e-02 2.241500625277974288e-22
1.308252204000000078e-02 2.275874014128048241e-22
1.309079688000000172e-02 2.305251993578450583e-22
1.309907172000000265e-02 2.329543725932524580e-22
1.310734656000000185e-02 2.348668917104787194e-22
1.311562140000000279e-02 2.362558085146706272e-22
1.312389624000000199e-02 2.371152825878158141e-22
1.313217108000000292e-02 2.374406163719358516e-22
1.314044592000000213e-02 2.372282778054221309e-22
1.314872076000000306e-02 2.364759104456289057e-22
1.315699560000000226e-02 2.351823510339782903e-22
1.316527044000000320e-02 2.333476454708492591e-22
1.317354528000000066e-02 2.309730709306086315e-22
1.318182012000000160e-02 2.280611472441442396e-22
1.319009496000000080e-02 2.246156333410883353e-22
1.319836980000000173e-02 2.206415307435465748e-22
1.320664464000000267e-02 2.161450849243410680e-22
1.321491948000000187e-02 2.111337889339647440e-22
1.322319432000000280e-02 2.056163846665196005e-22
1.323146916000000201e-02 1.996028446463648221e-22
1.323974400000000294e-02 1.931043602243545444e-22
1.324801884000000214e-02 1.861333286781399019e-22
1.325629368000000308e-02 1.787033385652248050e-22
1.326456852000000228e-02 1.708291585078159979e-22
1.327284336000000321e-02 1.625267095469212467e-22
1.328111820000000068e-02 1.538130354862474755e-22
1.328939304000000161e-02 1.447062751477069526e-22
1.329766788000000081e-02 1.352256317032067730e-22
1.330594272000000175e-02 1.253913412290727133e-22
1.331421756000000269e-02 1.152246398955472796e-22
1.332249240000000189e-02 1.047477182528748413e-22
1.333076724000000282e-02 9.398367876843127182e-23
1.333904208000000202e-02 8.295649268339914826e-23
1.334731692000000296e-02 7.169095459053107217e-23
1.335559176000000216e-02 6.021263592401288168e-23
1.336386660000000309e-02 4.854783586073965595e-23
1.337214144000000229e-02 3.672352381345008753e-23
1.338041628000000323e-02 2.476728345252223570e-23
1.338869112000000069e-02 1.270725544992783638e-23
1.339696596000000163e-02 5.720783149282589497e-25
1.340524080000000083e-02 -1.160917233938564176e-23
1.341351564000000177e-02 -2.380704579634329575e-23
1.342179048000000270e-02 -3.599178246415732621e-23
1.343006532000000190e-02 -4.813338028822414711e-23
1.343834016000000284e-02 -6.020166192901018552e-23
1.344661500000000204e-02 -7.216634367979018442e-23
1.345488984000000297e-02 -8.399710614355314002e-23
1.346316468000000217e-02 -9.566366678913380336e-23
1.347143952000000311e-02 -1.071358548686593487e-22
1.347971436000000231e-02 -1.183836867785913461e-22
1.348798920000000325e-02 -1.293774419060841532e-22
1.349626404000000071e-02 -1.400877392358983324e-22
1.350453888000000165e-02 -1.504856143428975263e-22
1.351281372000000085e-02 -1.605425963320429364e-22
1.352108856000000178e-02 -1.702307844860968520e-22
1.352936340000000272e-02 -1.795229256699861334e-22
1.353763824000000192e-02 -1.883924890685546679e-22
1.354591308000000285e-02 -1.968137398225237239e-22
1.355418792000000205e-02 -2.047618131010241373e-22
1.356246276000000299e-02 -2.122127879191171992e-22
1.357073760000000219e-02 -2.191437605018539983e-22
1.357901244000000313e-02 -2.255329169233077157e-22
1.358728728000000233e-02 -2.313596048601061655e-22
1.359556212000000326e-02 -2.366044056149965239e-22
1.360383696000000073e-02 -2.412492029149735774e-22
1.361211180000000166e-02 -2.452772483742163112e-22
1.362038664000000086e-02 -2.486732254145133042e-22
1.362866148000000180e-02 -2.514233098248096564e-22
1.363693632000000273e-02 -2.535152265556338491e-22
1.364521116000000193e-02 -2.549383027676802011e-22
1.365348600000000287e-02 -2.556835174023148010e-22
1.366176084000000207e-02 -2.557435475179851145e-22
1.367003568000000301e-02 -2.551128118064481516e-22
1.367831052000000221e-02 -2.537875111165100323e-22
1.368658536000000314e-02 -2.517656627936092502e-22
1.369486020000000234e-02 -2.490471319740562664e-22
1.370313504000000328e-02 -2.456336593281439309e-22
1.371140988000000074e-02 -2.415288848974821806e-22
1.371968472000000168e-02 -2.367383676404145005e-22
1.372795956000000088e-02 -2.312695999885521013e-22
1.373623440000000182e-02 -2.251320167852708135e-22
1.374450924000000275e-02 -2.183369984238484229e-22
1.375278408000000195e-02 -2.108978685202211184e-22
1.376105892000000289e-02 -2.028298866686773532e-22
1.376933376000000209e-02 -1.941502366567339648e-22
1.377760860000000302e-02 -1.848780102311961747e-22
1.378588344000000222e-02 -1.750341850889671037e-22
1.379415828000000316e-02 -1.646415978634372016e-22
1.380243312000000236e-02 -1.537249120987755670e-22
1.381070796000000329e-02 -1.423105807714040651e-22
1.381898280000000076e-02 -1.304268027746941805e-22
1.382725764000000170e-02 -1.181034727658474352e-22
1.383553248000000090e-02 -1.053721244895118826e-22
1.384380732000000183e-02 -9.226586871401067147e-23
1.385208216000000277e-02 -7.881932734145252119e-23
1.386035700000000197e-02 -6.506856451602966748e-23
1.386863184000000290e-02 -5.105101406168797343e-23
1.387690668000000210e-02 -3.680540153276784864e-23
1.388518152000000304e-02 -2.237165953581076911e-23
1.389345636000000224e-02 -7.790836556049632184e-24
1.390173120000000317e-02 6.894999027293632049e-24
1.391000604000000238e-02 2.164285796785093659e-23
1.391828088000000331e-02 3.640893178719453921e-23
1.392655572000000078e-02 5.114869819528424954e-23
1.393483056000000171e-02 6.581703204941952130e-23
1.394310540000000091e-02 8.036832279428342841e-23
1.395138024000000185e-02 9.475659792347993814e-23
1.395965508000000278e-02 1.089356510940707191e-22
1.396792992000000198e-02 1.228591735858018968e-22
1.397620476000000292e-02 1.364808883858688474e-22
1.398447960000000212e-02 1.497546866725816434e-22
1.399275444000000306e-02 1.626347667121780969e-22
1.400102928000000226e-02 1.750757752967738813e-22
1.400930412000000319e-02 1.870329519182307809e-22
1.401757896000000239e-02 1.984622757919389589e-22
1.402585380000000333e-02 2.093206155389059977e-22
1.403412864000000079e-02 2.195658809599855402e-22
1.404240348000000173e-02 2.291571761645845095e-22
1.405067832000000093e-02 2.380549534253647836e-22
1.405895316000000186e-02 2.462211673049606588e-22
1.406722800000000280e-02 2.536194286234451335e-22
1.407550284000000200e-02 2.602151578060799906e-22
1.408377768000000294e-02 2.659757373603694090e-22
1.409205252000000214e-02 2.708706636890233542e-22
1.410032736000000307e-02 2.748716987063672648e-22
1.410860220000000227e-02 2.779530212966859754e-22
1.411687704000000321e-02 2.800913775526511683e-22
1.412515188000000241e-02 2.812662277264864451e-22
1.413342672000000334e-02 2.814598878015828402e-22
1.414170156000000081e-02 2.806576646961835499e-22
1.414997640000000174e-02 2.788479856128437187e-22
1.415825124000000268e-02 2.760225229130222806e-22
1.416652608000000188e-02 2.721763159734940181e-22
1.417480092000000282e-02 2.673078900775185818e-22
1.418307576000000202e-02 2.614193694597595444e-22
1.419135060000000295e-02 2.545165845164978773e-22
1.419962544000000215e-02 2.466091712666970722e-22
1.420790028000000309e-02 2.377106617410496917e-22
1.421617512000000229e-02 2.278385645824488196e-22
1.422444996000000322e-02 2.170144354785602826e-22
1.423272480000000242e-02 2.052639370227769759e-22
1.424099964000000336e-02 1.926168870219277012e-22
1.424927448000000083e-02 1.791072948943343454e-22
1.425754932000000176e-02 1.647733813841231353e-22
1.426582416000000270e-02 1.496575746917215661e-22
1.427409900000000190e-02 1.338064884116573063e-22
1.428237384000000283e-02 1.172708815270948908e-22
1.429064868000000203e-02 1.001056044086681897e-22
1.429892352000000297e-02 8.236953494857131400e-23
1.430719836000000217e-02 6.412550836017559859e-23
1.431547320000000310e-02 4.544023768148212926e-23
1.432374804000000230e-02 2.638421021502168286e-23
1.433202288000000324e-02 7.031566251026317306e-24
1.434029772000000244e-02 -1.254004602092003435e-23
1.434857256000000338e-02 -3.224964195579168005e-23
1.435684740000000084e-02 -5.201309632489721489e-23
1.436512224000000178e-02 -7.174337148248220921e-23
1.437339708000000271e-02 -9.135078494768552442e-23
1.438167192000000191e-02 -1.107433047508871473e-22
1.438994676000000285e-02 -1.298268750236959067e-22
1.439822160000000205e-02 -1.485057672102027612e-22
1.440649644000000298e-02 -1.666829608151189656e-22
1.441477128000000218e-02 -1.842605562302445448e-22
1.442304612000000312e-02 -2.011402198757703329e-22
1.443132096000000232e-02 -2.172236768828899255e-22
1.443959580000000326e-02 -2.324132651123020014e-22
1.444787064000000246e-02 -2.466125443700142555e-22
1.445614548000000339e-02 -2.597269546133628608e-22
1.446442032000000086e-02 -2.716645228514157320e-22
1.447269516000000179e-02 -2.823366208249893803e-22
1.448097000000000273e-02 -2.916587265268601445e-22
1.448924484000000193e-02 -2.995512087591757549e-22
1.449751968000000286e-02 -3.059401569387171534e-22
1.450579452000000207e-02 -3.107582163519755641e-22
1.451406936000000300e-02 -3.139453818144791154e-22
1.452234420000000220e-02 -3.154498189204376711e-22
1.453061904000000314e-02 -3.152286936481934630e-22
1.453889388000000234e-02 -3.132488637626430067e-22
1.454716872000000327e-02 -3.094875519365214284e-22
1.455544356000000074e-02 -3.039329962892446016e-22
1.456371840000000341e-02 -2.965848573155313174e-22
1.457199324000000087e-02 -2.874545576478977972e-22
1.458026808000000181e-02 -2.765655362265057720e-22
1.458854292000000274e-02 -2.639531944748140803e-22
1.459681776000000195e-02 -2.496648365345954867e-22
1.460509260000000288e-02 -2.337594942884774538e-22
1.461336744000000208e-02 -2.163076034279843701e-22
1.462164228000000302e-02 -1.973908675368067405e-22
1.462991712000000222e-02 -1.771020486932494627e-22
1.463819196000000315e-02 -1.555449548590076168e-22
1.464646680000000235e-02 -1.328345850543789664e-22
1.465474164000000329e-02 -1.090972573342630968e-22
1.466301648000000075e-02 -8.447093683537569274e-23
1.467129132000000342e-02 -5.910527893692723188e-23
1.467956616000000089e-02 -3.316164567087996852e-23
1.468784100000000183e-02 -6.812636522796816008e-24
1.469611584000000276e-02 1.975868225592472377e-23
1.470439068000000196e-02 4.636005499070409717e-23
1.471266552000000290e-02 7.279166412413727219e-23
1.472094036000000210e-02 9.884804913318299167e-23
1.472921520000000303e-02 1.243201396717658228e-22
1.473749004000000223e-02 1.489972259262368115e-22
1.474576488000000317e-02 1.726687191427082269e-22
1.475403972000000237e-02 1.951255736254740924e-22
1.476231456000000331e-02 2.161613819089102169e-22
1.477058940000000077e-02 2.355731557487444175e-22
1.477886424000000344e-02 2.531620328268157936e-22
1.478713908000000091e-02 2.687340532296977209e-22
1.479541392000000184e-02 2.821013675030993997e-22
1.480368876000000278e-02 2.930840817413316683e-22
1.481196360000000198e-02 3.015129416310314911e-22
1.482023844000000291e-02 3.072330811023587815e-22
1.482851328000000211e-02 3.101086334259328843e-22
1.483678812000000305e-02 3.100282432579739910e-22
1.484506296000000225e-02 3.069111390500480039e-22
1.485333780000000319e-02 3.007131572503220429e-22
1.486161264000000239e-02 2.914325045282723968e-22
1.486988748000000332e-02 2.791145031426226252e-22
1.487816232000000079e-02 2.638547015085800850e-22
1.488643716000000346e-02 2.458002312303231391e-22
1.489471200000000092e-02 2.251490715144668767e-22
1.490298684000000186e-02 2.021471407863178510e-22
1.491126168000000279e-02 1.770837321732214939e-22
1.491953652000000199e-02 1.502856949111487577e-22
1.492781136000000293e-02 1.221108310649350512e-22
1.493608620000000213e-02 9.294104032194415015e-23
1.494436104000000307e-02 6.317559032904552249e-23
1.495263588000000227e-02 3.322460251112898872e-23
1.496091072000000320e-02 3.502687935903226335e-24